build/waveform.vcd
$date
	Mon Jan 29 22:27:04 2024
$end
$version
	Icarus Verilog
$end
$timescale
	1s
$end
$scope module testbench $end
$var wire 1 ! OneKiloHert $end
$var parameter 32 " PRD $end
$var reg 1 # clk $end
$scope module UUT $end
$var wire 1 # clk $end
$var reg 1 ! OneKiloHert $end
$var reg 16 $ count [15:0] $end
$upscope $end
$upscope $end
$enddefinitions $end
$comment Show the parameter values. $end
$dumpall
b11000011100000100 "
$end
#0
$dumpvars
b1 $
1#
0!
$end
#1
0#
#2
b10 $
1#
#3
0#
#4
b11 $
1#
#5
0#
#6
b100 $
1#
#7
0#
#8
b101 $
1#
#9
0#
#10
b110 $
1#
#11
0#
#12
b111 $
1#
#13
0#
#14
b1000 $
1#
#15
0#
#16
b1001 $
1#
#17
0#
#18
b1010 $
1#
#19
0#
#20
b1011 $
1#
#21
0#
#22
b1100 $
1#
#23
0#
#24
b1101 $
1#
#25
0#
#26
b1110 $
1#
#27
0#
#28
b1111 $
1#
#29
0#
#30
b10000 $
1#
#31
0#
#32
b10001 $
1#
#33
0#
#34
b10010 $
1#
#35
0#
#36
b10011 $
1#
#37
0#
#38
b10100 $
1#
#39
0#
#40
b10101 $
1#
#41
0#
#42
b10110 $
1#
#43
0#
#44
b10111 $
1#
#45
0#
#46
b11000 $
1#
#47
0#
#48
b11001 $
1#
#49
0#
#50
b11010 $
1#
#51
0#
#52
b11011 $
1#
#53
0#
#54
b11100 $
1#
#55
0#
#56
b11101 $
1#
#57
0#
#58
b11110 $
1#
#59
0#
#60
b11111 $
1#
#61
0#
#62
b100000 $
1#
#63
0#
#64
b100001 $
1#
#65
0#
#66
b100010 $
1#
#67
0#
#68
b100011 $
1#
#69
0#
#70
b100100 $
1#
#71
0#
#72
b100101 $
1#
#73
0#
#74
b100110 $
1#
#75
0#
#76
b100111 $
1#
#77
0#
#78
b101000 $
1#
#79
0#
#80
b101001 $
1#
#81
0#
#82
b101010 $
1#
#83
0#
#84
b101011 $
1#
#85
0#
#86
b101100 $
1#
#87
0#
#88
b101101 $
1#
#89
0#
#90
b101110 $
1#
#91
0#
#92
b101111 $
1#
#93
0#
#94
b110000 $
1#
#95
0#
#96
b110001 $
1#
#97
0#
#98
b110010 $
1#
#99
0#
#100
b110011 $
1#
#101
0#
#102
b110100 $
1#
#103
0#
#104
b110101 $
1#
#105
0#
#106
b110110 $
1#
#107
0#
#108
b110111 $
1#
#109
0#
#110
b111000 $
1#
#111
0#
#112
b111001 $
1#
#113
0#
#114
b111010 $
1#
#115
0#
#116
b111011 $
1#
#117
0#
#118
b111100 $
1#
#119
0#
#120
b111101 $
1#
#121
0#
#122
b111110 $
1#
#123
0#
#124
b111111 $
1#
#125
0#
#126
b1000000 $
1#
#127
0#
#128
b1000001 $
1#
#129
0#
#130
b1000010 $
1#
#131
0#
#132
b1000011 $
1#
#133
0#
#134
b1000100 $
1#
#135
0#
#136
b1000101 $
1#
#137
0#
#138
b1000110 $
1#
#139
0#
#140
b1000111 $
1#
#141
0#
#142
b1001000 $
1#
#143
0#
#144
b1001001 $
1#
#145
0#
#146
b1001010 $
1#
#147
0#
#148
b1001011 $
1#
#149
0#
#150
b1001100 $
1#
#151
0#
#152
b1001101 $
1#
#153
0#
#154
b1001110 $
1#
#155
0#
#156
b1001111 $
1#
#157
0#
#158
b1010000 $
1#
#159
0#
#160
b1010001 $
1#
#161
0#
#162
b1010010 $
1#
#163
0#
#164
b1010011 $
1#
#165
0#
#166
b1010100 $
1#
#167
0#
#168
b1010101 $
1#
#169
0#
#170
b1010110 $
1#
#171
0#
#172
b1010111 $
1#
#173
0#
#174
b1011000 $
1#
#175
0#
#176
b1011001 $
1#
#177
0#
#178
b1011010 $
1#
#179
0#
#180
b1011011 $
1#
#181
0#
#182
b1011100 $
1#
#183
0#
#184
b1011101 $
1#
#185
0#
#186
b1011110 $
1#
#187
0#
#188
b1011111 $
1#
#189
0#
#190
b1100000 $
1#
#191
0#
#192
b1100001 $
1#
#193
0#
#194
b1100010 $
1#
#195
0#
#196
b1100011 $
1#
#197
0#
#198
b1100100 $
1#
#199
0#
#200
b1100101 $
1#
#201
0#
#202
b1100110 $
1#
#203
0#
#204
b1100111 $
1#
#205
0#
#206
b1101000 $
1#
#207
0#
#208
b1101001 $
1#
#209
0#
#210
b1101010 $
1#
#211
0#
#212
b1101011 $
1#
#213
0#
#214
b1101100 $
1#
#215
0#
#216
b1101101 $
1#
#217
0#
#218
b1101110 $
1#
#219
0#
#220
b1101111 $
1#
#221
0#
#222
b1110000 $
1#
#223
0#
#224
b1110001 $
1#
#225
0#
#226
b1110010 $
1#
#227
0#
#228
b1110011 $
1#
#229
0#
#230
b1110100 $
1#
#231
0#
#232
b1110101 $
1#
#233
0#
#234
b1110110 $
1#
#235
0#
#236
b1110111 $
1#
#237
0#
#238
b1111000 $
1#
#239
0#
#240
b1111001 $
1#
#241
0#
#242
b1111010 $
1#
#243
0#
#244
b1111011 $
1#
#245
0#
#246
b1111100 $
1#
#247
0#
#248
b1111101 $
1#
#249
0#
#250
b1111110 $
1#
#251
0#
#252
b1111111 $
1#
#253
0#
#254
b10000000 $
1#
#255
0#
#256
b10000001 $
1#
#257
0#
#258
b10000010 $
1#
#259
0#
#260
b10000011 $
1#
#261
0#
#262
b10000100 $
1#
#263
0#
#264
b10000101 $
1#
#265
0#
#266
b10000110 $
1#
#267
0#
#268
b10000111 $
1#
#269
0#
#270
b10001000 $
1#
#271
0#
#272
b10001001 $
1#
#273
0#
#274
b10001010 $
1#
#275
0#
#276
b10001011 $
1#
#277
0#
#278
b10001100 $
1#
#279
0#
#280
b10001101 $
1#
#281
0#
#282
b10001110 $
1#
#283
0#
#284
b10001111 $
1#
#285
0#
#286
b10010000 $
1#
#287
0#
#288
b10010001 $
1#
#289
0#
#290
b10010010 $
1#
#291
0#
#292
b10010011 $
1#
#293
0#
#294
b10010100 $
1#
#295
0#
#296
b10010101 $
1#
#297
0#
#298
b10010110 $
1#
#299
0#
#300
b10010111 $
1#
#301
0#
#302
b10011000 $
1#
#303
0#
#304
b10011001 $
1#
#305
0#
#306
b10011010 $
1#
#307
0#
#308
b10011011 $
1#
#309
0#
#310
b10011100 $
1#
#311
0#
#312
b10011101 $
1#
#313
0#
#314
b10011110 $
1#
#315
0#
#316
b10011111 $
1#
#317
0#
#318
b10100000 $
1#
#319
0#
#320
b10100001 $
1#
#321
0#
#322
b10100010 $
1#
#323
0#
#324
b10100011 $
1#
#325
0#
#326
b10100100 $
1#
#327
0#
#328
b10100101 $
1#
#329
0#
#330
b10100110 $
1#
#331
0#
#332
b10100111 $
1#
#333
0#
#334
b10101000 $
1#
#335
0#
#336
b10101001 $
1#
#337
0#
#338
b10101010 $
1#
#339
0#
#340
b10101011 $
1#
#341
0#
#342
b10101100 $
1#
#343
0#
#344
b10101101 $
1#
#345
0#
#346
b10101110 $
1#
#347
0#
#348
b10101111 $
1#
#349
0#
#350
b10110000 $
1#
#351
0#
#352
b10110001 $
1#
#353
0#
#354
b10110010 $
1#
#355
0#
#356
b10110011 $
1#
#357
0#
#358
b10110100 $
1#
#359
0#
#360
b10110101 $
1#
#361
0#
#362
b10110110 $
1#
#363
0#
#364
b10110111 $
1#
#365
0#
#366
b10111000 $
1#
#367
0#
#368
b10111001 $
1#
#369
0#
#370
b10111010 $
1#
#371
0#
#372
b10111011 $
1#
#373
0#
#374
b10111100 $
1#
#375
0#
#376
b10111101 $
1#
#377
0#
#378
b10111110 $
1#
#379
0#
#380
b10111111 $
1#
#381
0#
#382
b11000000 $
1#
#383
0#
#384
b11000001 $
1#
#385
0#
#386
b11000010 $
1#
#387
0#
#388
b11000011 $
1#
#389
0#
#390
b11000100 $
1#
#391
0#
#392
b11000101 $
1#
#393
0#
#394
b11000110 $
1#
#395
0#
#396
b11000111 $
1#
#397
0#
#398
b11001000 $
1#
#399
0#
#400
b11001001 $
1#
#401
0#
#402
b11001010 $
1#
#403
0#
#404
b11001011 $
1#
#405
0#
#406
b11001100 $
1#
#407
0#
#408
b11001101 $
1#
#409
0#
#410
b11001110 $
1#
#411
0#
#412
b11001111 $
1#
#413
0#
#414
b11010000 $
1#
#415
0#
#416
b11010001 $
1#
#417
0#
#418
b11010010 $
1#
#419
0#
#420
b11010011 $
1#
#421
0#
#422
b11010100 $
1#
#423
0#
#424
b11010101 $
1#
#425
0#
#426
b11010110 $
1#
#427
0#
#428
b11010111 $
1#
#429
0#
#430
b11011000 $
1#
#431
0#
#432
b11011001 $
1#
#433
0#
#434
b11011010 $
1#
#435
0#
#436
b11011011 $
1#
#437
0#
#438
b11011100 $
1#
#439
0#
#440
b11011101 $
1#
#441
0#
#442
b11011110 $
1#
#443
0#
#444
b11011111 $
1#
#445
0#
#446
b11100000 $
1#
#447
0#
#448
b11100001 $
1#
#449
0#
#450
b11100010 $
1#
#451
0#
#452
b11100011 $
1#
#453
0#
#454
b11100100 $
1#
#455
0#
#456
b11100101 $
1#
#457
0#
#458
b11100110 $
1#
#459
0#
#460
b11100111 $
1#
#461
0#
#462
b11101000 $
1#
#463
0#
#464
b11101001 $
1#
#465
0#
#466
b11101010 $
1#
#467
0#
#468
b11101011 $
1#
#469
0#
#470
b11101100 $
1#
#471
0#
#472
b11101101 $
1#
#473
0#
#474
b11101110 $
1#
#475
0#
#476
b11101111 $
1#
#477
0#
#478
b11110000 $
1#
#479
0#
#480
b11110001 $
1#
#481
0#
#482
b11110010 $
1#
#483
0#
#484
b11110011 $
1#
#485
0#
#486
b11110100 $
1#
#487
0#
#488
b11110101 $
1#
#489
0#
#490
b11110110 $
1#
#491
0#
#492
b11110111 $
1#
#493
0#
#494
b11111000 $
1#
#495
0#
#496
b11111001 $
1#
#497
0#
#498
b11111010 $
1#
#499
0#
#500
b11111011 $
1#
#501
0#
#502
b11111100 $
1#
#503
0#
#504
b11111101 $
1#
#505
0#
#506
b11111110 $
1#
#507
0#
#508
b11111111 $
1#
#509
0#
#510
b100000000 $
1#
#511
0#
#512
b100000001 $
1#
#513
0#
#514
b100000010 $
1#
#515
0#
#516
b100000011 $
1#
#517
0#
#518
b100000100 $
1#
#519
0#
#520
b100000101 $
1#
#521
0#
#522
b100000110 $
1#
#523
0#
#524
b100000111 $
1#
#525
0#
#526
b100001000 $
1#
#527
0#
#528
b100001001 $
1#
#529
0#
#530
b100001010 $
1#
#531
0#
#532
b100001011 $
1#
#533
0#
#534
b100001100 $
1#
#535
0#
#536
b100001101 $
1#
#537
0#
#538
b100001110 $
1#
#539
0#
#540
b100001111 $
1#
#541
0#
#542
b100010000 $
1#
#543
0#
#544
b100010001 $
1#
#545
0#
#546
b100010010 $
1#
#547
0#
#548
b100010011 $
1#
#549
0#
#550
b100010100 $
1#
#551
0#
#552
b100010101 $
1#
#553
0#
#554
b100010110 $
1#
#555
0#
#556
b100010111 $
1#
#557
0#
#558
b100011000 $
1#
#559
0#
#560
b100011001 $
1#
#561
0#
#562
b100011010 $
1#
#563
0#
#564
b100011011 $
1#
#565
0#
#566
b100011100 $
1#
#567
0#
#568
b100011101 $
1#
#569
0#
#570
b100011110 $
1#
#571
0#
#572
b100011111 $
1#
#573
0#
#574
b100100000 $
1#
#575
0#
#576
b100100001 $
1#
#577
0#
#578
b100100010 $
1#
#579
0#
#580
b100100011 $
1#
#581
0#
#582
b100100100 $
1#
#583
0#
#584
b100100101 $
1#
#585
0#
#586
b100100110 $
1#
#587
0#
#588
b100100111 $
1#
#589
0#
#590
b100101000 $
1#
#591
0#
#592
b100101001 $
1#
#593
0#
#594
b100101010 $
1#
#595
0#
#596
b100101011 $
1#
#597
0#
#598
b100101100 $
1#
#599
0#
#600
b100101101 $
1#
#601
0#
#602
b100101110 $
1#
#603
0#
#604
b100101111 $
1#
#605
0#
#606
b100110000 $
1#
#607
0#
#608
b100110001 $
1#
#609
0#
#610
b100110010 $
1#
#611
0#
#612
b100110011 $
1#
#613
0#
#614
b100110100 $
1#
#615
0#
#616
b100110101 $
1#
#617
0#
#618
b100110110 $
1#
#619
0#
#620
b100110111 $
1#
#621
0#
#622
b100111000 $
1#
#623
0#
#624
b100111001 $
1#
#625
0#
#626
b100111010 $
1#
#627
0#
#628
b100111011 $
1#
#629
0#
#630
b100111100 $
1#
#631
0#
#632
b100111101 $
1#
#633
0#
#634
b100111110 $
1#
#635
0#
#636
b100111111 $
1#
#637
0#
#638
b101000000 $
1#
#639
0#
#640
b101000001 $
1#
#641
0#
#642
b101000010 $
1#
#643
0#
#644
b101000011 $
1#
#645
0#
#646
b101000100 $
1#
#647
0#
#648
b101000101 $
1#
#649
0#
#650
b101000110 $
1#
#651
0#
#652
b101000111 $
1#
#653
0#
#654
b101001000 $
1#
#655
0#
#656
b101001001 $
1#
#657
0#
#658
b101001010 $
1#
#659
0#
#660
b101001011 $
1#
#661
0#
#662
b101001100 $
1#
#663
0#
#664
b101001101 $
1#
#665
0#
#666
b101001110 $
1#
#667
0#
#668
b101001111 $
1#
#669
0#
#670
b101010000 $
1#
#671
0#
#672
b101010001 $
1#
#673
0#
#674
b101010010 $
1#
#675
0#
#676
b101010011 $
1#
#677
0#
#678
b101010100 $
1#
#679
0#
#680
b101010101 $
1#
#681
0#
#682
b101010110 $
1#
#683
0#
#684
b101010111 $
1#
#685
0#
#686
b101011000 $
1#
#687
0#
#688
b101011001 $
1#
#689
0#
#690
b101011010 $
1#
#691
0#
#692
b101011011 $
1#
#693
0#
#694
b101011100 $
1#
#695
0#
#696
b101011101 $
1#
#697
0#
#698
b101011110 $
1#
#699
0#
#700
b101011111 $
1#
#701
0#
#702
b101100000 $
1#
#703
0#
#704
b101100001 $
1#
#705
0#
#706
b101100010 $
1#
#707
0#
#708
b101100011 $
1#
#709
0#
#710
b101100100 $
1#
#711
0#
#712
b101100101 $
1#
#713
0#
#714
b101100110 $
1#
#715
0#
#716
b101100111 $
1#
#717
0#
#718
b101101000 $
1#
#719
0#
#720
b101101001 $
1#
#721
0#
#722
b101101010 $
1#
#723
0#
#724
b101101011 $
1#
#725
0#
#726
b101101100 $
1#
#727
0#
#728
b101101101 $
1#
#729
0#
#730
b101101110 $
1#
#731
0#
#732
b101101111 $
1#
#733
0#
#734
b101110000 $
1#
#735
0#
#736
b101110001 $
1#
#737
0#
#738
b101110010 $
1#
#739
0#
#740
b101110011 $
1#
#741
0#
#742
b101110100 $
1#
#743
0#
#744
b101110101 $
1#
#745
0#
#746
b101110110 $
1#
#747
0#
#748
b101110111 $
1#
#749
0#
#750
b101111000 $
1#
#751
0#
#752
b101111001 $
1#
#753
0#
#754
b101111010 $
1#
#755
0#
#756
b101111011 $
1#
#757
0#
#758
b101111100 $
1#
#759
0#
#760
b101111101 $
1#
#761
0#
#762
b101111110 $
1#
#763
0#
#764
b101111111 $
1#
#765
0#
#766
b110000000 $
1#
#767
0#
#768
b110000001 $
1#
#769
0#
#770
b110000010 $
1#
#771
0#
#772
b110000011 $
1#
#773
0#
#774
b110000100 $
1#
#775
0#
#776
b110000101 $
1#
#777
0#
#778
b110000110 $
1#
#779
0#
#780
b110000111 $
1#
#781
0#
#782
b110001000 $
1#
#783
0#
#784
b110001001 $
1#
#785
0#
#786
b110001010 $
1#
#787
0#
#788
b110001011 $
1#
#789
0#
#790
b110001100 $
1#
#791
0#
#792
b110001101 $
1#
#793
0#
#794
b110001110 $
1#
#795
0#
#796
b110001111 $
1#
#797
0#
#798
b110010000 $
1#
#799
0#
#800
b110010001 $
1#
#801
0#
#802
b110010010 $
1#
#803
0#
#804
b110010011 $
1#
#805
0#
#806
b110010100 $
1#
#807
0#
#808
b110010101 $
1#
#809
0#
#810
b110010110 $
1#
#811
0#
#812
b110010111 $
1#
#813
0#
#814
b110011000 $
1#
#815
0#
#816
b110011001 $
1#
#817
0#
#818
b110011010 $
1#
#819
0#
#820
b110011011 $
1#
#821
0#
#822
b110011100 $
1#
#823
0#
#824
b110011101 $
1#
#825
0#
#826
b110011110 $
1#
#827
0#
#828
b110011111 $
1#
#829
0#
#830
b110100000 $
1#
#831
0#
#832
b110100001 $
1#
#833
0#
#834
b110100010 $
1#
#835
0#
#836
b110100011 $
1#
#837
0#
#838
b110100100 $
1#
#839
0#
#840
b110100101 $
1#
#841
0#
#842
b110100110 $
1#
#843
0#
#844
b110100111 $
1#
#845
0#
#846
b110101000 $
1#
#847
0#
#848
b110101001 $
1#
#849
0#
#850
b110101010 $
1#
#851
0#
#852
b110101011 $
1#
#853
0#
#854
b110101100 $
1#
#855
0#
#856
b110101101 $
1#
#857
0#
#858
b110101110 $
1#
#859
0#
#860
b110101111 $
1#
#861
0#
#862
b110110000 $
1#
#863
0#
#864
b110110001 $
1#
#865
0#
#866
b110110010 $
1#
#867
0#
#868
b110110011 $
1#
#869
0#
#870
b110110100 $
1#
#871
0#
#872
b110110101 $
1#
#873
0#
#874
b110110110 $
1#
#875
0#
#876
b110110111 $
1#
#877
0#
#878
b110111000 $
1#
#879
0#
#880
b110111001 $
1#
#881
0#
#882
b110111010 $
1#
#883
0#
#884
b110111011 $
1#
#885
0#
#886
b110111100 $
1#
#887
0#
#888
b110111101 $
1#
#889
0#
#890
b110111110 $
1#
#891
0#
#892
b110111111 $
1#
#893
0#
#894
b111000000 $
1#
#895
0#
#896
b111000001 $
1#
#897
0#
#898
b111000010 $
1#
#899
0#
#900
b111000011 $
1#
#901
0#
#902
b111000100 $
1#
#903
0#
#904
b111000101 $
1#
#905
0#
#906
b111000110 $
1#
#907
0#
#908
b111000111 $
1#
#909
0#
#910
b111001000 $
1#
#911
0#
#912
b111001001 $
1#
#913
0#
#914
b111001010 $
1#
#915
0#
#916
b111001011 $
1#
#917
0#
#918
b111001100 $
1#
#919
0#
#920
b111001101 $
1#
#921
0#
#922
b111001110 $
1#
#923
0#
#924
b111001111 $
1#
#925
0#
#926
b111010000 $
1#
#927
0#
#928
b111010001 $
1#
#929
0#
#930
b111010010 $
1#
#931
0#
#932
b111010011 $
1#
#933
0#
#934
b111010100 $
1#
#935
0#
#936
b111010101 $
1#
#937
0#
#938
b111010110 $
1#
#939
0#
#940
b111010111 $
1#
#941
0#
#942
b111011000 $
1#
#943
0#
#944
b111011001 $
1#
#945
0#
#946
b111011010 $
1#
#947
0#
#948
b111011011 $
1#
#949
0#
#950
b111011100 $
1#
#951
0#
#952
b111011101 $
1#
#953
0#
#954
b111011110 $
1#
#955
0#
#956
b111011111 $
1#
#957
0#
#958
b111100000 $
1#
#959
0#
#960
b111100001 $
1#
#961
0#
#962
b111100010 $
1#
#963
0#
#964
b111100011 $
1#
#965
0#
#966
b111100100 $
1#
#967
0#
#968
b111100101 $
1#
#969
0#
#970
b111100110 $
1#
#971
0#
#972
b111100111 $
1#
#973
0#
#974
b111101000 $
1#
#975
0#
#976
b111101001 $
1#
#977
0#
#978
b111101010 $
1#
#979
0#
#980
b111101011 $
1#
#981
0#
#982
b111101100 $
1#
#983
0#
#984
b111101101 $
1#
#985
0#
#986
b111101110 $
1#
#987
0#
#988
b111101111 $
1#
#989
0#
#990
b111110000 $
1#
#991
0#
#992
b111110001 $
1#
#993
0#
#994
b111110010 $
1#
#995
0#
#996
b111110011 $
1#
#997
0#
#998
b111110100 $
1#
#999
0#
#1000
b111110101 $
1#
#1001
0#
#1002
b111110110 $
1#
#1003
0#
#1004
b111110111 $
1#
#1005
0#
#1006
b111111000 $
1#
#1007
0#
#1008
b111111001 $
1#
#1009
0#
#1010
b111111010 $
1#
#1011
0#
#1012
b111111011 $
1#
#1013
0#
#1014
b111111100 $
1#
#1015
0#
#1016
b111111101 $
1#
#1017
0#
#1018
b111111110 $
1#
#1019
0#
#1020
b111111111 $
1#
#1021
0#
#1022
b1000000000 $
1#
#1023
0#
#1024
b1000000001 $
1#
#1025
0#
#1026
b1000000010 $
1#
#1027
0#
#1028
b1000000011 $
1#
#1029
0#
#1030
b1000000100 $
1#
#1031
0#
#1032
b1000000101 $
1#
#1033
0#
#1034
b1000000110 $
1#
#1035
0#
#1036
b1000000111 $
1#
#1037
0#
#1038
b1000001000 $
1#
#1039
0#
#1040
b1000001001 $
1#
#1041
0#
#1042
b1000001010 $
1#
#1043
0#
#1044
b1000001011 $
1#
#1045
0#
#1046
b1000001100 $
1#
#1047
0#
#1048
b1000001101 $
1#
#1049
0#
#1050
b1000001110 $
1#
#1051
0#
#1052
b1000001111 $
1#
#1053
0#
#1054
b1000010000 $
1#
#1055
0#
#1056
b1000010001 $
1#
#1057
0#
#1058
b1000010010 $
1#
#1059
0#
#1060
b1000010011 $
1#
#1061
0#
#1062
b1000010100 $
1#
#1063
0#
#1064
b1000010101 $
1#
#1065
0#
#1066
b1000010110 $
1#
#1067
0#
#1068
b1000010111 $
1#
#1069
0#
#1070
b1000011000 $
1#
#1071
0#
#1072
b1000011001 $
1#
#1073
0#
#1074
b1000011010 $
1#
#1075
0#
#1076
b1000011011 $
1#
#1077
0#
#1078
b1000011100 $
1#
#1079
0#
#1080
b1000011101 $
1#
#1081
0#
#1082
b1000011110 $
1#
#1083
0#
#1084
b1000011111 $
1#
#1085
0#
#1086
b1000100000 $
1#
#1087
0#
#1088
b1000100001 $
1#
#1089
0#
#1090
b1000100010 $
1#
#1091
0#
#1092
b1000100011 $
1#
#1093
0#
#1094
b1000100100 $
1#
#1095
0#
#1096
b1000100101 $
1#
#1097
0#
#1098
b1000100110 $
1#
#1099
0#
#1100
b1000100111 $
1#
#1101
0#
#1102
b1000101000 $
1#
#1103
0#
#1104
b1000101001 $
1#
#1105
0#
#1106
b1000101010 $
1#
#1107
0#
#1108
b1000101011 $
1#
#1109
0#
#1110
b1000101100 $
1#
#1111
0#
#1112
b1000101101 $
1#
#1113
0#
#1114
b1000101110 $
1#
#1115
0#
#1116
b1000101111 $
1#
#1117
0#
#1118
b1000110000 $
1#
#1119
0#
#1120
b1000110001 $
1#
#1121
0#
#1122
b1000110010 $
1#
#1123
0#
#1124
b1000110011 $
1#
#1125
0#
#1126
b1000110100 $
1#
#1127
0#
#1128
b1000110101 $
1#
#1129
0#
#1130
b1000110110 $
1#
#1131
0#
#1132
b1000110111 $
1#
#1133
0#
#1134
b1000111000 $
1#
#1135
0#
#1136
b1000111001 $
1#
#1137
0#
#1138
b1000111010 $
1#
#1139
0#
#1140
b1000111011 $
1#
#1141
0#
#1142
b1000111100 $
1#
#1143
0#
#1144
b1000111101 $
1#
#1145
0#
#1146
b1000111110 $
1#
#1147
0#
#1148
b1000111111 $
1#
#1149
0#
#1150
b1001000000 $
1#
#1151
0#
#1152
b1001000001 $
1#
#1153
0#
#1154
b1001000010 $
1#
#1155
0#
#1156
b1001000011 $
1#
#1157
0#
#1158
b1001000100 $
1#
#1159
0#
#1160
b1001000101 $
1#
#1161
0#
#1162
b1001000110 $
1#
#1163
0#
#1164
b1001000111 $
1#
#1165
0#
#1166
b1001001000 $
1#
#1167
0#
#1168
b1001001001 $
1#
#1169
0#
#1170
b1001001010 $
1#
#1171
0#
#1172
b1001001011 $
1#
#1173
0#
#1174
b1001001100 $
1#
#1175
0#
#1176
b1001001101 $
1#
#1177
0#
#1178
b1001001110 $
1#
#1179
0#
#1180
b1001001111 $
1#
#1181
0#
#1182
b1001010000 $
1#
#1183
0#
#1184
b1001010001 $
1#
#1185
0#
#1186
b1001010010 $
1#
#1187
0#
#1188
b1001010011 $
1#
#1189
0#
#1190
b1001010100 $
1#
#1191
0#
#1192
b1001010101 $
1#
#1193
0#
#1194
b1001010110 $
1#
#1195
0#
#1196
b1001010111 $
1#
#1197
0#
#1198
b1001011000 $
1#
#1199
0#
#1200
b1001011001 $
1#
#1201
0#
#1202
b1001011010 $
1#
#1203
0#
#1204
b1001011011 $
1#
#1205
0#
#1206
b1001011100 $
1#
#1207
0#
#1208
b1001011101 $
1#
#1209
0#
#1210
b1001011110 $
1#
#1211
0#
#1212
b1001011111 $
1#
#1213
0#
#1214
b1001100000 $
1#
#1215
0#
#1216
b1001100001 $
1#
#1217
0#
#1218
b1001100010 $
1#
#1219
0#
#1220
b1001100011 $
1#
#1221
0#
#1222
b1001100100 $
1#
#1223
0#
#1224
b1001100101 $
1#
#1225
0#
#1226
b1001100110 $
1#
#1227
0#
#1228
b1001100111 $
1#
#1229
0#
#1230
b1001101000 $
1#
#1231
0#
#1232
b1001101001 $
1#
#1233
0#
#1234
b1001101010 $
1#
#1235
0#
#1236
b1001101011 $
1#
#1237
0#
#1238
b1001101100 $
1#
#1239
0#
#1240
b1001101101 $
1#
#1241
0#
#1242
b1001101110 $
1#
#1243
0#
#1244
b1001101111 $
1#
#1245
0#
#1246
b1001110000 $
1#
#1247
0#
#1248
b1001110001 $
1#
#1249
0#
#1250
b1001110010 $
1#
#1251
0#
#1252
b1001110011 $
1#
#1253
0#
#1254
b1001110100 $
1#
#1255
0#
#1256
b1001110101 $
1#
#1257
0#
#1258
b1001110110 $
1#
#1259
0#
#1260
b1001110111 $
1#
#1261
0#
#1262
b1001111000 $
1#
#1263
0#
#1264
b1001111001 $
1#
#1265
0#
#1266
b1001111010 $
1#
#1267
0#
#1268
b1001111011 $
1#
#1269
0#
#1270
b1001111100 $
1#
#1271
0#
#1272
b1001111101 $
1#
#1273
0#
#1274
b1001111110 $
1#
#1275
0#
#1276
b1001111111 $
1#
#1277
0#
#1278
b1010000000 $
1#
#1279
0#
#1280
b1010000001 $
1#
#1281
0#
#1282
b1010000010 $
1#
#1283
0#
#1284
b1010000011 $
1#
#1285
0#
#1286
b1010000100 $
1#
#1287
0#
#1288
b1010000101 $
1#
#1289
0#
#1290
b1010000110 $
1#
#1291
0#
#1292
b1010000111 $
1#
#1293
0#
#1294
b1010001000 $
1#
#1295
0#
#1296
b1010001001 $
1#
#1297
0#
#1298
b1010001010 $
1#
#1299
0#
#1300
b1010001011 $
1#
#1301
0#
#1302
b1010001100 $
1#
#1303
0#
#1304
b1010001101 $
1#
#1305
0#
#1306
b1010001110 $
1#
#1307
0#
#1308
b1010001111 $
1#
#1309
0#
#1310
b1010010000 $
1#
#1311
0#
#1312
b1010010001 $
1#
#1313
0#
#1314
b1010010010 $
1#
#1315
0#
#1316
b1010010011 $
1#
#1317
0#
#1318
b1010010100 $
1#
#1319
0#
#1320
b1010010101 $
1#
#1321
0#
#1322
b1010010110 $
1#
#1323
0#
#1324
b1010010111 $
1#
#1325
0#
#1326
b1010011000 $
1#
#1327
0#
#1328
b1010011001 $
1#
#1329
0#
#1330
b1010011010 $
1#
#1331
0#
#1332
b1010011011 $
1#
#1333
0#
#1334
b1010011100 $
1#
#1335
0#
#1336
b1010011101 $
1#
#1337
0#
#1338
b1010011110 $
1#
#1339
0#
#1340
b1010011111 $
1#
#1341
0#
#1342
b1010100000 $
1#
#1343
0#
#1344
b1010100001 $
1#
#1345
0#
#1346
b1010100010 $
1#
#1347
0#
#1348
b1010100011 $
1#
#1349
0#
#1350
b1010100100 $
1#
#1351
0#
#1352
b1010100101 $
1#
#1353
0#
#1354
b1010100110 $
1#
#1355
0#
#1356
b1010100111 $
1#
#1357
0#
#1358
b1010101000 $
1#
#1359
0#
#1360
b1010101001 $
1#
#1361
0#
#1362
b1010101010 $
1#
#1363
0#
#1364
b1010101011 $
1#
#1365
0#
#1366
b1010101100 $
1#
#1367
0#
#1368
b1010101101 $
1#
#1369
0#
#1370
b1010101110 $
1#
#1371
0#
#1372
b1010101111 $
1#
#1373
0#
#1374
b1010110000 $
1#
#1375
0#
#1376
b1010110001 $
1#
#1377
0#
#1378
b1010110010 $
1#
#1379
0#
#1380
b1010110011 $
1#
#1381
0#
#1382
b1010110100 $
1#
#1383
0#
#1384
b1010110101 $
1#
#1385
0#
#1386
b1010110110 $
1#
#1387
0#
#1388
b1010110111 $
1#
#1389
0#
#1390
b1010111000 $
1#
#1391
0#
#1392
b1010111001 $
1#
#1393
0#
#1394
b1010111010 $
1#
#1395
0#
#1396
b1010111011 $
1#
#1397
0#
#1398
b1010111100 $
1#
#1399
0#
#1400
b1010111101 $
1#
#1401
0#
#1402
b1010111110 $
1#
#1403
0#
#1404
b1010111111 $
1#
#1405
0#
#1406
b1011000000 $
1#
#1407
0#
#1408
b1011000001 $
1#
#1409
0#
#1410
b1011000010 $
1#
#1411
0#
#1412
b1011000011 $
1#
#1413
0#
#1414
b1011000100 $
1#
#1415
0#
#1416
b1011000101 $
1#
#1417
0#
#1418
b1011000110 $
1#
#1419
0#
#1420
b1011000111 $
1#
#1421
0#
#1422
b1011001000 $
1#
#1423
0#
#1424
b1011001001 $
1#
#1425
0#
#1426
b1011001010 $
1#
#1427
0#
#1428
b1011001011 $
1#
#1429
0#
#1430
b1011001100 $
1#
#1431
0#
#1432
b1011001101 $
1#
#1433
0#
#1434
b1011001110 $
1#
#1435
0#
#1436
b1011001111 $
1#
#1437
0#
#1438
b1011010000 $
1#
#1439
0#
#1440
b1011010001 $
1#
#1441
0#
#1442
b1011010010 $
1#
#1443
0#
#1444
b1011010011 $
1#
#1445
0#
#1446
b1011010100 $
1#
#1447
0#
#1448
b1011010101 $
1#
#1449
0#
#1450
b1011010110 $
1#
#1451
0#
#1452
b1011010111 $
1#
#1453
0#
#1454
b1011011000 $
1#
#1455
0#
#1456
b1011011001 $
1#
#1457
0#
#1458
b1011011010 $
1#
#1459
0#
#1460
b1011011011 $
1#
#1461
0#
#1462
b1011011100 $
1#
#1463
0#
#1464
b1011011101 $
1#
#1465
0#
#1466
b1011011110 $
1#
#1467
0#
#1468
b1011011111 $
1#
#1469
0#
#1470
b1011100000 $
1#
#1471
0#
#1472
b1011100001 $
1#
#1473
0#
#1474
b1011100010 $
1#
#1475
0#
#1476
b1011100011 $
1#
#1477
0#
#1478
b1011100100 $
1#
#1479
0#
#1480
b1011100101 $
1#
#1481
0#
#1482
b1011100110 $
1#
#1483
0#
