build/waveform.vcd
$date
	Sat Jan 20 23:12:08 2024
$end
$version
	Icarus Verilog
$end
$timescale
	1s
$end
$scope module testbench $end
$var wire 11 ! Hz [10:0] $end
$var reg 1 " JA1 $end
$var reg 1 # clk $end
$scope module UUT $end
$var wire 1 " JA1 $end
$var wire 1 # clk $end
$var wire 1 $ OneSecond $end
$var reg 11 % Hz [10:0] $end
$var reg 11 & count [10:0] $end
$scope module U0 $end
$var wire 1 # clk $end
$var reg 1 $ OneSecond $end
$var reg 28 ' count [27:0] $end
$upscope $end
$upscope $end
$upscope $end
$enddefinitions $end
$comment Show the parameter values. $end
$dumpall
$end
#0
$dumpvars
b1 '
b1 &
bx %
1$
1#
0"
bx !
$end
#1
0#
#2
b10 '
1#
#3
0#
#4
b11 '
1#
#5
0#
#6
b100 '
1#
#7
0#
#8
b101 '
1#
#9
0#
#10
b110 '
1#
#11
0#
#12
b111 '
1#
#13
0#
#14
b1000 '
1#
#15
0#
#16
b1001 '
1#
#17
0#
#18
b1010 '
1#
#19
0#
#20
b1011 '
1#
#21
0#
#22
b1100 '
1#
#23
0#
#24
b1101 '
1#
#25
0#
#26
b1110 '
1#
#27
0#
#28
b1111 '
1#
#29
0#
#30
b10000 '
1#
#31
0#
#32
b10001 '
1#
#33
0#
#34
b10010 '
1#
#35
0#
#36
b10011 '
1#
#37
0#
#38
b10100 '
1#
#39
0#
#40
b10101 '
1#
#41
0#
#42
b10110 '
1#
#43
0#
#44
b10111 '
1#
#45
0#
#46
b11000 '
1#
#47
0#
#48
b11001 '
1#
#49
0#
#50
b11010 '
1#
#51
0#
#52
b11011 '
1#
#53
0#
#54
b11100 '
1#
#55
0#
#56
b11101 '
1#
#57
0#
#58
b11110 '
1#
#59
0#
#60
b11111 '
1#
#61
0#
#62
b100000 '
1#
#63
0#
#64
b100001 '
1#
#65
0#
#66
b100010 '
1#
#67
0#
#68
b100011 '
1#
#69
0#
#70
b100100 '
1#
#71
0#
#72
b100101 '
1#
#73
0#
#74
b100110 '
1#
#75
0#
#76
b100111 '
1#
#77
0#
#78
b101000 '
1#
#79
0#
#80
b101001 '
1#
#81
0#
#82
b101010 '
1#
#83
0#
#84
b101011 '
1#
#85
0#
#86
b101100 '
1#
#87
0#
#88
b101101 '
1#
#89
0#
#90
b101110 '
1#
#91
0#
#92
b101111 '
1#
#93
0#
#94
b110000 '
1#
#95
0#
#96
b110001 '
1#
#97
0#
#98
b110010 '
1#
#99
0#
#100
b0 &
b1 !
b1 %
0$
b1 '
1#
#101
0#
#102
b10 '
1#
#103
0#
#104
b11 '
1#
#105
0#
#106
b100 '
1#
#107
0#
#108
b101 '
1#
#109
0#
#110
b110 '
b1 &
1#
1"
#111
0#
#112
b111 '
1#
#113
0#
#114
b1000 '
1#
#115
0#
#116
b1001 '
1#
#117
0#
#118
b1010 '
1#
#119
0#
#120
b1011 '
b10 &
1#
0"
#121
0#
#122
b1100 '
1#
#123
0#
#124
b1101 '
1#
#125
0#
#126
b1110 '
1#
#127
0#
#128
b1111 '
1#
#129
0#
#130
b10000 '
b11 &
1#
1"
#131
0#
#132
b10001 '
1#
#133
0#
#134
b10010 '
1#
#135
0#
#136
b10011 '
1#
#137
0#
#138
b10100 '
1#
#139
0#
#140
b10101 '
b100 &
1#
0"
#141
0#
#142
b10110 '
1#
#143
0#
#144
b10111 '
1#
#145
0#
#146
b11000 '
1#
#147
0#
#148
b11001 '
1#
#149
0#
#150
b11010 '
b101 &
1#
1"
#151
0#
#152
b11011 '
1#
#153
0#
#154
b11100 '
1#
#155
0#
#156
b11101 '
1#
#157
0#
#158
b11110 '
1#
#159
0#
#160
b11111 '
b110 &
1#
0"
#161
0#
#162
b100000 '
1#
#163
0#
#164
b100001 '
1#
#165
0#
#166
b100010 '
1#
#167
0#
#168
b100011 '
1#
#169
0#
#170
b100100 '
b111 &
1#
1"
#171
0#
#172
b100101 '
1#
#173
0#
#174
b100110 '
1#
#175
0#
#176
b100111 '
1#
#177
0#
#178
b101000 '
1#
#179
0#
#180
b101001 '
1#
#181
0#
#182
b101010 '
1#
#183
0#
#184
b101011 '
1#
#185
0#
#186
b101100 '
1#
#187
0#
#188
b101101 '
1#
#189
0#
#190
b101110 '
1#
#191
0#
#192
b101111 '
1#
#193
0#
#194
b110000 '
1#
#195
0#
#196
b110001 '
1#
#197
0#
#198
b110010 '
1#
#199
0#
#200
b0 &
b111 !
b111 %
1$
b1 '
1#
#201
0#
#202
b10 '
1#
#203
0#
#204
b11 '
1#
#205
0#
#206
b100 '
1#
#207
0#
#208
b101 '
1#
#209
0#
#210
b110 '
1#
