build/waveform.vcd
$date
	Wed Jan 24 18:22:38 2024
$end
$version
	Icarus Verilog
$end
$timescale
	1s
$end
$scope module testbench $end
$var wire 4 ! Thousands_Data [3:0] $end
$var wire 4 " Tens_Data [3:0] $end
$var wire 4 # Ones_Data [3:0] $end
$var wire 4 $ Hundreds_Data [3:0] $end
$var reg 1 % JA1 $end
$var reg 1 & clk $end
$scope module UUT $end
$var wire 1 % JA1 $end
$var wire 1 & clk $end
$var wire 4 ' Thousands_Data [3:0] $end
$var wire 4 ( Tens_Data [3:0] $end
$var wire 4 ) Ones_Data [3:0] $end
$var wire 4 * Hundreds_Data [3:0] $end
$var wire 10 + Binary_Hz [9:0] $end
$scope module Unit0 $end
$var wire 1 % JA1 $end
$var wire 1 & clk $end
$var wire 1 , OneSecond $end
$var reg 10 - Hz [9:0] $end
$var reg 10 . count [9:0] $end
$scope module U0 $end
$var wire 1 & clk $end
$var reg 1 , OneSecond $end
$var reg 26 / count [25:0] $end
$upscope $end
$upscope $end
$scope module Unit1 $end
$var wire 10 0 Hz [9:0] $end
$var reg 4 1 Hundreds_Data [3:0] $end
$var reg 4 2 Ones_Data [3:0] $end
$var reg 4 3 Tens_Data [3:0] $end
$var reg 4 4 Thousands_Data [3:0] $end
$var reg 26 5 bin [25:0] $end
$scope begin $ivl_for_loop0 $end
$var integer 32 6 i [31:0] $end
$upscope $end
$upscope $end
$upscope $end
$scope begin $ivl_for_loop1 $end
$var integer 32 7 i [31:0] $end
$upscope $end
$upscope $end
$enddefinitions $end
$comment Show the parameter values. $end
$dumpall
$end
#0
$dumpvars
bx 7
b1010 6
b0 5
b0 4
b0 3
b0 2
b0 1
b0 0
b1 /
b0 .
b0 -
0,
b0 +
b0 *
b0 )
b0 (
b0 '
1&
0%
b0 $
b0 #
b0 "
b0 !
$end
#1
0&
#2
b10 /
1&
#3
0&
#4
b11 /
1&
#5
0&
#6
b100 /
1&
#7
0&
#8
b101 /
1&
#9
0&
#10
b110 /
1&
#11
0&
#12
b111 /
1&
#13
0&
#14
b1000 /
1&
#15
0&
#16
b1001 /
1&
#17
0&
#18
b1010 /
1&
#19
0&
#20
b1011 /
1&
#21
0&
#22
b1100 /
1&
#23
0&
#24
b1101 /
1&
#25
0&
#26
b1110 /
1&
#27
0&
#28
b1111 /
1&
#29
0&
#30
b10000 /
1&
#31
0&
#32
b10001 /
1&
#33
0&
#34
b10010 /
1&
#35
0&
#36
b10011 /
1&
#37
0&
#38
b10100 /
1&
#39
0&
#40
b10101 /
1&
#41
0&
#42
b10110 /
1&
#43
0&
#44
b10111 /
1&
#45
0&
#46
b11000 /
1&
#47
0&
#48
b11001 /
1&
#49
0&
#50
b11010 /
1&
#51
0&
#52
b11011 /
1&
#53
0&
#54
b11100 /
1&
#55
0&
#56
b11101 /
1&
#57
0&
#58
b11110 /
1&
#59
0&
#60
b11111 /
1&
#61
0&
#62
b100000 /
1&
#63
0&
#64
b100001 /
1&
#65
0&
#66
b100010 /
1&
#67
0&
#68
b100011 /
1&
#69
0&
#70
b100100 /
1&
#71
0&
#72
b100101 /
1&
#73
0&
#74
b100110 /
1&
#75
0&
#76
b100111 /
1&
#77
0&
#78
b101000 /
1&
#79
0&
#80
b101001 /
1&
#81
0&
#82
b101010 /
1&
#83
0&
#84
b101011 /
1&
#85
0&
#86
b101100 /
1&
#87
0&
#88
b101101 /
1&
#89
0&
#90
b101110 /
1&
#91
0&
#92
b101111 /
1&
#93
0&
#94
b110000 /
1&
#95
0&
#96
b110001 /
1&
#97
0&
#98
b110010 /
1&
#99
0&
#100
b1 .
b110011 /
1&
1%
b0 7
#101
0&
0%
b1 7
#102
b10 .
b110100 /
1&
1%
b10 7
#103
0&
0%
b11 7
#104
b11 .
b110101 /
1&
1%
b100 7
#105
0&
0%
b101 7
#106
b100 .
b110110 /
1&
1%
b110 7
#107
0&
0%
b111 7
#108
b101 .
b110111 /
1&
1%
b1000 7
#109
0&
0%
b1001 7
#110
b110 .
b111000 /
1&
1%
b1010 7
#111
0&
0%
b1011 7
#112
b111 .
b111001 /
1&
1%
b1100 7
#113
0&
0%
b1101 7
#114
b1000 .
b111010 /
1&
1%
b1110 7
#115
0&
0%
b1111 7
#116
b1001 .
b111011 /
1&
1%
b10000 7
#117
0&
0%
b10001 7
#118
b1010 .
b111100 /
1&
1%
b10010 7
#119
0&
0%
b10011 7
#120
b1011 .
b111101 /
1&
1%
b10100 7
#121
0&
0%
b10101 7
#122
b1100 .
b111110 /
1&
1%
b10110 7
#123
0&
0%
b10111 7
#124
b1101 .
b111111 /
1&
1%
b11000 7
#125
0&
0%
b11001 7
#126
b1110 .
b1000000 /
1&
1%
b11010 7
#127
0&
0%
b11011 7
#128
b1111 .
b1000001 /
1&
1%
b11100 7
#129
0&
0%
b11101 7
#130
b10000 .
b1000010 /
1&
1%
b11110 7
#131
0&
0%
b11111 7
#132
b10001 .
b1000011 /
1&
1%
b100000 7
#133
0&
0%
b100001 7
#134
b10010 .
b1000100 /
1&
1%
b100010 7
#135
0&
0%
b100011 7
#136
b10011 .
b1000101 /
1&
1%
b100100 7
#137
0&
0%
b100101 7
#138
b10100 .
b1000110 /
1&
1%
b100110 7
#139
0&
0%
b100111 7
#140
b10101 .
b1000111 /
1&
1%
b101000 7
#141
0&
0%
b101001 7
#142
b10110 .
b1001000 /
1&
1%
b101010 7
#143
0&
0%
b101011 7
#144
b10111 .
b1001001 /
1&
1%
b101100 7
#145
0&
0%
b101101 7
#146
b11000 .
b1001010 /
1&
1%
b101110 7
#147
0&
0%
b101111 7
#148
b11001 .
b1001011 /
1&
1%
b110000 7
#149
0&
0%
b110001 7
#150
b11010 .
b1001100 /
1&
1%
b110010 7
#151
0&
0%
b110011 7
#152
b11011 .
b1001101 /
1&
1%
b110100 7
#153
0&
0%
b110101 7
#154
b11100 .
b1001110 /
1&
1%
b110110 7
#155
0&
0%
b110111 7
#156
b11101 .
b1001111 /
1&
1%
b111000 7
#157
0&
0%
b111001 7
#158
b11110 .
b1010000 /
1&
1%
b111010 7
#159
0&
0%
b111011 7
#160
b11111 .
b1010001 /
1&
1%
b111100 7
#161
0&
0%
b111101 7
#162
b100000 .
b1010010 /
1&
1%
b111110 7
#163
0&
0%
b111111 7
#164
b100001 .
b1010011 /
1&
1%
b1000000 7
#165
0&
0%
b1000001 7
#166
b100010 .
b1010100 /
1&
1%
b1000010 7
#167
0&
0%
b1000011 7
#168
b100011 .
b1010101 /
1&
1%
b1000100 7
#169
0&
0%
b1000101 7
#170
b100100 .
b1010110 /
1&
1%
b1000110 7
#171
0&
0%
b1000111 7
#172
b100101 .
b1010111 /
1&
1%
b1001000 7
#173
0&
0%
b1001001 7
#174
b100110 .
b1011000 /
1&
1%
b1001010 7
#175
0&
0%
b1001011 7
#176
b100111 .
b1011001 /
1&
1%
b1001100 7
#177
0&
0%
b1001101 7
#178
b101000 .
b1011010 /
1&
1%
b1001110 7
#179
0&
0%
b1001111 7
#180
b101001 .
b1011011 /
1&
1%
b1010000 7
#181
0&
0%
b1010001 7
#182
b101010 .
b1011100 /
1&
1%
b1010010 7
#183
0&
0%
b1010011 7
#184
b101011 .
b1011101 /
1&
1%
b1010100 7
#185
0&
0%
b1010101 7
#186
b101100 .
b1011110 /
1&
1%
b1010110 7
#187
0&
0%
b1010111 7
#188
b101101 .
b1011111 /
1&
1%
b1011000 7
#189
0&
0%
b1011001 7
#190
b101110 .
b1100000 /
1&
1%
b1011010 7
#191
0&
0%
b1011011 7
#192
b101111 .
b1100001 /
1&
1%
b1011100 7
#193
0&
0%
b1011101 7
#194
b110000 .
b1100010 /
1&
1%
b1011110 7
#195
0&
0%
b1011111 7
#196
b110001 .
b1100011 /
1&
1%
b1100000 7
#197
0&
0%
b1100001 7
#198
b110010 .
b1100100 /
1&
1%
b1100010 7
#199
0&
0%
b1100011 7
#200
b110011 .
b1100101 /
1&
1%
b1100100 7
#201
0&
0%
b1100101 7
#202
b110100 .
b1100110 /
1&
1%
b1100110 7
#203
0&
0%
b1100111 7
#204
b110101 .
b1100111 /
1&
1%
b1101000 7
#205
0&
0%
b1101001 7
#206
b110110 .
b1101000 /
1&
1%
b1101010 7
#207
0&
0%
b1101011 7
#208
b110111 .
b1101001 /
1&
1%
b1101100 7
#209
0&
0%
b1101101 7
#210
b111000 .
b1101010 /
1&
1%
b1101110 7
#211
0&
0%
b1101111 7
#212
b111001 .
b1101011 /
1&
1%
b1110000 7
#213
0&
0%
b1110001 7
#214
b111010 .
b1101100 /
1&
1%
b1110010 7
#215
0&
0%
b1110011 7
#216
b111011 .
b1101101 /
1&
1%
b1110100 7
#217
0&
0%
b1110101 7
#218
b111100 .
b1101110 /
1&
1%
b1110110 7
#219
0&
0%
b1110111 7
#220
b111101 .
b1101111 /
1&
1%
b1111000 7
#221
0&
0%
b1111001 7
#222
b111110 .
b1110000 /
1&
1%
b1111010 7
#223
0&
0%
b1111011 7
#224
b111111 .
b1110001 /
1&
1%
b1111100 7
#225
0&
0%
b1111101 7
#226
b1000000 .
b1110010 /
1&
1%
b1111110 7
#227
0&
0%
b1111111 7
#228
b1000001 .
b1110011 /
1&
1%
b10000000 7
#229
0&
0%
b10000001 7
#230
b1000010 .
b1110100 /
1&
1%
b10000010 7
#231
0&
0%
b10000011 7
#232
b1000011 .
b1110101 /
1&
1%
b10000100 7
#233
0&
0%
b10000101 7
#234
b1000100 .
b1110110 /
1&
1%
b10000110 7
#235
0&
0%
b10000111 7
#236
b1000101 .
b1110111 /
1&
1%
b10001000 7
#237
0&
0%
b10001001 7
#238
b1000110 .
b1111000 /
1&
1%
b10001010 7
#239
0&
0%
b10001011 7
#240
b1000111 .
b1111001 /
1&
1%
b10001100 7
#241
0&
0%
b10001101 7
#242
b1001000 .
b1111010 /
1&
1%
b10001110 7
#243
0&
0%
b10001111 7
#244
b1001001 .
b1111011 /
1&
1%
b10010000 7
#245
0&
0%
b10010001 7
#246
b1001010 .
b1111100 /
1&
1%
b10010010 7
#247
0&
0%
b10010011 7
#248
b1001011 .
b1111101 /
1&
1%
b10010100 7
#249
0&
0%
b10010101 7
#250
b1001100 .
b1111110 /
1&
1%
b10010110 7
#251
0&
0%
b10010111 7
#252
b1001101 .
b1111111 /
1&
1%
b10011000 7
#253
0&
0%
b10011001 7
#254
b1001110 .
b10000000 /
1&
1%
b10011010 7
#255
0&
0%
b10011011 7
#256
b1001111 .
b10000001 /
1&
1%
b10011100 7
#257
0&
0%
b10011101 7
#258
b1010000 .
b10000010 /
1&
1%
b10011110 7
#259
0&
0%
b10011111 7
#260
b1010001 .
b10000011 /
1&
1%
b10100000 7
#261
0&
0%
b10100001 7
#262
b1010010 .
b10000100 /
1&
1%
b10100010 7
#263
0&
0%
b10100011 7
#264
b1010011 .
b10000101 /
1&
1%
b10100100 7
#265
0&
0%
b10100101 7
#266
b1010100 .
b10000110 /
1&
1%
b10100110 7
#267
0&
0%
b10100111 7
#268
b1010101 .
b10000111 /
1&
1%
b10101000 7
#269
0&
0%
b10101001 7
#270
b1010110 .
b10001000 /
1&
1%
b10101010 7
#271
0&
0%
b10101011 7
#272
b1010111 .
b10001001 /
1&
1%
b10101100 7
#273
0&
0%
b10101101 7
#274
b1011000 .
b10001010 /
1&
1%
b10101110 7
#275
0&
0%
b10101111 7
#276
b1011001 .
b10001011 /
1&
1%
b10110000 7
#277
0&
0%
b10110001 7
#278
b1011010 .
b10001100 /
1&
1%
b10110010 7
#279
0&
0%
b10110011 7
#280
b1011011 .
b10001101 /
1&
1%
b10110100 7
#281
0&
0%
b10110101 7
#282
b1011100 .
b10001110 /
1&
1%
b10110110 7
#283
0&
0%
b10110111 7
#284
b1011101 .
b10001111 /
1&
1%
b10111000 7
#285
0&
0%
b10111001 7
#286
b1011110 .
b10010000 /
1&
1%
b10111010 7
#287
0&
0%
b10111011 7
#288
b1011111 .
b10010001 /
1&
1%
b10111100 7
#289
0&
0%
b10111101 7
#290
b1100000 .
b10010010 /
1&
1%
b10111110 7
#291
0&
0%
b10111111 7
#292
b1100001 .
b10010011 /
1&
1%
b11000000 7
#293
0&
0%
b11000001 7
#294
b1100010 .
b10010100 /
1&
1%
b11000010 7
#295
0&
0%
b11000011 7
#296
b1100011 .
b10010101 /
1&
1%
b11000100 7
#297
0&
0%
b11000101 7
#298
b1100100 .
b10010110 /
1&
1%
b11000110 7
#299
0&
0%
b11000111 7
#300
b1100101 .
b10010111 /
1&
1%
b11001000 7
#301
0&
0%
b11001001 7
#302
b1100110 .
b10011000 /
1&
1%
b11001010 7
#303
0&
0%
b11001011 7
#304
b1100111 .
b10011001 /
1&
1%
b11001100 7
#305
0&
0%
b11001101 7
#306
b1101000 .
b10011010 /
1&
1%
b11001110 7
#307
0&
0%
b11001111 7
#308
b1101001 .
b10011011 /
1&
1%
b11010000 7
#309
0&
0%
b11010001 7
#310
b1101010 .
b10011100 /
1&
1%
b11010010 7
#311
0&
0%
b11010011 7
#312
b1101011 .
b10011101 /
1&
1%
b11010100 7
#313
0&
0%
b11010101 7
#314
b1101100 .
b10011110 /
1&
1%
b11010110 7
#315
0&
0%
b11010111 7
#316
b1101101 .
b10011111 /
1&
1%
b11011000 7
#317
0&
0%
b11011001 7
#318
b1101110 .
b10100000 /
1&
1%
b11011010 7
#319
0&
0%
b11011011 7
#320
b1101111 .
b10100001 /
1&
1%
b11011100 7
#321
0&
0%
b11011101 7
#322
b1110000 .
b10100010 /
1&
1%
b11011110 7
#323
0&
0%
b11011111 7
#324
b1110001 .
b10100011 /
1&
1%
b11100000 7
#325
0&
0%
b11100001 7
#326
b1110010 .
b10100100 /
1&
1%
b11100010 7
#327
0&
0%
b11100011 7
#328
b1110011 .
b10100101 /
1&
1%
b11100100 7
#329
0&
0%
b11100101 7
#330
b1110100 .
b10100110 /
1&
1%
b11100110 7
#331
0&
0%
b11100111 7
#332
b1110101 .
b10100111 /
1&
1%
b11101000 7
#333
0&
0%
b11101001 7
#334
b1110110 .
b10101000 /
1&
1%
b11101010 7
#335
0&
0%
b11101011 7
#336
b1110111 .
b10101001 /
1&
1%
b11101100 7
#337
0&
0%
b11101101 7
#338
b1111000 .
b10101010 /
1&
1%
b11101110 7
#339
0&
0%
b11101111 7
#340
b1111001 .
b10101011 /
1&
1%
b11110000 7
#341
0&
0%
b11110001 7
#342
b1111010 .
b10101100 /
1&
1%
b11110010 7
#343
0&
0%
b11110011 7
#344
b1111011 .
b10101101 /
1&
1%
b11110100 7
#345
0&
0%
b11110101 7
#346
b10101110 /
1&
b11110110 7
#347
0&
#348
b10101111 /
1&
#349
0&
#350
b10110000 /
1&
#351
0&
#352
b10110001 /
1&
#353
0&
#354
b10110010 /
1&
#355
0&
#356
b10110011 /
1&
#357
0&
#358
b10110100 /
1&
#359
0&
#360
b10110101 /
1&
#361
0&
#362
b10110110 /
1&
#363
0&
#364
b10110111 /
1&
#365
0&
#366
b10111000 /
1&
#367
0&
#368
b10111001 /
1&
#369
0&
#370
b10111010 /
1&
#371
0&
#372
b10111011 /
1&
#373
0&
#374
b10111100 /
1&
#375
0&
#376
b10111101 /
1&
#377
0&
#378
b10111110 /
1&
#379
0&
#380
b10111111 /
1&
#381
0&
#382
b11000000 /
1&
#383
0&
#384
b11000001 /
1&
#385
0&
#386
b11000010 /
1&
#387
0&
#388
b11000011 /
1&
#389
0&
#390
b11000100 /
1&
#391
0&
#392
b11000101 /
1&
#393
0&
#394
b11000110 /
1&
#395
0&
#396
b11000111 /
1&
#397
0&
#398
b11001000 /
1&
#399
0&
#400
b1 $
b1 *
b1 1
b10 "
b10 (
b10 3
b11 #
b11 )
b11 2
b1010 6
b1001000110000000000 5
b0 .
b1111011 +
b1111011 -
b1111011 0
1,
b1 /
1&
#401
0&
#402
b10 /
1&
#403
0&
#404
b11 /
1&
#405
0&
#406
b100 /
1&
#407
0&
#408
b101 /
1&
#409
0&
#410
b110 /
1&
#411
0&
#412
b111 /
1&
#413
0&
#414
b1000 /
1&
#415
0&
#416
b1001 /
1&
#417
0&
#418
b1010 /
1&
#419
0&
#420
b1011 /
1&
#421
0&
#422
b1100 /
1&
#423
0&
#424
b1101 /
1&
#425
0&
#426
b1110 /
1&
#427
0&
#428
b1111 /
1&
#429
0&
#430
b10000 /
1&
#431
0&
#432
b10001 /
1&
#433
0&
#434
b10010 /
1&
#435
0&
#436
b10011 /
1&
#437
0&
#438
b10100 /
1&
#439
0&
#440
b10101 /
1&
#441
0&
#442
b10110 /
1&
#443
0&
#444
b10111 /
1&
#445
0&
#446
b11000 /
1&
#447
0&
#448
b11001 /
1&
#449
0&
#450
b11010 /
1&
#451
0&
#452
b11011 /
1&
#453
0&
#454
b11100 /
1&
#455
0&
#456
b11101 /
1&
#457
0&
#458
b11110 /
1&
#459
0&
#460
b11111 /
1&
#461
0&
#462
b100000 /
1&
#463
0&
#464
b100001 /
1&
#465
0&
#466
b100010 /
1&
#467
0&
#468
b100011 /
1&
#469
0&
#470
b100100 /
1&
#471
0&
#472
b100101 /
1&
#473
0&
#474
b100110 /
1&
#475
0&
#476
b100111 /
1&
#477
0&
#478
b101000 /
1&
#479
0&
#480
b101001 /
1&
#481
0&
#482
b101010 /
1&
#483
0&
#484
b101011 /
1&
#485
0&
#486
b101100 /
1&
#487
0&
#488
b101101 /
1&
#489
0&
#490
b101110 /
1&
#491
0&
#492
b101111 /
1&
#493
0&
#494
b110000 /
1&
#495
0&
#496
b110001 /
1&
#497
0&
#498
b110010 /
1&
#499
0&
#500
b110011 /
1&
#501
0&
#502
b110100 /
1&
#503
0&
#504
b110101 /
1&
#505
0&
#506
b110110 /
1&
#507
0&
#508
b110111 /
1&
#509
0&
#510
b111000 /
1&
#511
0&
#512
b111001 /
1&
#513
0&
#514
b111010 /
1&
#515
0&
#516
b111011 /
1&
#517
0&
#518
b111100 /
1&
#519
0&
#520
b111101 /
1&
#521
0&
#522
b111110 /
1&
#523
0&
#524
b111111 /
1&
#525
0&
#526
b1000000 /
1&
#527
0&
#528
b1000001 /
1&
#529
0&
#530
b1000010 /
1&
#531
0&
#532
b1000011 /
1&
#533
0&
#534
b1000100 /
1&
#535
0&
#536
b1000101 /
1&
#537
0&
#538
b1000110 /
1&
#539
0&
#540
b1000111 /
1&
#541
0&
#542
b1001000 /
1&
#543
0&
#544
b1001001 /
1&
#545
0&
#546
b1001010 /
1&
#547
0&
#548
b1001011 /
1&
#549
0&
#550
b1001100 /
1&
#551
0&
#552
b1001101 /
1&
#553
0&
#554
b1001110 /
1&
#555
0&
#556
b1001111 /
1&
#557
0&
#558
b1010000 /
1&
#559
0&
#560
b1010001 /
1&
#561
0&
#562
b1010010 /
1&
#563
0&
#564
b1010011 /
1&
#565
0&
#566
b1010100 /
1&
#567
0&
#568
b1010101 /
1&
#569
0&
#570
b1010110 /
1&
#571
0&
#572
b1010111 /
1&
#573
0&
#574
b1011000 /
1&
#575
0&
#576
b1011001 /
1&
#577
0&
#578
b1011010 /
1&
#579
0&
#580
b1011011 /
1&
#581
0&
#582
b1011100 /
1&
#583
0&
#584
b1011101 /
1&
#585
0&
#586
b1011110 /
1&
#587
0&
#588
b1011111 /
1&
#589
0&
#590
b1100000 /
1&
#591
0&
#592
b1100001 /
1&
#593
0&
#594
b1100010 /
1&
#595
0&
#596
b1100011 /
1&
#597
0&
#598
b1100100 /
1&
#599
0&
#600
b1100101 /
1&
#601
0&
#602
b1100110 /
1&
#603
0&
#604
b1100111 /
1&
#605
0&
#606
b1101000 /
1&
#607
0&
#608
b1101001 /
1&
#609
0&
#610
b1101010 /
1&
#611
0&
#612
b1101011 /
1&
#613
0&
#614
b1101100 /
1&
#615
0&
#616
b1101101 /
1&
#617
0&
#618
b1101110 /
1&
#619
0&
#620
b1101111 /
1&
#621
0&
#622
b1110000 /
1&
#623
0&
#624
b1110001 /
1&
#625
0&
#626
b1110010 /
1&
#627
0&
#628
b1110011 /
1&
#629
0&
#630
b1110100 /
1&
#631
0&
#632
b1110101 /
1&
#633
0&
#634
b1110110 /
1&
#635
0&
#636
b1110111 /
1&
#637
0&
#638
b1111000 /
1&
