build/waveform.vcd
$date
	Mon Mar 18 23:04:59 2024
$end
$version
	Icarus Verilog
$end
$timescale
	1s
$end
$scope module testbench $end
$var wire 6 ! Track_Count [5:0] $end
$var parameter 32 " PRD $end
$var reg 1 # IR_Sense $end
$var reg 1 $ clk $end
$var reg 1 % reset $end
$scope module UUT $end
$var wire 1 # IR_Sense $end
$var wire 1 $ clk $end
$var wire 1 % reset $end
$var parameter 2 & EDGE_CHECK $end
$var parameter 2 ' INCREMENT $end
$var parameter 2 ( LOAD $end
$var parameter 2 ) SHIFT $end
$var reg 2 * EdgeTest [1:0] $end
$var reg 2 + STATE [1:0] $end
$var reg 6 , Track_Count [5:0] $end
$upscope $end
$upscope $end
$enddefinitions $end
$comment Show the parameter values. $end
$dumpall
b11 )
b0 (
b10 '
b1 &
b10 "
$end
#0
$dumpvars
b0 ,
b0 +
b0 *
0%
0$
0#
b0 !
$end
#1
b1 +
1$
#2
0$
#3
b11 +
1$
#4
0$
#5
b0 +
1$
#6
0$
#7
b1 +
1$
#8
0$
#9
b11 +
1$
#10
0$
#11
b0 +
1$
#12
0$
#13
b1 +
1$
#14
0$
#15
b11 +
1$
#16
0$
#17
b0 +
1$
#18
0$
#19
b1 +
1$
#20
0$
#21
b11 +
1$
#22
0$
#23
b0 +
1$
#24
0$
#25
b1 +
1$
1#
#26
0$
#27
b11 +
1$
#28
0$
#29
b1 *
b0 +
1$
#30
0$
#31
b1 +
1$
#32
0$
#33
b1 !
b1 ,
b10 +
1$
#34
0$
#35
b11 *
b11 +
1$
#36
0$
#37
b0 +
1$
#38
0$
#39
b1 +
1$
#40
0$
#41
b11 +
1$
#42
0$
#43
b0 +
1$
#44
0$
#45
b1 +
1$
#46
0$
#47
b11 +
1$
#48
0$
#49
b0 +
1$
#50
0$
0#
#51
b1 +
1$
#52
0$
#53
b11 +
1$
#54
0$
#55
b10 *
b0 +
1$
#56
0$
#57
b1 +
1$
#58
0$
#59
b10 !
b10 ,
b10 +
1$
#60
0$
#61
b0 *
b11 +
1$
#62
0$
#63
b0 +
1$
#64
0$
#65
b1 +
1$
#66
0$
#67
b11 +
1$
#68
0$
#69
b0 +
1$
#70
0$
#71
b1 +
1$
#72
0$
#73
b11 +
1$
#74
0$
#75
b1 *
b0 +
1$
1#
#76
0$
#77
b1 +
1$
#78
0$
#79
b11 !
b11 ,
b10 +
1$
#80
0$
#81
b11 *
b11 +
1$
#82
0$
#83
b0 +
1$
#84
0$
#85
b1 +
1$
#86
0$
#87
b11 +
1$
#88
0$
#89
b0 +
1$
#90
0$
#91
b1 +
1$
#92
0$
#93
b11 +
1$
#94
0$
#95
b0 +
1$
#96
0$
#97
b1 +
1$
#98
0$
#99
b11 +
1$
#100
0$
0#
1%
#101
b0 *
b0 +
b0 !
b0 ,
1$
#102
0$
#103
1$
#104
0$
0%
#105
b1 +
1$
#106
0$
#107
b11 +
1$
#108
0$
#109
b0 +
1$
#110
0$
#111
b1 +
1$
#112
0$
#113
b11 +
1$
#114
0$
#115
b0 +
1$
#116
0$
#117
b1 +
1$
#118
0$
#119
b11 +
1$
#120
0$
#121
b0 +
1$
#122
0$
#123
b1 +
1$
#124
0$
#125
b11 +
1$
1#
#126
0$
#127
b1 *
b0 +
1$
#128
0$
#129
b1 +
1$
#130
0$
#131
b1 !
b1 ,
b10 +
1$
#132
0$
#133
b11 *
b11 +
1$
#134
0$
#135
b0 +
1$
#136
0$
#137
b1 +
1$
#138
0$
#139
b11 +
1$
#140
0$
#141
b0 +
1$
#142
0$
#143
b1 +
1$
#144
0$
#145
b11 +
1$
#146
0$
#147
b0 +
1$
#148
0$
#149
b1 +
1$
#150
0$
0#
#151
b11 +
1$
#152
0$
#153
b10 *
b0 +
1$
#154
0$
#155
b1 +
1$
#156
0$
#157
b10 !
b10 ,
b10 +
1$
#158
0$
#159
b0 *
b11 +
1$
#160
0$
#161
b0 +
1$
#162
0$
#163
b1 +
1$
#164
0$
#165
b11 +
1$
#166
0$
#167
b0 +
1$
#168
0$
#169
b1 +
1$
#170
0$
#171
b11 +
1$
#172
0$
#173
b0 +
1$
#174
0$
#175
b1 +
1$
1#
#176
0$
#177
b11 +
1$
#178
0$
#179
b1 *
b0 +
1$
#180
0$
#181
b1 +
1$
#182
0$
#183
b11 !
b11 ,
b10 +
1$
#184
0$
#185
b11 *
b11 +
1$
#186
0$
#187
b0 +
1$
#188
0$
#189
b1 +
1$
#190
0$
#191
b11 +
1$
#192
0$
#193
b0 +
1$
#194
0$
#195
b1 +
1$
#196
0$
#197
b11 +
1$
#198
0$
#199
b0 +
1$
#200
0$
0#
#201
b1 +
1$
#202
0$
#203
b11 +
1$
#204
0$
#205
b10 *
b0 +
1$
#206
0$
#207
b1 +
1$
