build/waveform.vcd
$date
	Wed Apr 24 11:11:49 2024
$end
$version
	Icarus Verilog
$end
$timescale
	1ns
$end
$scope module testbench $end
$var wire 1 ! PulseSignal $end
$var reg 2 " DutyCycle [1:0] $end
$var reg 1 # clk $end
$scope module UUT $end
$var wire 2 $ DutyCycle [1:0] $end
$var wire 1 # clk $end
$var parameter 2 % DynamicEighty $end
$var parameter 2 & DynamicForty $end
$var parameter 14 ' EightyDuty $end
$var parameter 14 ( FivePercent $end
$var parameter 14 ) FortyDuty $end
$var parameter 14 * HalfDuty $end
$var parameter 2 + StaticForty $end
$var parameter 2 , StaticFull $end
$var reg 26 - OneSecond [25:0] $end
$var reg 2 . Overdrive_Level [1:0] $end
$var reg 1 ! PulseSignal $end
$var reg 2 / STATE [1:0] $end
$var reg 14 0 count [13:0] $end
$upscope $end
$upscope $end
$enddefinitions $end
$comment Show the parameter values. $end
$dumpall
b11 ,
b0 +
b1100001101010 *
b1001110001000 )
b1001110001 (
b10011100010000 '
b1 &
b10 %
$end
#0
$dumpvars
b1 0
b0 /
b0 .
b1 -
b0 $
1#
b0 "
1!
$end
#1
0#
#2
b10 -
b10 0
1#
#3
0#
#4
b11 0
b11 -
1#
#5
0#
#6
b100 -
b100 0
1#
#7
0#
#8
b101 0
b101 -
1#
#9
0#
#10
b1 -
b1 .
b110 0
1#
#11
0#
#12
b111 0
b10 -
1#
#13
0#
#14
b11 -
b1000 0
1#
#15
0#
#16
b1001 0
b100 -
1#
#17
0#
#18
b101 -
b1010 0
1#
#19
0#
#20
b1011 0
b1 -
b10 .
1#
#21
0#
#22
b10 -
b1100 0
1#
#23
0#
#24
b1101 0
b11 -
1#
#25
0#
#26
b100 -
b1110 0
1#
#27
0#
#28
b1111 0
b101 -
1#
#29
0#
#30
b1 -
b10000 0
1#
#31
0#
#32
b10001 0
b10 -
1#
#33
0#
#34
b11 -
b10010 0
1#
#35
0#
#36
b10011 0
b100 -
1#
#37
0#
#38
b101 -
b10100 0
1#
#39
0#
#40
b10101 0
b1 -
1#
#41
0#
#42
b10 -
b10110 0
1#
#43
0#
#44
b10111 0
b11 -
1#
#45
0#
#46
b100 -
b11000 0
1#
#47
0#
#48
b11001 0
b101 -
1#
#49
0#
#50
b1 -
b11010 0
1#
#51
0#
#52
b11011 0
b10 -
1#
#53
0#
#54
b11 -
b11100 0
1#
#55
0#
#56
b11101 0
b100 -
1#
#57
0#
#58
b101 -
b11110 0
1#
#59
0#
#60
b11111 0
b1 -
1#
#61
0#
#62
b10 -
b100000 0
1#
#63
0#
#64
b100001 0
b11 -
1#
#65
0#
#66
b100 -
b100010 0
1#
#67
0#
#68
b100011 0
b101 -
1#
#69
0#
#70
b1 -
b100100 0
1#
#71
0#
#72
b100101 0
b10 -
1#
#73
0#
#74
b11 -
b100110 0
1#
#75
0#
#76
b100111 0
b100 -
1#
#77
0#
#78
b101 -
b101000 0
1#
#79
0#
#80
b101001 0
b1 -
1#
#81
0#
#82
b10 -
b101010 0
1#
#83
0#
#84
b101011 0
b11 -
1#
#85
0#
#86
b100 -
b101100 0
1#
#87
0#
#88
b101101 0
b101 -
1#
#89
0#
#90
b1 -
b101110 0
1#
#91
0#
#92
b101111 0
b10 -
1#
#93
0#
#94
b11 -
b110000 0
1#
#95
0#
#96
b110001 0
b100 -
1#
#97
0#
#98
b101 -
b110010 0
1#
#99
0#
#100
b110011 0
b1 -
1#
#101
0#
#102
b10 -
b110100 0
1#
#103
0#
#104
b110101 0
b11 -
1#
#105
0#
#106
b100 -
b110110 0
1#
#107
0#
#108
b110111 0
b101 -
1#
#109
0#
#110
b1 -
b111000 0
1#
#111
0#
#112
b111001 0
b10 -
1#
#113
0#
#114
b11 -
b111010 0
1#
#115
0#
#116
b111011 0
b100 -
1#
#117
0#
#118
b101 -
b111100 0
1#
#119
0#
#120
b111101 0
b1 -
1#
#121
0#
#122
b10 -
b111110 0
1#
#123
0#
#124
b111111 0
b11 -
1#
#125
0#
#126
b100 -
b1000000 0
1#
#127
0#
#128
b1000001 0
b101 -
1#
#129
0#
#130
b1 -
b1000010 0
1#
#131
0#
#132
b1000011 0
b10 -
1#
#133
0#
#134
b11 -
b1000100 0
1#
#135
0#
#136
b1000101 0
b100 -
1#
#137
0#
#138
b101 -
b1000110 0
1#
#139
0#
#140
b1000111 0
b1 -
1#
#141
0#
#142
b10 -
b1001000 0
1#
#143
0#
#144
b1001001 0
b11 -
1#
#145
0#
#146
b100 -
b1001010 0
1#
#147
0#
#148
b1001011 0
b101 -
1#
#149
0#
#150
b1 -
b1001100 0
1#
#151
0#
#152
b1001101 0
b10 -
1#
#153
0#
#154
b11 -
b1001110 0
1#
#155
0#
#156
b1001111 0
b100 -
1#
#157
0#
#158
b101 -
b1010000 0
1#
#159
0#
#160
b1010001 0
b1 -
1#
#161
0#
#162
b10 -
b1010010 0
1#
#163
0#
#164
b1010011 0
b11 -
1#
#165
0#
#166
b100 -
b1010100 0
1#
#167
0#
#168
b1010101 0
b101 -
1#
#169
0#
#170
b1 -
b1010110 0
1#
#171
0#
#172
b1010111 0
b10 -
1#
#173
0#
#174
b11 -
b1011000 0
1#
#175
0#
#176
b1011001 0
b100 -
1#
#177
0#
#178
b101 -
b1011010 0
1#
#179
0#
#180
b1011011 0
b1 -
1#
#181
0#
#182
b10 -
b1011100 0
1#
#183
0#
#184
b1011101 0
b11 -
1#
#185
0#
#186
b100 -
b1011110 0
1#
#187
0#
#188
b1011111 0
b101 -
1#
#189
0#
#190
b1 -
b1100000 0
1#
#191
0#
#192
b1100001 0
b10 -
1#
#193
0#
#194
b11 -
b1100010 0
1#
#195
0#
#196
b1100011 0
b100 -
1#
#197
0#
#198
b101 -
b1100100 0
1#
#199
0#
#200
b1100101 0
b1 -
1#
#201
0#
#202
b10 -
b1100110 0
1#
#203
0#
#204
b1100111 0
b11 -
1#
#205
0#
#206
b100 -
b1101000 0
1#
#207
0#
#208
b1101001 0
b101 -
1#
#209
0#
#210
b1 -
b1101010 0
1#
#211
0#
#212
b1101011 0
b10 -
1#
#213
0#
#214
b11 -
b1101100 0
1#
#215
0#
#216
b1101101 0
b100 -
1#
#217
0#
#218
b101 -
b1101110 0
1#
#219
0#
#220
b1101111 0
b1 -
1#
#221
0#
#222
b10 -
b1110000 0
1#
#223
0#
#224
b1110001 0
b11 -
1#
#225
0#
#226
b100 -
b1110010 0
1#
#227
0#
#228
b1110011 0
b101 -
1#
#229
0#
#230
b1 -
b1110100 0
1#
#231
0#
#232
b1110101 0
b10 -
1#
#233
0#
#234
b11 -
b1110110 0
1#
#235
0#
#236
b1110111 0
b100 -
1#
#237
0#
#238
b101 -
b1111000 0
1#
#239
0#
#240
b1111001 0
b1 -
1#
#241
0#
#242
b10 -
b1111010 0
1#
#243
0#
#244
b1111011 0
b11 -
1#
#245
0#
#246
b100 -
b1111100 0
1#
#247
0#
#248
b1111101 0
b101 -
1#
#249
0#
#250
b1 -
b1111110 0
1#
#251
0#
#252
b1111111 0
b10 -
1#
#253
0#
#254
b11 -
b10000000 0
1#
#255
0#
#256
b10000001 0
b100 -
1#
#257
0#
#258
b101 -
b10000010 0
1#
#259
0#
#260
b10000011 0
b1 -
1#
#261
0#
#262
b10 -
b10000100 0
1#
#263
0#
#264
b10000101 0
b11 -
1#
#265
0#
#266
b100 -
b10000110 0
1#
#267
0#
#268
b10000111 0
b101 -
1#
#269
0#
#270
b1 -
b10001000 0
1#
#271
0#
#272
b10001001 0
b10 -
1#
#273
0#
#274
b11 -
b10001010 0
1#
#275
0#
#276
b10001011 0
b100 -
1#
#277
0#
#278
b101 -
b10001100 0
1#
#279
0#
#280
b10001101 0
b1 -
1#
#281
0#
#282
b10 -
b10001110 0
1#
#283
0#
#284
b10001111 0
b11 -
1#
#285
0#
#286
b100 -
b10010000 0
1#
#287
0#
#288
b10010001 0
b101 -
1#
#289
0#
#290
b1 -
b10010010 0
1#
#291
0#
#292
b10010011 0
b10 -
1#
#293
0#
#294
b11 -
b10010100 0
1#
#295
0#
#296
b10010101 0
b100 -
1#
#297
0#
#298
b101 -
b10010110 0
1#
#299
0#
#300
b10010111 0
b1 -
1#
#301
0#
#302
b10 -
b10011000 0
1#
#303
0#
#304
b10011001 0
b11 -
1#
#305
0#
#306
b100 -
b10011010 0
1#
#307
0#
#308
b10011011 0
b101 -
1#
#309
0#
#310
b1 -
b10011100 0
1#
#311
0#
#312
b10011101 0
b10 -
1#
#313
0#
#314
b11 -
b10011110 0
1#
#315
0#
#316
b10011111 0
b100 -
1#
#317
0#
#318
b101 -
b10100000 0
1#
#319
0#
#320
b10100001 0
b1 -
1#
#321
0#
#322
b10 -
b10100010 0
1#
#323
0#
#324
b10100011 0
b11 -
1#
#325
0#
#326
b100 -
b10100100 0
1#
#327
0#
#328
b10100101 0
b101 -
1#
#329
0#
#330
b1 -
b10100110 0
1#
#331
0#
#332
b10100111 0
b10 -
1#
#333
0#
#334
b11 -
b10101000 0
1#
#335
0#
#336
b10101001 0
b100 -
1#
#337
0#
#338
b101 -
b10101010 0
1#
#339
0#
#340
b10101011 0
b1 -
1#
#341
0#
#342
b10 -
b10101100 0
1#
#343
0#
#344
b10101101 0
b11 -
1#
#345
0#
#346
b100 -
b10101110 0
1#
#347
0#
#348
b10101111 0
b101 -
1#
#349
0#
#350
b1 -
b10110000 0
1#
#351
0#
#352
b10110001 0
b10 -
1#
#353
0#
#354
b11 -
b10110010 0
1#
#355
0#
#356
b10110011 0
b100 -
1#
#357
0#
#358
b101 -
b10110100 0
1#
#359
0#
#360
b10110101 0
b1 -
1#
#361
0#
#362
b10 -
b10110110 0
1#
#363
0#
#364
b10110111 0
b11 -
1#
#365
0#
#366
b100 -
b10111000 0
1#
#367
0#
#368
b10111001 0
b101 -
1#
#369
0#
#370
b1 -
b10111010 0
1#
#371
0#
#372
b10111011 0
b10 -
1#
#373
0#
#374
b11 -
b10111100 0
1#
#375
0#
#376
b10111101 0
b100 -
1#
#377
0#
#378
b101 -
b10111110 0
1#
#379
0#
#380
b10111111 0
b1 -
1#
#381
0#
#382
b10 -
b11000000 0
1#
#383
0#
#384
b11000001 0
b11 -
1#
#385
0#
#386
b100 -
b11000010 0
1#
#387
0#
#388
b11000011 0
b101 -
1#
#389
0#
#390
b1 -
b11000100 0
1#
#391
0#
#392
b11000101 0
b10 -
1#
#393
0#
#394
b11 -
b11000110 0
1#
#395
0#
#396
b11000111 0
b100 -
1#
#397
0#
#398
b101 -
b11001000 0
1#
#399
0#
#400
b11001001 0
b1 -
1#
#401
0#
#402
b10 -
b11001010 0
1#
#403
0#
#404
b11001011 0
b11 -
1#
#405
0#
#406
b100 -
b11001100 0
1#
#407
0#
#408
b11001101 0
b101 -
1#
#409
0#
#410
b1 -
b11001110 0
1#
#411
0#
#412
b11001111 0
b10 -
1#
#413
0#
#414
b11 -
b11010000 0
1#
#415
0#
#416
b11010001 0
b100 -
1#
#417
0#
#418
b101 -
b11010010 0
1#
#419
0#
#420
b11010011 0
b1 -
1#
#421
0#
#422
b10 -
b11010100 0
1#
#423
0#
#424
b11010101 0
b11 -
1#
#425
0#
#426
b100 -
b11010110 0
1#
#427
0#
#428
b11010111 0
b101 -
1#
#429
0#
#430
b1 -
b11011000 0
1#
#431
0#
#432
b11011001 0
b10 -
1#
#433
0#
#434
b11 -
b11011010 0
1#
#435
0#
#436
b11011011 0
b100 -
1#
#437
0#
#438
b101 -
b11011100 0
1#
#439
0#
#440
b11011101 0
b1 -
1#
#441
0#
#442
b10 -
b11011110 0
1#
#443
0#
#444
b11011111 0
b11 -
1#
#445
0#
#446
b100 -
b11100000 0
1#
#447
0#
#448
b11100001 0
b101 -
1#
#449
0#
#450
b1 -
b11100010 0
1#
#451
0#
#452
b11100011 0
b10 -
1#
#453
0#
#454
b11 -
b11100100 0
1#
#455
0#
#456
b11100101 0
b100 -
1#
#457
0#
#458
b101 -
b11100110 0
1#
#459
0#
#460
b11100111 0
b1 -
1#
#461
0#
#462
b10 -
b11101000 0
1#
#463
0#
#464
b11101001 0
b11 -
1#
#465
0#
#466
b100 -
b11101010 0
1#
#467
0#
#468
b11101011 0
b101 -
1#
#469
0#
#470
b1 -
b11101100 0
1#
#471
0#
#472
b11101101 0
b10 -
1#
#473
0#
#474
b11 -
b11101110 0
1#
#475
0#
#476
b11101111 0
b100 -
1#
#477
0#
#478
b101 -
b11110000 0
1#
#479
0#
#480
b11110001 0
b1 -
1#
#481
0#
#482
b10 -
b11110010 0
1#
#483
0#
#484
b11110011 0
b11 -
1#
#485
0#
#486
b100 -
b11110100 0
1#
#487
0#
#488
b11110101 0
b101 -
1#
#489
0#
#490
b1 -
b11110110 0
1#
#491
0#
#492
b11110111 0
b10 -
1#
#493
0#
#494
b11 -
b11111000 0
1#
#495
0#
#496
b11111001 0
b100 -
1#
#497
0#
#498
b101 -
b11111010 0
1#
#499
0#
#500
b11111011 0
b1 -
1#
#501
0#
#502
b10 -
b11111100 0
1#
#503
0#
#504
b11111101 0
b11 -
1#
#505
0#
#506
b100 -
b11111110 0
1#
#507
0#
#508
b11111111 0
b101 -
1#
#509
0#
#510
b1 -
b100000000 0
1#
#511
0#
#512
b100000001 0
b10 -
1#
#513
0#
#514
b11 -
b100000010 0
1#
#515
0#
#516
b100000011 0
b100 -
1#
#517
0#
#518
b101 -
b100000100 0
1#
#519
0#
#520
b100000101 0
b1 -
1#
#521
0#
#522
b10 -
b100000110 0
1#
#523
0#
#524
b100000111 0
b11 -
1#
#525
0#
#526
b100 -
b100001000 0
1#
#527
0#
#528
b100001001 0
b101 -
1#
#529
0#
#530
b1 -
b100001010 0
1#
#531
0#
#532
b100001011 0
b10 -
1#
#533
0#
#534
b11 -
b100001100 0
1#
#535
0#
#536
b100001101 0
b100 -
1#
#537
0#
#538
b101 -
b100001110 0
1#
#539
0#
#540
b100001111 0
b1 -
1#
#541
0#
#542
b10 -
b100010000 0
1#
#543
0#
#544
b100010001 0
b11 -
1#
#545
0#
#546
b100 -
b100010010 0
1#
#547
0#
#548
b100010011 0
b101 -
1#
#549
0#
#550
b1 -
b100010100 0
1#
#551
0#
#552
b100010101 0
b10 -
1#
#553
0#
#554
b11 -
b100010110 0
1#
#555
0#
#556
b100010111 0
b100 -
1#
#557
0#
#558
b101 -
b100011000 0
1#
#559
0#
#560
b100011001 0
b1 -
1#
#561
0#
#562
b10 -
b100011010 0
1#
#563
0#
#564
b100011011 0
b11 -
1#
#565
0#
#566
b100 -
b100011100 0
1#
#567
0#
#568
b100011101 0
b101 -
1#
#569
0#
#570
b1 -
b100011110 0
1#
#571
0#
#572
b100011111 0
b10 -
1#
#573
0#
#574
b11 -
b100100000 0
1#
#575
0#
#576
b100100001 0
b100 -
1#
#577
0#
#578
b101 -
b100100010 0
1#
#579
0#
#580
b100100011 0
b1 -
1#
#581
0#
#582
b10 -
b100100100 0
1#
#583
0#
#584
b100100101 0
b11 -
1#
#585
0#
#586
b100 -
b100100110 0
1#
#587
0#
#588
b100100111 0
b101 -
1#
#589
0#
#590
b1 -
b100101000 0
1#
#591
0#
#592
b100101001 0
b10 -
1#
#593
0#
#594
b11 -
b100101010 0
1#
#595
0#
#596
b100101011 0
b100 -
1#
#597
0#
#598
b101 -
b100101100 0
1#
#599
0#
#600
b100101101 0
b1 -
1#
#601
0#
#602
b10 -
b100101110 0
1#
#603
0#
#604
b100101111 0
b11 -
1#
#605
0#
#606
b100 -
b100110000 0
1#
#607
0#
#608
b100110001 0
b101 -
1#
#609
0#
#610
b1 -
b100110010 0
1#
#611
0#
#612
b100110011 0
b10 -
1#
#613
0#
#614
b11 -
b100110100 0
1#
#615
0#
#616
b100110101 0
b100 -
1#
#617
0#
#618
b101 -
b100110110 0
1#
#619
0#
#620
b100110111 0
b1 -
1#
#621
0#
#622
b10 -
b100111000 0
1#
#623
0#
#624
b100111001 0
b11 -
1#
#625
0#
#626
b100 -
b100111010 0
1#
#627
0#
#628
b100111011 0
b101 -
1#
#629
0#
#630
b1 -
b100111100 0
1#
#631
0#
#632
b100111101 0
b10 -
1#
#633
0#
#634
b11 -
b100111110 0
1#
#635
0#
#636
b100111111 0
b100 -
1#
#637
0#
#638
b101 -
b101000000 0
1#
#639
0#
#640
b101000001 0
b1 -
1#
#641
0#
#642
b10 -
b101000010 0
1#
#643
0#
#644
b101000011 0
b11 -
1#
#645
0#
#646
b100 -
b101000100 0
1#
#647
0#
#648
b101000101 0
b101 -
1#
#649
0#
#650
b1 -
b101000110 0
1#
#651
0#
#652
b101000111 0
b10 -
1#
#653
0#
#654
b11 -
b101001000 0
1#
#655
0#
#656
b101001001 0
b100 -
1#
#657
0#
#658
b101 -
b101001010 0
1#
#659
0#
#660
b101001011 0
b1 -
1#
#661
0#
#662
b10 -
b101001100 0
1#
#663
0#
#664
b101001101 0
b11 -
1#
#665
0#
#666
b100 -
b101001110 0
1#
#667
0#
#668
b101001111 0
b101 -
1#
#669
0#
#670
b1 -
b101010000 0
1#
#671
0#
#672
b101010001 0
b10 -
1#
#673
0#
#674
b11 -
b101010010 0
1#
#675
0#
#676
b101010011 0
b100 -
1#
#677
0#
#678
b101 -
b101010100 0
1#
#679
0#
#680
b101010101 0
b1 -
1#
#681
0#
#682
b10 -
b101010110 0
1#
#683
0#
#684
b101010111 0
b11 -
1#
#685
0#
#686
b100 -
b101011000 0
1#
#687
0#
#688
b101011001 0
b101 -
1#
#689
0#
#690
b1 -
b101011010 0
1#
#691
0#
#692
b101011011 0
b10 -
1#
#693
0#
#694
b11 -
b101011100 0
1#
#695
0#
#696
b101011101 0
b100 -
1#
#697
0#
#698
b101 -
b101011110 0
1#
#699
0#
#700
b101011111 0
b1 -
1#
#701
0#
#702
b10 -
b101100000 0
1#
#703
0#
#704
b101100001 0
b11 -
1#
#705
0#
#706
b100 -
b101100010 0
1#
#707
0#
#708
b101100011 0
b101 -
1#
#709
0#
#710
b1 -
b101100100 0
1#
#711
0#
#712
b101100101 0
b10 -
1#
#713
0#
#714
b11 -
b101100110 0
1#
#715
0#
#716
b101100111 0
b100 -
1#
#717
0#
#718
b101 -
b101101000 0
1#
#719
0#
#720
b101101001 0
b1 -
1#
#721
0#
#722
b10 -
b101101010 0
1#
#723
0#
#724
b101101011 0
b11 -
1#
#725
0#
#726
b100 -
b101101100 0
1#
#727
0#
#728
b101101101 0
b101 -
1#
#729
0#
#730
b1 -
b101101110 0
1#
#731
0#
#732
b101101111 0
b10 -
1#
#733
0#
#734
b11 -
b101110000 0
1#
#735
0#
#736
b101110001 0
b100 -
1#
#737
0#
#738
b101 -
b101110010 0
1#
#739
0#
#740
b101110011 0
b1 -
1#
#741
0#
#742
b10 -
b101110100 0
1#
#743
0#
#744
b101110101 0
b11 -
1#
#745
0#
#746
b100 -
b101110110 0
1#
#747
0#
#748
b101110111 0
b101 -
1#
#749
0#
#750
b1 -
b101111000 0
1#
#751
0#
#752
b101111001 0
b10 -
1#
#753
0#
#754
b11 -
b101111010 0
1#
#755
0#
#756
b101111011 0
b100 -
1#
#757
0#
#758
b101 -
b101111100 0
1#
#759
0#
#760
b101111101 0
b1 -
1#
#761
0#
#762
b10 -
b101111110 0
1#
#763
0#
#764
b101111111 0
b11 -
1#
#765
0#
#766
b100 -
b110000000 0
1#
#767
0#
#768
b110000001 0
b101 -
1#
#769
0#
#770
b1 -
b110000010 0
1#
#771
0#
#772
b110000011 0
b10 -
1#
#773
0#
#774
b11 -
b110000100 0
1#
#775
0#
#776
b110000101 0
b100 -
1#
#777
0#
#778
b101 -
b110000110 0
1#
#779
0#
#780
b110000111 0
b1 -
1#
#781
0#
#782
b10 -
b110001000 0
1#
#783
0#
#784
b110001001 0
b11 -
1#
#785
0#
#786
b100 -
b110001010 0
1#
#787
0#
#788
b110001011 0
b101 -
1#
#789
0#
#790
b1 -
b110001100 0
1#
#791
0#
#792
b110001101 0
b10 -
1#
#793
0#
#794
b11 -
b110001110 0
1#
#795
0#
#796
b110001111 0
b100 -
1#
#797
0#
#798
b101 -
b110010000 0
1#
#799
0#
#800
b110010001 0
b1 -
1#
#801
0#
#802
b10 -
b110010010 0
1#
#803
0#
#804
b110010011 0
b11 -
1#
#805
0#
#806
b100 -
b110010100 0
1#
#807
0#
#808
b110010101 0
b101 -
1#
#809
0#
#810
b1 -
b110010110 0
1#
#811
0#
#812
b110010111 0
b10 -
1#
#813
0#
#814
b11 -
b110011000 0
1#
#815
0#
#816
b110011001 0
b100 -
1#
#817
0#
#818
b101 -
b110011010 0
1#
#819
0#
#820
b110011011 0
b1 -
1#
#821
0#
#822
b10 -
b110011100 0
1#
#823
0#
#824
b110011101 0
b11 -
1#
#825
0#
#826
b100 -
b110011110 0
1#
#827
0#
#828
b110011111 0
b101 -
1#
#829
0#
#830
b1 -
b110100000 0
1#
#831
0#
#832
b110100001 0
b10 -
1#
#833
0#
#834
b11 -
b110100010 0
1#
#835
0#
#836
b110100011 0
b100 -
1#
#837
0#
#838
b101 -
b110100100 0
1#
#839
0#
#840
b110100101 0
b1 -
1#
#841
0#
#842
b10 -
b110100110 0
1#
#843
0#
#844
b110100111 0
b11 -
1#
#845
0#
#846
b100 -
b110101000 0
1#
#847
0#
#848
b110101001 0
b101 -
1#
#849
0#
#850
b1 -
b110101010 0
1#
#851
0#
#852
b110101011 0
b10 -
1#
#853
0#
#854
b11 -
b110101100 0
1#
#855
0#
#856
b110101101 0
b100 -
1#
#857
0#
#858
b101 -
b110101110 0
1#
#859
0#
#860
b110101111 0
b1 -
1#
#861
0#
#862
b10 -
b110110000 0
1#
#863
0#
#864
b110110001 0
b11 -
1#
#865
0#
#866
b100 -
b110110010 0
1#
#867
0#
#868
b110110011 0
b101 -
1#
#869
0#
#870
b1 -
b110110100 0
1#
#871
0#
#872
b110110101 0
b10 -
1#
#873
0#
#874
b11 -
b110110110 0
1#
#875
0#
#876
b110110111 0
b100 -
1#
#877
0#
#878
b101 -
b110111000 0
1#
#879
0#
#880
b110111001 0
b1 -
1#
#881
0#
#882
b10 -
b110111010 0
1#
#883
0#
#884
b110111011 0
b11 -
1#
#885
0#
#886
b100 -
b110111100 0
1#
#887
0#
#888
b110111101 0
b101 -
1#
#889
0#
#890
b1 -
b110111110 0
1#
#891
0#
#892
b110111111 0
b10 -
1#
#893
0#
#894
b11 -
b111000000 0
1#
#895
0#
#896
b111000001 0
b100 -
1#
#897
0#
#898
b101 -
b111000010 0
1#
#899
0#
#900
b111000011 0
b1 -
1#
#901
0#
#902
b10 -
b111000100 0
1#
#903
0#
#904
b111000101 0
b11 -
1#
#905
0#
#906
b100 -
b111000110 0
1#
#907
0#
#908
b111000111 0
b101 -
1#
#909
0#
#910
b1 -
b111001000 0
1#
#911
0#
#912
b111001001 0
b10 -
1#
#913
0#
#914
b11 -
b111001010 0
1#
#915
0#
#916
b111001011 0
b100 -
1#
#917
0#
#918
b101 -
b111001100 0
1#
#919
0#
#920
b111001101 0
b1 -
1#
#921
0#
#922
b10 -
b111001110 0
1#
#923
0#
#924
b111001111 0
b11 -
1#
#925
0#
#926
b100 -
b111010000 0
1#
#927
0#
#928
b111010001 0
b101 -
1#
#929
0#
#930
b1 -
b111010010 0
1#
#931
0#
#932
b111010011 0
b10 -
1#
#933
0#
#934
b11 -
b111010100 0
1#
#935
0#
#936
b111010101 0
b100 -
1#
#937
0#
#938
b101 -
b111010110 0
1#
#939
0#
#940
b111010111 0
b1 -
1#
#941
0#
#942
b10 -
b111011000 0
1#
#943
0#
#944
b111011001 0
b11 -
1#
#945
0#
#946
b100 -
b111011010 0
1#
#947
0#
#948
b111011011 0
b101 -
1#
#949
0#
#950
b1 -
b111011100 0
1#
#951
0#
#952
b111011101 0
b10 -
1#
#953
0#
#954
b11 -
b111011110 0
1#
#955
0#
#956
b111011111 0
b100 -
1#
#957
0#
#958
b101 -
b111100000 0
1#
#959
0#
#960
b111100001 0
b1 -
1#
#961
0#
#962
b10 -
b111100010 0
1#
#963
0#
#964
b111100011 0
b11 -
1#
#965
0#
#966
b100 -
b111100100 0
1#
#967
0#
#968
b111100101 0
b101 -
1#
#969
0#
#970
b1 -
b111100110 0
1#
#971
0#
#972
b111100111 0
b10 -
1#
#973
0#
#974
b11 -
b111101000 0
1#
#975
0#
#976
b111101001 0
b100 -
1#
#977
0#
#978
b101 -
b111101010 0
1#
#979
0#
#980
b111101011 0
b1 -
1#
#981
0#
#982
b10 -
b111101100 0
1#
#983
0#
#984
b111101101 0
b11 -
1#
#985
0#
#986
b100 -
b111101110 0
1#
#987
0#
#988
b111101111 0
b101 -
1#
#989
0#
#990
b1 -
b111110000 0
1#
#991
0#
#992
b111110001 0
b10 -
1#
#993
0#
#994
b11 -
b111110010 0
1#
#995
0#
#996
b111110011 0
b100 -
1#
#997
0#
#998
b101 -
b111110100 0
1#
#999
0#
#1000
b111110101 0
b1 -
1#
#1001
0#
#1002
b10 -
b111110110 0
1#
#1003
0#
#1004
b111110111 0
b11 -
1#
#1005
0#
#1006
b100 -
b111111000 0
1#
#1007
0#
#1008
b111111001 0
b101 -
1#
#1009
0#
#1010
b1 -
b111111010 0
1#
#1011
0#
#1012
b111111011 0
b10 -
1#
#1013
0#
#1014
b11 -
b111111100 0
1#
#1015
0#
#1016
b111111101 0
b100 -
1#
#1017
0#
#1018
b101 -
b111111110 0
1#
#1019
0#
#1020
b111111111 0
b1 -
1#
#1021
0#
#1022
b10 -
b1000000000 0
1#
#1023
0#
#1024
b1000000001 0
b11 -
1#
#1025
0#
#1026
b100 -
b1000000010 0
1#
#1027
0#
#1028
b1000000011 0
b101 -
1#
#1029
0#
#1030
b1 -
b1000000100 0
1#
#1031
0#
#1032
b1000000101 0
b10 -
1#
#1033
0#
#1034
b11 -
b1000000110 0
1#
#1035
0#
#1036
b1000000111 0
b100 -
1#
#1037
0#
#1038
b101 -
b1000001000 0
1#
#1039
0#
#1040
b1000001001 0
b1 -
1#
#1041
0#
#1042
b10 -
b1000001010 0
1#
#1043
0#
#1044
b1000001011 0
b11 -
1#
#1045
0#
#1046
b100 -
b1000001100 0
1#
#1047
0#
#1048
b1000001101 0
b101 -
1#
#1049
0#
#1050
b1 -
b1000001110 0
1#
#1051
0#
#1052
b1000001111 0
b10 -
1#
#1053
0#
#1054
b11 -
b1000010000 0
1#
#1055
0#
#1056
b1000010001 0
b100 -
1#
#1057
0#
#1058
b101 -
b1000010010 0
1#
#1059
0#
#1060
b1000010011 0
b1 -
1#
#1061
0#
#1062
b10 -
b1000010100 0
1#
#1063
0#
#1064
b1000010101 0
b11 -
1#
#1065
0#
#1066
b100 -
b1000010110 0
1#
#1067
0#
#1068
b1000010111 0
b101 -
1#
#1069
0#
#1070
b1 -
b1000011000 0
1#
#1071
0#
#1072
b1000011001 0
b10 -
1#
#1073
0#
#1074
b11 -
b1000011010 0
1#
#1075
0#
#1076
b1000011011 0
b100 -
1#
#1077
0#
#1078
b101 -
b1000011100 0
1#
#1079
0#
#1080
b1000011101 0
b1 -
1#
#1081
0#
#1082
b10 -
b1000011110 0
1#
#1083
0#
#1084
b1000011111 0
b11 -
1#
#1085
0#
#1086
b100 -
b1000100000 0
1#
#1087
0#
#1088
b1000100001 0
b101 -
1#
#1089
0#
#1090
b1 -
b1000100010 0
1#
#1091
0#
#1092
b1000100011 0
b10 -
1#
#1093
0#
#1094
b11 -
b1000100100 0
1#
#1095
0#
#1096
b1000100101 0
b100 -
1#
#1097
0#
#1098
b101 -
b1000100110 0
1#
#1099
0#
#1100
b1000100111 0
b1 -
1#
#1101
0#
#1102
b10 -
b1000101000 0
1#
#1103
0#
#1104
b1000101001 0
b11 -
1#
#1105
0#
#1106
b100 -
b1000101010 0
1#
#1107
0#
#1108
b1000101011 0
b101 -
1#
#1109
0#
#1110
b1 -
b1000101100 0
1#
#1111
0#
#1112
b1000101101 0
b10 -
1#
#1113
0#
#1114
b11 -
b1000101110 0
1#
#1115
0#
#1116
b1000101111 0
b100 -
1#
#1117
0#
#1118
b101 -
b1000110000 0
1#
#1119
0#
#1120
b1000110001 0
b1 -
1#
#1121
0#
#1122
b10 -
b1000110010 0
1#
#1123
0#
#1124
b1000110011 0
b11 -
1#
#1125
0#
#1126
b100 -
b1000110100 0
1#
#1127
0#
#1128
b1000110101 0
b101 -
1#
#1129
0#
#1130
b1 -
b1000110110 0
1#
#1131
0#
#1132
b1000110111 0
b10 -
1#
#1133
0#
#1134
b11 -
b1000111000 0
1#
#1135
0#
#1136
b1000111001 0
b100 -
1#
#1137
0#
#1138
b101 -
b1000111010 0
1#
#1139
0#
#1140
b1000111011 0
b1 -
1#
#1141
0#
#1142
b10 -
b1000111100 0
1#
#1143
0#
#1144
b1000111101 0
b11 -
1#
#1145
0#
#1146
b100 -
b1000111110 0
1#
#1147
0#
#1148
b1000111111 0
b101 -
1#
#1149
0#
#1150
b1 -
b1001000000 0
1#
#1151
0#
#1152
b1001000001 0
b10 -
1#
#1153
0#
#1154
b11 -
b1001000010 0
1#
#1155
0#
#1156
b1001000011 0
b100 -
1#
#1157
0#
#1158
b101 -
b1001000100 0
1#
#1159
0#
#1160
b1001000101 0
b1 -
1#
#1161
0#
#1162
b10 -
b1001000110 0
1#
#1163
0#
#1164
b1001000111 0
b11 -
1#
#1165
0#
#1166
b100 -
b1001001000 0
1#
#1167
0#
#1168
b1001001001 0
b101 -
1#
#1169
0#
#1170
b1 -
b1001001010 0
1#
#1171
0#
#1172
b1001001011 0
b10 -
1#
#1173
0#
#1174
b11 -
b1001001100 0
1#
#1175
0#
#1176
b1001001101 0
b100 -
1#
#1177
0#
#1178
b101 -
b1001001110 0
1#
#1179
0#
#1180
b1001001111 0
b1 -
1#
#1181
0#
#1182
b10 -
b1001010000 0
1#
#1183
0#
#1184
b1001010001 0
b11 -
1#
#1185
0#
