build/waveform.vcd
$date
	Thu Jan 25 13:25:06 2024
$end
$version
	Icarus Verilog
$end
$timescale
	1s
$end
$scope module testbench $end
$var wire 4 ! cathodes [3:0] $end
$var wire 8 " anodes [7:0] $end
$var reg 1 # JA1 $end
$var reg 1 $ clk $end
$scope module UUT $end
$var wire 1 # JA1 $end
$var wire 1 $ clk $end
$var wire 4 % cathodes [3:0] $end
$var wire 8 & anodes [7:0] $end
$var wire 4 ' Thousands_Data [3:0] $end
$var wire 4 ( Tens_Data [3:0] $end
$var wire 4 ) Ones_Data [3:0] $end
$var wire 4 * Hundreds_Data [3:0] $end
$scope module Unit0 $end
$var wire 1 # JA1 $end
$var wire 1 $ clk $end
$var wire 4 + Thousands_Data [3:0] $end
$var wire 4 , Tens_Data [3:0] $end
$var wire 4 - Ones_Data [3:0] $end
$var wire 4 . Hundreds_Data [3:0] $end
$var wire 10 / Binary_Hz [9:0] $end
$scope module Unit0 $end
$var wire 1 # JA1 $end
$var wire 1 $ clk $end
$var wire 1 0 OneSecond $end
$var reg 10 1 Hz [9:0] $end
$var reg 10 2 count [9:0] $end
$scope module U0 $end
$var wire 1 $ clk $end
$var reg 1 0 OneSecond $end
$var reg 26 3 count [25:0] $end
$upscope $end
$upscope $end
$scope module Unit1 $end
$var wire 10 4 Hz [9:0] $end
$var reg 4 5 Hundreds_Data [3:0] $end
$var reg 4 6 Ones_Data [3:0] $end
$var reg 4 7 Tens_Data [3:0] $end
$var reg 4 8 Thousands_Data [3:0] $end
$var reg 26 9 bin [25:0] $end
$upscope $end
$upscope $end
$scope module Unit1 $end
$var wire 4 : Hundreds_Data [3:0] $end
$var wire 4 ; Ones_Data [3:0] $end
$var wire 4 < Tens_Data [3:0] $end
$var wire 4 = Thousands_Data [3:0] $end
$var wire 1 $ clk $end
$var wire 2 > sync [1:0] $end
$var wire 8 ? segmentout [7:0] $end
$var wire 8 @ decoder4 [7:0] $end
$var wire 8 A decoder3 [7:0] $end
$var wire 8 B decoder2 [7:0] $end
$var wire 8 C decoder1 [7:0] $end
$var wire 4 D cathode [3:0] $end
$scope module U1 $end
$var wire 4 E data [3:0] $end
$var reg 8 F segments [7:0] $end
$upscope $end
$scope module U2 $end
$var wire 4 G data [3:0] $end
$var reg 8 H segments [7:0] $end
$upscope $end
$scope module U3 $end
$var wire 4 I data [3:0] $end
$var reg 8 J segments [7:0] $end
$upscope $end
$scope module U4 $end
$var wire 4 K data [3:0] $end
$var reg 8 L segments [7:0] $end
$upscope $end
$scope module U5 $end
$var wire 1 $ clk $end
$var reg 2 M sync_count [1:0] $end
$upscope $end
$scope module U6 $end
$var wire 8 N segment1 [7:0] $end
$var wire 8 O segment2 [7:0] $end
$var wire 8 P segment3 [7:0] $end
$var wire 8 Q segment4 [7:0] $end
$var wire 2 R sync_count [1:0] $end
$var reg 8 S segmentout [7:0] $end
$upscope $end
$scope module U7 $end
$var wire 2 T sync_count [1:0] $end
$var reg 4 U cathode [3:0] $end
$upscope $end
$upscope $end
$upscope $end
$scope begin $ivl_for_loop0 $end
$var integer 32 V i [31:0] $end
$upscope $end
$upscope $end
$enddefinitions $end
$comment Show the parameter values. $end
$dumpall
$end
#0
$dumpvars
bx V
b1101 U
b1 T
b11000000 S
b1 R
b11000000 Q
b11000000 P
b11000000 O
b11000000 N
b1 M
b11000000 L
b0 K
b11000000 J
b0 I
b11000000 H
b0 G
b11000000 F
b0 E
b1101 D
b11000000 C
b11000000 B
b11000000 A
b11000000 @
b11000000 ?
b1 >
b0 =
b0 <
b0 ;
b0 :
b0 9
b0 8
b0 7
b0 6
b0 5
b0 4
b1 3
b0 2
b0 1
00
b0 /
b0 .
b0 -
b0 ,
b0 +
b0 *
b0 )
b0 (
b0 '
b11000000 &
b1101 %
1$
0#
b11000000 "
b1101 !
$end
#1
0$
#2
b1011 !
b1011 %
b1011 D
b1011 U
b10 >
b10 M
b10 R
b10 T
b10 3
1$
#3
0$
#4
b111 !
b111 %
b111 D
b111 U
b11 3
b11 >
b11 M
b11 R
b11 T
1$
#5
0$
#6
b1110 !
b1110 %
b1110 D
b1110 U
b0 >
b0 M
b0 R
b0 T
b100 3
1$
#7
0$
#8
b1101 !
b1101 %
b1101 D
b1101 U
b101 3
b1 >
b1 M
b1 R
b1 T
1$
#9
0$
#10
b1011 !
b1011 %
b1011 D
b1011 U
b1 2
b10 >
b10 M
b10 R
b10 T
b110 3
1$
1#
b0 V
#11
0$
0#
b1 V
#12
b111 !
b111 %
b111 D
b111 U
b10 2
b111 3
b11 >
b11 M
b11 R
b11 T
1$
1#
b10 V
#13
0$
0#
b11 V
#14
b1110 !
b1110 %
b1110 D
b1110 U
b11 2
b0 >
b0 M
b0 R
b0 T
b1000 3
1$
1#
b100 V
#15
0$
0#
b101 V
#16
b1101 !
b1101 %
b1101 D
b1101 U
b100 2
b1001 3
b1 >
b1 M
b1 R
b1 T
1$
1#
b110 V
#17
0$
0#
b111 V
#18
b1011 !
b1011 %
b1011 D
b1011 U
b101 2
b10 >
b10 M
b10 R
b10 T
b1010 3
1$
1#
b1000 V
#19
0$
0#
b1001 V
#20
b111 !
b111 %
b111 D
b111 U
b110 2
b1011 3
b11 >
b11 M
b11 R
b11 T
1$
1#
b1010 V
#21
0$
0#
b1011 V
#22
b1110 !
b1110 %
b1110 D
b1110 U
b111 2
b0 >
b0 M
b0 R
b0 T
b1100 3
1$
1#
b1100 V
#23
0$
0#
b1101 V
#24
b1101 !
b1101 %
b1101 D
b1101 U
b1000 2
b1101 3
b1 >
b1 M
b1 R
b1 T
1$
1#
b1110 V
#25
0$
0#
b1111 V
#26
b1011 !
b1011 %
b1011 D
b1011 U
b1001 2
b10 >
b10 M
b10 R
b10 T
b1110 3
1$
1#
b10000 V
#27
0$
0#
b10001 V
#28
b111 !
b111 %
b111 D
b111 U
b1010 2
b1111 3
b11 >
b11 M
b11 R
b11 T
1$
1#
b10010 V
#29
0$
0#
b10011 V
#30
b1110 !
b1110 %
b1110 D
b1110 U
b1011 2
b0 >
b0 M
b0 R
b0 T
b10000 3
1$
1#
b10100 V
#31
0$
0#
b10101 V
#32
b1101 !
b1101 %
b1101 D
b1101 U
b1100 2
b10001 3
b1 >
b1 M
b1 R
b1 T
1$
1#
b10110 V
#33
0$
0#
b10111 V
#34
b1011 !
b1011 %
b1011 D
b1011 U
b1101 2
b10 >
b10 M
b10 R
b10 T
b10010 3
1$
1#
b11000 V
#35
0$
0#
b11001 V
#36
b111 !
b111 %
b111 D
b111 U
b1110 2
b10011 3
b11 >
b11 M
b11 R
b11 T
1$
1#
b11010 V
#37
0$
0#
b11011 V
#38
b1110 !
b1110 %
b1110 D
b1110 U
b1111 2
b0 >
b0 M
b0 R
b0 T
b10100 3
1$
1#
b11100 V
#39
0$
0#
b11101 V
#40
b1101 !
b1101 %
b1101 D
b1101 U
b10000 2
b10101 3
b1 >
b1 M
b1 R
b1 T
1$
1#
b11110 V
#41
0$
0#
b11111 V
#42
b1011 !
b1011 %
b1011 D
b1011 U
b10001 2
b10 >
b10 M
b10 R
b10 T
b10110 3
1$
1#
b100000 V
#43
0$
0#
b100001 V
#44
b111 !
b111 %
b111 D
b111 U
b10010 2
b10111 3
b11 >
b11 M
b11 R
b11 T
1$
1#
b100010 V
#45
0$
0#
b100011 V
#46
b1110 !
b1110 %
b1110 D
b1110 U
b10011 2
b0 >
b0 M
b0 R
b0 T
b11000 3
1$
1#
b100100 V
#47
0$
0#
b100101 V
#48
b1101 !
b1101 %
b1101 D
b1101 U
b10100 2
b11001 3
b1 >
b1 M
b1 R
b1 T
1$
1#
b100110 V
#49
0$
0#
b100111 V
#50
b1011 !
b1011 %
b1011 D
b1011 U
b10101 2
b10 >
b10 M
b10 R
b10 T
b11010 3
1$
1#
b101000 V
#51
0$
0#
b101001 V
#52
b111 !
b111 %
b111 D
b111 U
b10110 2
b11011 3
b11 >
b11 M
b11 R
b11 T
1$
1#
b101010 V
#53
0$
0#
b101011 V
#54
b1110 !
b1110 %
b1110 D
b1110 U
b10111 2
b0 >
b0 M
b0 R
b0 T
b11100 3
1$
1#
b101100 V
#55
0$
0#
b101101 V
#56
b1101 !
b1101 %
b1101 D
b1101 U
b11000 2
b11101 3
b1 >
b1 M
b1 R
b1 T
1$
1#
b101110 V
#57
0$
0#
b101111 V
#58
b1011 !
b1011 %
b1011 D
b1011 U
b11001 2
b10 >
b10 M
b10 R
b10 T
b11110 3
1$
1#
b110000 V
#59
0$
0#
b110001 V
#60
b111 !
b111 %
b111 D
b111 U
b11010 2
b11111 3
b11 >
b11 M
b11 R
b11 T
1$
1#
b110010 V
#61
0$
0#
b110011 V
#62
b1110 !
b1110 %
b1110 D
b1110 U
b11011 2
b0 >
b0 M
b0 R
b0 T
b100000 3
1$
1#
b110100 V
#63
0$
0#
b110101 V
#64
b1101 !
b1101 %
b1101 D
b1101 U
b11100 2
b100001 3
b1 >
b1 M
b1 R
b1 T
1$
1#
b110110 V
#65
0$
0#
b110111 V
#66
b1011 !
b1011 %
b1011 D
b1011 U
b11101 2
b10 >
b10 M
b10 R
b10 T
b100010 3
1$
1#
b111000 V
#67
0$
0#
b111001 V
#68
b111 !
b111 %
b111 D
b111 U
b11110 2
b100011 3
b11 >
b11 M
b11 R
b11 T
1$
1#
b111010 V
#69
0$
0#
b111011 V
#70
b1110 !
b1110 %
b1110 D
b1110 U
b11111 2
b0 >
b0 M
b0 R
b0 T
b100100 3
1$
1#
b111100 V
#71
0$
0#
b111101 V
#72
b1101 !
b1101 %
b1101 D
b1101 U
b100000 2
b100101 3
b1 >
b1 M
b1 R
b1 T
1$
1#
b111110 V
#73
0$
0#
b111111 V
#74
b1011 !
b1011 %
b1011 D
b1011 U
b100001 2
b10 >
b10 M
b10 R
b10 T
b100110 3
1$
1#
b1000000 V
#75
0$
0#
b1000001 V
#76
b111 !
b111 %
b111 D
b111 U
b100010 2
b100111 3
b11 >
b11 M
b11 R
b11 T
1$
1#
b1000010 V
#77
0$
0#
b1000011 V
#78
b1110 !
b1110 %
b1110 D
b1110 U
b100011 2
b0 >
b0 M
b0 R
b0 T
b101000 3
1$
1#
b1000100 V
#79
0$
0#
b1000101 V
#80
b1101 !
b1101 %
b1101 D
b1101 U
b100100 2
b101001 3
b1 >
b1 M
b1 R
b1 T
1$
1#
b1000110 V
#81
0$
0#
b1000111 V
#82
b1011 !
b1011 %
b1011 D
b1011 U
b100101 2
b10 >
b10 M
b10 R
b10 T
b101010 3
1$
1#
b1001000 V
#83
0$
0#
b1001001 V
#84
b111 !
b111 %
b111 D
b111 U
b100110 2
b101011 3
b11 >
b11 M
b11 R
b11 T
1$
1#
b1001010 V
#85
0$
0#
b1001011 V
#86
b1110 !
b1110 %
b1110 D
b1110 U
b100111 2
b0 >
b0 M
b0 R
b0 T
b101100 3
1$
1#
b1001100 V
#87
0$
0#
b1001101 V
#88
b1101 !
b1101 %
b1101 D
b1101 U
b101000 2
b101101 3
b1 >
b1 M
b1 R
b1 T
1$
1#
b1001110 V
#89
0$
0#
b1001111 V
#90
b1011 !
b1011 %
b1011 D
b1011 U
b101001 2
b10 >
b10 M
b10 R
b10 T
b101110 3
1$
1#
b1010000 V
#91
0$
0#
b1010001 V
#92
b111 !
b111 %
b111 D
b111 U
b101010 2
b101111 3
b11 >
b11 M
b11 R
b11 T
1$
1#
b1010010 V
#93
0$
0#
b1010011 V
#94
b1110 !
b1110 %
b1110 D
b1110 U
b101011 2
b0 >
b0 M
b0 R
b0 T
b110000 3
1$
1#
b1010100 V
#95
0$
0#
b1010101 V
#96
b1101 !
b1101 %
b1101 D
b1101 U
b101100 2
b110001 3
b1 >
b1 M
b1 R
b1 T
1$
1#
b1010110 V
#97
0$
0#
b1010111 V
#98
b1011 !
b1011 %
b1011 D
b1011 U
b101101 2
b10 >
b10 M
b10 R
b10 T
b110010 3
1$
1#
b1011000 V
#99
0$
0#
b1011001 V
#100
b111 !
b111 %
b111 D
b111 U
b101110 2
b110011 3
b11 >
b11 M
b11 R
b11 T
1$
1#
b1011010 V
#101
0$
0#
b1011011 V
#102
b1110 !
b1110 %
b1110 D
b1110 U
b101111 2
b0 >
b0 M
b0 R
b0 T
b110100 3
1$
1#
b1011100 V
#103
0$
0#
b1011101 V
#104
b1101 !
b1101 %
b1101 D
b1101 U
b110000 2
b110101 3
b1 >
b1 M
b1 R
b1 T
1$
1#
b1011110 V
#105
0$
0#
b1011111 V
#106
b1011 !
b1011 %
b1011 D
b1011 U
b110001 2
b10 >
b10 M
b10 R
b10 T
b110110 3
1$
1#
b1100000 V
#107
0$
0#
b1100001 V
#108
b111 !
b111 %
b111 D
b111 U
b110010 2
b110111 3
b11 >
b11 M
b11 R
b11 T
1$
1#
b1100010 V
#109
0$
0#
b1100011 V
#110
b1110 !
b1110 %
b1110 D
b1110 U
b110011 2
b0 >
b0 M
b0 R
b0 T
b111000 3
1$
1#
b1100100 V
#111
0$
0#
b1100101 V
#112
b1101 !
b1101 %
b1101 D
b1101 U
b110100 2
b111001 3
b1 >
b1 M
b1 R
b1 T
1$
1#
b1100110 V
#113
0$
0#
b1100111 V
#114
b1011 !
b1011 %
b1011 D
b1011 U
b110101 2
b10 >
b10 M
b10 R
b10 T
b111010 3
1$
1#
b1101000 V
#115
0$
0#
b1101001 V
#116
b111 !
b111 %
b111 D
b111 U
b110110 2
b111011 3
b11 >
b11 M
b11 R
b11 T
1$
1#
b1101010 V
#117
0$
0#
b1101011 V
#118
b1110 !
b1110 %
b1110 D
b1110 U
b110111 2
b0 >
b0 M
b0 R
b0 T
b111100 3
1$
1#
b1101100 V
#119
0$
0#
b1101101 V
#120
b1101 !
b1101 %
b1101 D
b1101 U
b111000 2
b111101 3
b1 >
b1 M
b1 R
b1 T
1$
1#
b1101110 V
#121
0$
0#
b1101111 V
#122
b1011 !
b1011 %
b1011 D
b1011 U
b111001 2
b10 >
b10 M
b10 R
b10 T
b111110 3
1$
1#
b1110000 V
#123
0$
0#
b1110001 V
#124
b111 !
b111 %
b111 D
b111 U
b111010 2
b111111 3
b11 >
b11 M
b11 R
b11 T
1$
1#
b1110010 V
#125
0$
0#
b1110011 V
#126
b1110 !
b1110 %
b1110 D
b1110 U
b111011 2
b0 >
b0 M
b0 R
b0 T
b1000000 3
1$
1#
b1110100 V
#127
0$
0#
b1110101 V
#128
b1101 !
b1101 %
b1101 D
b1101 U
b111100 2
b1000001 3
b1 >
b1 M
b1 R
b1 T
1$
1#
b1110110 V
#129
0$
0#
b1110111 V
#130
b1011 !
b1011 %
b1011 D
b1011 U
b111101 2
b10 >
b10 M
b10 R
b10 T
b1000010 3
1$
1#
b1111000 V
#131
0$
0#
b1111001 V
#132
b111 !
b111 %
b111 D
b111 U
b111110 2
b1000011 3
b11 >
b11 M
b11 R
b11 T
1$
1#
b1111010 V
#133
0$
0#
b1111011 V
#134
b1110 !
b1110 %
b1110 D
b1110 U
b111111 2
b0 >
b0 M
b0 R
b0 T
b1000100 3
1$
1#
b1111100 V
#135
0$
0#
b1111101 V
#136
b1101 !
b1101 %
b1101 D
b1101 U
b1000000 2
b1000101 3
b1 >
b1 M
b1 R
b1 T
1$
1#
b1111110 V
#137
0$
0#
b1111111 V
#138
b1011 !
b1011 %
b1011 D
b1011 U
b1000001 2
b10 >
b10 M
b10 R
b10 T
b1000110 3
1$
1#
b10000000 V
#139
0$
0#
b10000001 V
#140
b111 !
b111 %
b111 D
b111 U
b1000010 2
b1000111 3
b11 >
b11 M
b11 R
b11 T
1$
1#
b10000010 V
#141
0$
0#
b10000011 V
#142
b1110 !
b1110 %
b1110 D
b1110 U
b1000011 2
b0 >
b0 M
b0 R
b0 T
b1001000 3
1$
1#
b10000100 V
#143
0$
0#
b10000101 V
#144
b1101 !
b1101 %
b1101 D
b1101 U
b1000100 2
b1001001 3
b1 >
b1 M
b1 R
b1 T
1$
1#
b10000110 V
#145
0$
0#
b10000111 V
#146
b1011 !
b1011 %
b1011 D
b1011 U
b1000101 2
b10 >
b10 M
b10 R
b10 T
b1001010 3
1$
1#
b10001000 V
#147
0$
0#
b10001001 V
#148
b111 !
b111 %
b111 D
b111 U
b1000110 2
b1001011 3
b11 >
b11 M
b11 R
b11 T
1$
1#
b10001010 V
#149
0$
0#
b10001011 V
#150
b1110 !
b1110 %
b1110 D
b1110 U
b1000111 2
b0 >
b0 M
b0 R
b0 T
b1001100 3
1$
1#
b10001100 V
#151
0$
0#
b10001101 V
#152
b1101 !
b1101 %
b1101 D
b1101 U
b1001000 2
b1001101 3
b1 >
b1 M
b1 R
b1 T
1$
1#
b10001110 V
#153
0$
0#
b10001111 V
#154
b1011 !
b1011 %
b1011 D
b1011 U
b1001001 2
b10 >
b10 M
b10 R
b10 T
b1001110 3
1$
1#
b10010000 V
#155
0$
0#
b10010001 V
#156
b111 !
b111 %
b111 D
b111 U
b1001010 2
b1001111 3
b11 >
b11 M
b11 R
b11 T
1$
1#
b10010010 V
#157
0$
0#
b10010011 V
#158
b1110 !
b1110 %
b1110 D
b1110 U
b1001011 2
b0 >
b0 M
b0 R
b0 T
b1010000 3
1$
1#
b10010100 V
#159
0$
0#
b10010101 V
#160
b1101 !
b1101 %
b1101 D
b1101 U
b1001100 2
b1010001 3
b1 >
b1 M
b1 R
b1 T
1$
1#
b10010110 V
#161
0$
0#
b10010111 V
#162
b1011 !
b1011 %
b1011 D
b1011 U
b1001101 2
b10 >
b10 M
b10 R
b10 T
b1010010 3
1$
1#
b10011000 V
#163
0$
0#
b10011001 V
#164
b111 !
b111 %
b111 D
b111 U
b1001110 2
b1010011 3
b11 >
b11 M
b11 R
b11 T
1$
1#
b10011010 V
#165
0$
0#
b10011011 V
#166
b1110 !
b1110 %
b1110 D
b1110 U
b1001111 2
b0 >
b0 M
b0 R
b0 T
b1010100 3
1$
1#
b10011100 V
#167
0$
0#
b10011101 V
#168
b1101 !
b1101 %
b1101 D
b1101 U
b1010000 2
b1010101 3
b1 >
b1 M
b1 R
b1 T
1$
1#
b10011110 V
#169
0$
0#
b10011111 V
#170
b1011 !
b1011 %
b1011 D
b1011 U
b1010001 2
b10 >
b10 M
b10 R
b10 T
b1010110 3
1$
1#
b10100000 V
#171
0$
0#
b10100001 V
#172
b111 !
b111 %
b111 D
b111 U
b1010010 2
b1010111 3
b11 >
b11 M
b11 R
b11 T
1$
1#
b10100010 V
#173
0$
0#
b10100011 V
#174
b1110 !
b1110 %
b1110 D
b1110 U
b1010011 2
b0 >
b0 M
b0 R
b0 T
b1011000 3
1$
1#
b10100100 V
#175
0$
0#
b10100101 V
#176
b1101 !
b1101 %
b1101 D
b1101 U
b1010100 2
b1011001 3
b1 >
b1 M
b1 R
b1 T
1$
1#
b10100110 V
#177
0$
0#
b10100111 V
#178
b1011 !
b1011 %
b1011 D
b1011 U
b1010101 2
b10 >
b10 M
b10 R
b10 T
b1011010 3
1$
1#
b10101000 V
#179
0$
0#
b10101001 V
#180
b111 !
b111 %
b111 D
b111 U
b1010110 2
b1011011 3
b11 >
b11 M
b11 R
b11 T
1$
1#
b10101010 V
#181
0$
0#
b10101011 V
#182
b1110 !
b1110 %
b1110 D
b1110 U
b1010111 2
b0 >
b0 M
b0 R
b0 T
b1011100 3
1$
1#
b10101100 V
#183
0$
0#
b10101101 V
#184
b1101 !
b1101 %
b1101 D
b1101 U
b1011000 2
b1011101 3
b1 >
b1 M
b1 R
b1 T
1$
1#
b10101110 V
#185
0$
0#
b10101111 V
#186
b1011 !
b1011 %
b1011 D
b1011 U
b1011001 2
b10 >
b10 M
b10 R
b10 T
b1011110 3
1$
1#
b10110000 V
#187
0$
0#
b10110001 V
#188
b111 !
b111 %
b111 D
b111 U
b1011010 2
b1011111 3
b11 >
b11 M
b11 R
b11 T
1$
1#
b10110010 V
#189
0$
0#
b10110011 V
#190
b1110 !
b1110 %
b1110 D
b1110 U
b1011011 2
b0 >
b0 M
b0 R
b0 T
b1100000 3
1$
1#
b10110100 V
#191
0$
0#
b10110101 V
#192
b1101 !
b1101 %
b1101 D
b1101 U
b1011100 2
b1100001 3
b1 >
b1 M
b1 R
b1 T
1$
1#
b10110110 V
#193
0$
0#
b10110111 V
#194
b1011 !
b1011 %
b1011 D
b1011 U
b1011101 2
b10 >
b10 M
b10 R
b10 T
b1100010 3
1$
1#
b10111000 V
#195
0$
0#
b10111001 V
#196
b111 !
b111 %
b111 D
b111 U
b1011110 2
b1100011 3
b11 >
b11 M
b11 R
b11 T
1$
1#
b10111010 V
#197
0$
0#
b10111011 V
#198
b1110 !
b1110 %
b1110 D
b1110 U
b1011111 2
b0 >
b0 M
b0 R
b0 T
b1100100 3
1$
1#
b10111100 V
#199
0$
0#
b10111101 V
#200
b1101 !
b1101 %
b1101 D
b1101 U
b1100000 2
b1100101 3
b1 >
b1 M
b1 R
b1 T
1$
1#
b10111110 V
#201
0$
0#
b10111111 V
#202
b1011 !
b1011 %
b1011 D
b1011 U
b1100001 2
b10 >
b10 M
b10 R
b10 T
b1100110 3
1$
1#
b11000000 V
#203
0$
0#
b11000001 V
#204
b111 !
b111 %
b111 D
b111 U
b1100010 2
b1100111 3
b11 >
b11 M
b11 R
b11 T
1$
1#
b11000010 V
#205
0$
0#
b11000011 V
#206
b1110 !
b1110 %
b1110 D
b1110 U
b1100011 2
b0 >
b0 M
b0 R
b0 T
b1101000 3
1$
1#
b11000100 V
#207
0$
0#
b11000101 V
#208
b1101 !
b1101 %
b1101 D
b1101 U
b1100100 2
b1101001 3
b1 >
b1 M
b1 R
b1 T
1$
1#
b11000110 V
#209
0$
0#
b11000111 V
#210
b1011 !
b1011 %
b1011 D
b1011 U
b1100101 2
b10 >
b10 M
b10 R
b10 T
b1101010 3
1$
1#
b11001000 V
#211
0$
0#
b11001001 V
#212
b111 !
b111 %
b111 D
b111 U
b1100110 2
b1101011 3
b11 >
b11 M
b11 R
b11 T
1$
1#
b11001010 V
#213
0$
0#
b11001011 V
#214
b1110 !
b1110 %
b1110 D
b1110 U
b1100111 2
b0 >
b0 M
b0 R
b0 T
b1101100 3
1$
1#
b11001100 V
#215
0$
0#
b11001101 V
#216
b1101 !
b1101 %
b1101 D
b1101 U
b1101000 2
b1101101 3
b1 >
b1 M
b1 R
b1 T
1$
1#
b11001110 V
#217
0$
0#
b11001111 V
#218
b1011 !
b1011 %
b1011 D
b1011 U
b1101001 2
b10 >
b10 M
b10 R
b10 T
b1101110 3
1$
1#
b11010000 V
#219
0$
0#
b11010001 V
#220
b111 !
b111 %
b111 D
b111 U
b1101010 2
b1101111 3
b11 >
b11 M
b11 R
b11 T
1$
1#
b11010010 V
#221
0$
0#
b11010011 V
#222
b1110 !
b1110 %
b1110 D
b1110 U
b1101011 2
b0 >
b0 M
b0 R
b0 T
b1110000 3
1$
1#
b11010100 V
#223
0$
0#
b11010101 V
#224
b1101 !
b1101 %
b1101 D
b1101 U
b1101100 2
b1110001 3
b1 >
b1 M
b1 R
b1 T
1$
1#
b11010110 V
#225
0$
0#
b11010111 V
#226
b1011 !
b1011 %
b1011 D
b1011 U
b1101101 2
b10 >
b10 M
b10 R
b10 T
b1110010 3
1$
1#
b11011000 V
#227
0$
0#
b11011001 V
#228
b111 !
b111 %
b111 D
b111 U
b1101110 2
b1110011 3
b11 >
b11 M
b11 R
b11 T
1$
1#
b11011010 V
#229
0$
0#
b11011011 V
#230
b1110 !
b1110 %
b1110 D
b1110 U
b1101111 2
b0 >
b0 M
b0 R
b0 T
b1110100 3
1$
1#
b11011100 V
#231
0$
0#
b11011101 V
#232
b1101 !
b1101 %
b1101 D
b1101 U
b1110000 2
b1110101 3
b1 >
b1 M
b1 R
b1 T
1$
1#
b11011110 V
#233
0$
0#
b11011111 V
#234
b1011 !
b1011 %
b1011 D
b1011 U
b1110001 2
b10 >
b10 M
b10 R
b10 T
b1110110 3
1$
1#
b11100000 V
#235
0$
0#
b11100001 V
#236
b111 !
b111 %
b111 D
b111 U
b1110010 2
b1110111 3
b11 >
b11 M
b11 R
b11 T
1$
1#
b11100010 V
#237
0$
0#
b11100011 V
#238
b1110 !
b1110 %
b1110 D
b1110 U
b1110011 2
b0 >
b0 M
b0 R
b0 T
b1111000 3
1$
1#
b11100100 V
#239
0$
0#
b11100101 V
#240
b1101 !
b1101 %
b1101 D
b1101 U
b1110100 2
b1111001 3
b1 >
b1 M
b1 R
b1 T
1$
1#
b11100110 V
#241
0$
0#
b11100111 V
#242
b1011 !
b1011 %
b1011 D
b1011 U
b1110101 2
b10 >
b10 M
b10 R
b10 T
b1111010 3
1$
1#
b11101000 V
#243
0$
0#
b11101001 V
#244
b111 !
b111 %
b111 D
b111 U
b1110110 2
b1111011 3
b11 >
b11 M
b11 R
b11 T
1$
1#
b11101010 V
#245
0$
0#
b11101011 V
#246
b1110 !
b1110 %
b1110 D
b1110 U
b1110111 2
b0 >
b0 M
b0 R
b0 T
b1111100 3
1$
1#
b11101100 V
#247
0$
0#
b11101101 V
#248
b1101 !
b1101 %
b1101 D
b1101 U
b1111000 2
b1111101 3
b1 >
b1 M
b1 R
b1 T
1$
1#
b11101110 V
#249
0$
0#
b11101111 V
#250
b1011 !
b1011 %
b1011 D
b1011 U
b1111001 2
b10 >
b10 M
b10 R
b10 T
b1111110 3
1$
1#
b11110000 V
#251
0$
0#
b11110001 V
#252
b111 !
b111 %
b111 D
b111 U
b1111010 2
b1111111 3
b11 >
b11 M
b11 R
b11 T
1$
1#
b11110010 V
#253
0$
0#
b11110011 V
#254
b1110 !
b1110 %
b1110 D
b1110 U
b1111011 2
b0 >
b0 M
b0 R
b0 T
b10000000 3
1$
1#
b11110100 V
#255
0$
0#
b11110101 V
#256
b1101 !
b1101 %
b1101 D
b1101 U
b10000001 3
b1 >
b1 M
b1 R
b1 T
1$
b11110110 V
#257
0$
#258
b1011 !
b1011 %
b1011 D
b1011 U
b10 >
b10 M
b10 R
b10 T
b10000010 3
1$
#259
0$
#260
b111 !
b111 %
b111 D
b111 U
b10000011 3
b11 >
b11 M
b11 R
b11 T
1$
#261
0$
#262
b1110 !
b1110 %
b1110 D
b1110 U
b0 >
b0 M
b0 R
b0 T
b10000100 3
1$
#263
0$
#264
b1101 !
b1101 %
b1101 D
b1101 U
b10000101 3
b1 >
b1 M
b1 R
b1 T
1$
#265
0$
#266
b1011 !
b1011 %
b1011 D
b1011 U
b10 >
b10 M
b10 R
b10 T
b10000110 3
1$
#267
0$
#268
b111 !
b111 %
b111 D
b111 U
b10000111 3
b11 >
b11 M
b11 R
b11 T
1$
#269
0$
#270
b1110 !
b1110 %
b1110 D
b1110 U
b0 >
b0 M
b0 R
b0 T
b10001000 3
1$
#271
0$
#272
b1101 !
b1101 %
b1101 D
b1101 U
b10001001 3
b1 >
b1 M
b1 R
b1 T
1$
#273
0$
#274
b1011 !
b1011 %
b1011 D
b1011 U
b10 >
b10 M
b10 R
b10 T
b10001010 3
1$
#275
0$
#276
b111 !
b111 %
b111 D
b111 U
b10001011 3
b11 >
b11 M
b11 R
b11 T
1$
#277
0$
#278
b1110 !
b1110 %
b1110 D
b1110 U
b0 >
b0 M
b0 R
b0 T
b10001100 3
1$
#279
0$
#280
b1101 !
b1101 %
b1101 D
b1101 U
b10001101 3
b1 >
b1 M
b1 R
b1 T
1$
#281
0$
#282
b1011 !
b1011 %
b1011 D
b1011 U
b10 >
b10 M
b10 R
b10 T
b10001110 3
1$
#283
0$
#284
b111 !
b111 %
b111 D
b111 U
b10001111 3
b11 >
b11 M
b11 R
b11 T
1$
#285
0$
#286
b1110 !
b1110 %
b1110 D
b1110 U
b0 >
b0 M
b0 R
b0 T
b10010000 3
1$
#287
0$
#288
b1101 !
b1101 %
b1101 D
b1101 U
b10010001 3
b1 >
b1 M
b1 R
b1 T
1$
#289
0$
#290
b1011 !
b1011 %
b1011 D
b1011 U
b10 >
b10 M
b10 R
b10 T
b10010010 3
1$
#291
0$
#292
b111 !
b111 %
b111 D
b111 U
b10010011 3
b11 >
b11 M
b11 R
b11 T
1$
#293
0$
#294
b1110 !
b1110 %
b1110 D
b1110 U
b0 >
b0 M
b0 R
b0 T
b10010100 3
1$
#295
0$
#296
b1101 !
b1101 %
b1101 D
b1101 U
b10010101 3
b1 >
b1 M
b1 R
b1 T
1$
#297
0$
#298
b1011 !
b1011 %
b1011 D
b1011 U
b10 >
b10 M
b10 R
b10 T
b10010110 3
1$
#299
0$
#300
b111 !
b111 %
b111 D
b111 U
b10010111 3
b11 >
b11 M
b11 R
b11 T
1$
#301
0$
#302
b1110 !
b1110 %
b1110 D
b1110 U
b0 >
b0 M
b0 R
b0 T
b10011000 3
1$
#303
0$
#304
b1101 !
b1101 %
b1101 D
b1101 U
b10011001 3
b1 >
b1 M
b1 R
b1 T
1$
#305
0$
#306
b1011 !
b1011 %
b1011 D
b1011 U
b10 >
b10 M
b10 R
b10 T
b10011010 3
1$
#307
0$
#308
b111 !
b111 %
b111 D
b111 U
b10011011 3
b11 >
b11 M
b11 R
b11 T
1$
#309
0$
#310
b1110 !
b1110 %
b1110 D
b1110 U
b0 >
b0 M
b0 R
b0 T
b10011100 3
1$
#311
0$
#312
b1101 !
b1101 %
b1101 D
b1101 U
b10011101 3
b1 >
b1 M
b1 R
b1 T
1$
#313
0$
#314
b1011 !
b1011 %
b1011 D
b1011 U
b10 >
b10 M
b10 R
b10 T
b10011110 3
1$
#315
0$
#316
b111 !
b111 %
b111 D
b111 U
b10011111 3
b11 >
b11 M
b11 R
b11 T
1$
#317
0$
#318
b1110 !
b1110 %
b1110 D
b1110 U
b0 >
b0 M
b0 R
b0 T
b10100000 3
1$
#319
0$
#320
b1101 !
b1101 %
b1101 D
b1101 U
b10100001 3
b1 >
b1 M
b1 R
b1 T
1$
#321
0$
