build/waveform.vcd
$date
	Tue Mar 26 13:22:17 2024
$end
$version
	Icarus Verilog
$end
$timescale
	1ns
$end
$scope module testbench $end
$var wire 1 ! Pause $end
$var wire 1 " Enable $end
$var reg 2 # Disable [1:0] $end
$var reg 1 $ clk $end
$scope module UUT $end
$var wire 1 " Enable $end
$var wire 2 % SnsDisable [1:0] $end
$var wire 1 $ clk $end
$var reg 1 & HalfPause $end
$var reg 1 ! Pause $end
$var reg 27 ' Timer [26:0] $end
$upscope $end
$upscope $end
$enddefinitions $end
$comment Show the parameter values. $end
$dumpall
$end
#0
$dumpvars
b0 '
0&
b0 %
1$
b0 #
1"
0!
$end
#1
0$
#2
1$
#3
0$
#4
1$
#5
0$
#6
1$
#7
0$
#8
1$
#9
0$
#10
1$
#11
0$
#12
1$
#13
0$
#14
1$
#15
0$
#16
1$
#17
0$
#18
1$
#19
0$
#20
1$
#21
0$
#22
1$
#23
0$
#24
1$
#25
0$
#26
1$
#27
0$
#28
1$
#29
0$
#30
1$
#31
0$
#32
1$
#33
0$
#34
1$
#35
0$
#36
1$
#37
0$
#38
1$
#39
0$
#40
1$
#41
0$
#42
1$
#43
0$
#44
1$
#45
0$
#46
1$
#47
0$
#48
1$
#49
0$
#50
1$
#51
0$
#52
1$
#53
0$
#54
1$
#55
0$
#56
1$
#57
0$
#58
1$
#59
0$
#60
1$
#61
0$
#62
1$
#63
0$
#64
1$
#65
0$
#66
1$
#67
0$
#68
1$
#69
0$
#70
1$
#71
0$
#72
1$
#73
0$
#74
1$
#75
0$
#76
1$
#77
0$
#78
1$
#79
0$
#80
1$
#81
0$
#82
1$
#83
0$
#84
1$
#85
0$
#86
1$
#87
0$
#88
1$
#89
0$
#90
1$
#91
0$
#92
1$
#93
0$
#94
1$
#95
0$
#96
1$
#97
0$
#98
1$
#99
0$
#100
1$
#101
0$
#102
1$
#103
0$
#104
1$
#105
0$
#106
1$
#107
0$
#108
1$
#109
0$
#110
1$
#111
0$
#112
1$
#113
0$
#114
1$
#115
0$
#116
1$
#117
0$
#118
1$
#119
0$
#120
1$
#121
0$
#122
1$
#123
0$
#124
1$
#125
0$
#126
1$
#127
0$
#128
1$
#129
0$
#130
1$
#131
0$
#132
1$
#133
0$
#134
1$
#135
0$
#136
1$
#137
0$
#138
1$
#139
0$
#140
1$
#141
0$
#142
1$
#143
0$
#144
1$
#145
0$
#146
1$
#147
0$
#148
1$
#149
0$
#150
1$
#151
0$
#152
1$
#153
0$
#154
1$
#155
0$
#156
1$
#157
0$
#158
1$
#159
0$
#160
1$
#161
0$
#162
1$
#163
0$
#164
1$
#165
0$
#166
1$
#167
0$
#168
1$
#169
0$
#170
1$
#171
0$
#172
1$
#173
0$
#174
1$
#175
0$
#176
1$
#177
0$
#178
1$
#179
0$
#180
1$
#181
0$
#182
1$
#183
0$
#184
1$
#185
0$
#186
1$
#187
0$
#188
1$
#189
0$
#190
1$
#191
0$
#192
1$
#193
0$
#194
1$
#195
0$
#196
1$
#197
0$
#198
1$
#199
0$
#200
1$
#201
0$
#202
1$
#203
0$
#204
1$
#205
0$
#206
1$
#207
0$
#208
1$
#209
0$
#210
1$
#211
0$
#212
1$
#213
0$
#214
1$
#215
0$
#216
1$
#217
0$
#218
1$
#219
0$
#220
1$
#221
0$
#222
1$
#223
0$
#224
1$
#225
0$
#226
1$
#227
0$
#228
1$
#229
0$
#230
1$
#231
0$
#232
1$
#233
0$
#234
1$
#235
0$
#236
1$
#237
0$
#238
1$
#239
0$
#240
1$
#241
0$
#242
1$
#243
0$
#244
1$
#245
0$
#246
1$
#247
0$
#248
1$
#249
0$
#250
1$
#251
0$
#252
1$
#253
0$
#254
1$
#255
0$
#256
1$
#257
0$
#258
1$
#259
0$
#260
1$
#261
0$
#262
1$
#263
0$
#264
1$
#265
0$
#266
1$
#267
0$
#268
1$
#269
0$
#270
1$
#271
0$
#272
1$
#273
0$
#274
1$
#275
0$
#276
1$
#277
0$
#278
1$
#279
0$
#280
1$
#281
0$
#282
1$
#283
0$
#284
1$
#285
0$
#286
1$
#287
0$
#288
1$
#289
0$
#290
1$
#291
0$
#292
1$
#293
0$
#294
1$
#295
0$
#296
1$
#297
0$
#298
1$
#299
0$
#300
1$
#301
0$
#302
1$
#303
0$
#304
1$
#305
0$
#306
1$
#307
0$
#308
1$
#309
0$
#310
1$
#311
0$
#312
1$
#313
0$
#314
1$
#315
0$
#316
1$
#317
0$
#318
1$
#319
0$
#320
1$
#321
0$
#322
1$
#323
0$
#324
1$
#325
0$
#326
1$
#327
0$
#328
1$
#329
0$
#330
1$
#331
0$
#332
1$
#333
0$
#334
1$
#335
0$
#336
1$
#337
0$
#338
1$
#339
0$
#340
1$
#341
0$
#342
1$
#343
0$
#344
1$
#345
0$
#346
1$
#347
0$
#348
1$
#349
0$
#350
1$
#351
0$
#352
1$
#353
0$
#354
1$
#355
0$
#356
1$
#357
0$
#358
1$
#359
0$
#360
1$
#361
0$
#362
1$
#363
0$
#364
1$
#365
0$
#366
1$
#367
0$
#368
1$
#369
0$
#370
1$
#371
0$
#372
1$
#373
0$
#374
1$
#375
0$
#376
1$
#377
0$
#378
1$
#379
0$
#380
1$
#381
0$
#382
1$
#383
0$
#384
1$
#385
0$
#386
1$
#387
0$
#388
1$
#389
0$
#390
1$
#391
0$
#392
1$
#393
0$
#394
1$
#395
0$
#396
1$
#397
0$
#398
1$
#399
0$
#400
1$
#401
0$
#402
1$
#403
0$
#404
1$
#405
0$
#406
1$
#407
0$
#408
1$
#409
0$
#410
1$
#411
0$
#412
1$
#413
0$
#414
1$
#415
0$
#416
1$
#417
0$
#418
1$
#419
0$
#420
1$
#421
0$
#422
1$
#423
0$
#424
1$
#425
0$
#426
1$
#427
0$
#428
1$
#429
0$
#430
1$
#431
0$
#432
1$
#433
0$
#434
1$
#435
0$
#436
1$
#437
0$
#438
1$
#439
0$
#440
1$
#441
0$
#442
1$
#443
0$
#444
1$
#445
0$
#446
1$
#447
0$
#448
1$
#449
0$
#450
1$
#451
0$
#452
1$
#453
0$
#454
1$
#455
0$
#456
1$
#457
0$
#458
1$
#459
0$
#460
1$
#461
0$
#462
1$
#463
0$
#464
1$
#465
0$
#466
1$
#467
0$
#468
1$
#469
0$
#470
1$
#471
0$
#472
1$
#473
0$
#474
1$
#475
0$
#476
1$
#477
0$
#478
1$
#479
0$
#480
1$
#481
0$
#482
1$
#483
0$
#484
1$
#485
0$
#486
1$
#487
0$
#488
1$
#489
0$
#490
1$
#491
0$
#492
1$
#493
0$
#494
1$
#495
0$
#496
1$
#497
0$
#498
1$
#499
0$
#500
1$
#501
0$
#502
1$
#503
0$
#504
1$
#505
0$
#506
1$
#507
0$
#508
1$
#509
0$
#510
1$
#511
0$
#512
1$
#513
0$
#514
1$
#515
0$
#516
1$
#517
0$
#518
1$
#519
0$
#520
1$
#521
0$
#522
1$
#523
0$
#524
1$
#525
0$
#526
1$
#527
0$
#528
1$
#529
0$
#530
1$
#531
0$
#532
1$
#533
0$
#534
1$
#535
0$
#536
1$
#537
0$
#538
1$
#539
0$
#540
1$
#541
0$
#542
1$
#543
0$
#544
1$
#545
0$
#546
1$
#547
0$
#548
1$
#549
0$
#550
1$
#551
0$
#552
1$
#553
0$
#554
1$
#555
0$
#556
1$
#557
0$
#558
1$
#559
0$
#560
1$
#561
0$
#562
1$
#563
0$
#564
1$
#565
0$
#566
1$
#567
0$
#568
1$
#569
0$
#570
1$
#571
0$
#572
1$
#573
0$
#574
1$
#575
0$
#576
1$
#577
0$
#578
1$
#579
0$
#580
1$
#581
0$
#582
1$
#583
0$
#584
1$
#585
0$
#586
1$
#587
0$
#588
1$
#589
0$
#590
1$
#591
0$
#592
1$
#593
0$
#594
1$
#595
0$
#596
1$
#597
0$
#598
1$
#599
0$
#600
1$
#601
0$
#602
1$
#603
0$
#604
1$
#605
0$
#606
1$
#607
0$
#608
1$
#609
0$
#610
1$
#611
0$
#612
1$
#613
0$
#614
1$
#615
0$
#616
1$
#617
0$
#618
1$
#619
0$
#620
1$
#621
0$
#622
1$
#623
0$
#624
1$
#625
0$
#626
1$
#627
0$
#628
1$
#629
0$
#630
1$
#631
0$
#632
1$
#633
0$
#634
1$
#635
0$
#636
1$
#637
0$
#638
1$
#639
0$
#640
1$
#641
0$
#642
1$
#643
0$
#644
1$
#645
0$
#646
1$
#647
0$
#648
1$
#649
0$
#650
1$
#651
0$
#652
1$
#653
0$
#654
1$
#655
0$
#656
1$
#657
0$
#658
1$
#659
0$
#660
1$
#661
0$
#662
1$
#663
0$
#664
1$
#665
0$
#666
1$
#667
0$
#668
1$
#669
0$
#670
1$
#671
0$
#672
1$
#673
0$
#674
1$
#675
0$
#676
1$
#677
0$
#678
1$
#679
0$
#680
1$
#681
0$
#682
1$
#683
0$
#684
1$
#685
0$
#686
1$
#687
0$
#688
1$
#689
0$
#690
1$
#691
0$
#692
1$
#693
0$
#694
1$
#695
0$
#696
1$
#697
0$
#698
1$
#699
0$
#700
1$
#701
0$
#702
1$
#703
0$
#704
1$
#705
0$
#706
1$
#707
0$
#708
1$
#709
0$
#710
1$
#711
0$
#712
1$
#713
0$
#714
1$
#715
0$
#716
1$
#717
0$
#718
1$
#719
0$
#720
1$
#721
0$
#722
1$
#723
0$
#724
1$
#725
0$
#726
1$
#727
0$
#728
1$
#729
0$
#730
1$
#731
0$
#732
1$
#733
0$
#734
1$
#735
0$
#736
1$
#737
0$
#738
1$
#739
0$
#740
1$
#741
0$
#742
1$
#743
0$
#744
1$
#745
0$
#746
1$
#747
0$
#748
1$
#749
0$
#750
1$
#751
0$
#752
1$
#753
0$
#754
1$
#755
0$
#756
1$
#757
0$
#758
1$
#759
0$
#760
1$
#761
0$
#762
1$
#763
0$
#764
1$
#765
0$
#766
1$
#767
0$
#768
1$
#769
0$
#770
1$
#771
0$
#772
1$
#773
0$
#774
1$
#775
0$
#776
1$
#777
0$
#778
1$
#779
0$
#780
1$
#781
0$
#782
1$
#783
0$
#784
1$
#785
0$
#786
1$
#787
0$
#788
1$
#789
0$
#790
1$
#791
0$
#792
1$
#793
0$
#794
1$
#795
0$
#796
1$
#797
0$
#798
1$
#799
0$
#800
1$
#801
0$
#802
1$
#803
0$
#804
1$
#805
0$
#806
1$
#807
0$
#808
1$
#809
0$
#810
1$
#811
0$
#812
1$
#813
0$
#814
1$
#815
0$
#816
1$
#817
0$
#818
1$
#819
0$
#820
1$
#821
0$
#822
1$
#823
0$
#824
1$
#825
0$
#826
1$
#827
0$
#828
1$
#829
0$
#830
1$
#831
0$
#832
1$
#833
0$
#834
1$
#835
0$
#836
1$
#837
0$
#838
1$
#839
0$
#840
1$
#841
0$
#842
1$
#843
0$
#844
1$
#845
0$
#846
1$
#847
0$
#848
1$
#849
0$
#850
1$
#851
0$
#852
1$
#853
0$
#854
1$
#855
0$
#856
1$
#857
0$
#858
1$
#859
0$
#860
1$
#861
0$
#862
1$
#863
0$
#864
1$
#865
0$
#866
1$
#867
0$
#868
1$
#869
0$
#870
1$
#871
0$
#872
1$
#873
0$
#874
1$
#875
0$
#876
1$
#877
0$
#878
1$
#879
0$
#880
1$
#881
0$
#882
1$
#883
0$
#884
1$
#885
0$
#886
1$
#887
0$
#888
1$
#889
0$
#890
1$
#891
0$
#892
1$
#893
0$
#894
1$
#895
0$
#896
1$
#897
0$
#898
1$
#899
0$
#900
1$
#901
0$
#902
1$
#903
0$
#904
1$
#905
0$
#906
1$
#907
0$
#908
1$
#909
0$
#910
1$
#911
0$
#912
1$
#913
0$
#914
1$
#915
0$
#916
1$
#917
0$
#918
1$
#919
0$
#920
1$
#921
0$
#922
1$
#923
0$
#924
1$
#925
0$
#926
1$
#927
0$
#928
1$
#929
0$
#930
1$
#931
0$
#932
1$
#933
0$
#934
1$
#935
0$
#936
1$
#937
0$
#938
1$
#939
0$
#940
1$
#941
0$
#942
1$
#943
0$
#944
1$
#945
0$
#946
1$
#947
0$
#948
1$
#949
0$
#950
1$
#951
0$
#952
1$
#953
0$
#954
1$
#955
0$
#956
1$
#957
0$
#958
1$
#959
0$
#960
1$
#961
0$
#962
1$
#963
0$
#964
1$
#965
0$
#966
1$
#967
0$
#968
1$
#969
0$
#970
1$
#971
0$
#972
1$
#973
0$
#974
1$
#975
0$
#976
1$
#977
0$
#978
1$
#979
0$
#980
1$
#981
0$
#982
1$
#983
0$
#984
1$
#985
0$
#986
1$
#987
0$
#988
1$
#989
0$
#990
1$
#991
0$
#992
1$
#993
0$
#994
1$
#995
0$
#996
1$
#997
0$
#998
1$
#999
0$
#1000
0"
1!
1&
1$
b1 #
b1 %
#1001
0$
#1002
b1 '
1$
#1003
0$
#1004
b10 '
1$
#1005
0$
#1006
b11 '
1$
#1007
0$
#1008
b100 '
1$
#1009
0$
#1010
b101 '
1$
#1011
0$
#1012
b110 '
1$
#1013
0$
#1014
b111 '
1$
#1015
0$
#1016
b1000 '
1$
#1017
0$
#1018
b1001 '
1$
#1019
0$
#1020
b1010 '
1$
#1021
0$
#1022
b1011 '
1$
#1023
0$
#1024
b1100 '
1$
#1025
0$
#1026
b1101 '
1$
#1027
0$
#1028
b1110 '
1$
#1029
0$
#1030
b1111 '
1$
#1031
0$
#1032
b10000 '
1$
#1033
0$
#1034
b10001 '
1$
#1035
0$
#1036
b10010 '
1$
#1037
0$
#1038
b10011 '
1$
#1039
0$
#1040
b10100 '
1$
#1041
0$
#1042
b10101 '
1$
#1043
0$
#1044
b10110 '
1$
#1045
0$
#1046
b10111 '
1$
#1047
0$
#1048
b11000 '
1$
#1049
0$
#1050
b11001 '
1$
#1051
0$
#1052
b11010 '
1$
#1053
0$
#1054
b11011 '
1$
#1055
0$
#1056
b11100 '
1$
#1057
0$
#1058
b11101 '
1$
#1059
0$
#1060
b11110 '
1$
#1061
0$
#1062
b11111 '
1$
#1063
0$
#1064
b100000 '
1$
#1065
0$
#1066
b100001 '
1$
#1067
0$
#1068
b100010 '
1$
#1069
0$
#1070
b100011 '
1$
#1071
0$
#1072
b100100 '
1$
#1073
0$
#1074
b100101 '
1$
#1075
0$
#1076
b100110 '
1$
#1077
0$
#1078
b100111 '
1$
#1079
0$
#1080
b101000 '
1$
#1081
0$
#1082
b101001 '
1$
#1083
0$
#1084
b101010 '
1$
#1085
0$
#1086
b101011 '
1$
#1087
0$
#1088
b101100 '
1$
#1089
0$
#1090
b101101 '
1$
#1091
0$
#1092
b101110 '
1$
#1093
0$
#1094
b101111 '
1$
#1095
0$
#1096
b110000 '
1$
#1097
0$
#1098
b110001 '
1$
#1099
0$
#1100
b110010 '
1$
#1101
0$
#1102
b110011 '
1$
#1103
0$
#1104
b110100 '
1$
#1105
0$
#1106
b110101 '
1$
#1107
0$
#1108
b110110 '
1$
#1109
0$
#1110
b110111 '
1$
#1111
0$
#1112
b111000 '
1$
#1113
0$
#1114
b111001 '
1$
#1115
0$
#1116
b111010 '
1$
#1117
0$
#1118
b111011 '
1$
#1119
0$
#1120
b111100 '
1$
#1121
0$
#1122
b111101 '
1$
#1123
0$
#1124
b111110 '
1$
#1125
0$
#1126
b111111 '
1$
#1127
0$
#1128
b1000000 '
1$
#1129
0$
#1130
b1000001 '
1$
#1131
0$
#1132
b1000010 '
1$
#1133
0$
#1134
b1000011 '
1$
#1135
0$
#1136
b1000100 '
1$
#1137
0$
#1138
b1000101 '
1$
#1139
0$
#1140
b1000110 '
1$
#1141
0$
#1142
b1000111 '
1$
#1143
0$
#1144
b1001000 '
1$
#1145
0$
#1146
b1001001 '
1$
#1147
0$
#1148
b1001010 '
1$
#1149
0$
#1150
b1001011 '
1$
#1151
0$
#1152
b1001100 '
1$
#1153
0$
#1154
b1001101 '
1$
#1155
0$
#1156
b1001110 '
1$
#1157
0$
#1158
b1001111 '
1$
#1159
0$
#1160
b1010000 '
1$
#1161
0$
#1162
b1010001 '
1$
#1163
0$
#1164
b1010010 '
1$
#1165
0$
#1166
b1010011 '
1$
#1167
0$
#1168
b1010100 '
1$
#1169
0$
#1170
b1010101 '
1$
#1171
0$
#1172
b1010110 '
1$
#1173
0$
#1174
b1010111 '
1$
#1175
0$
#1176
b1011000 '
1$
#1177
0$
#1178
b1011001 '
1$
#1179
0$
#1180
b1011010 '
1$
#1181
0$
#1182
b1011011 '
1$
#1183
0$
#1184
b1011100 '
1$
#1185
0$
#1186
b1011101 '
1$
#1187
0$
#1188
b1011110 '
1$
#1189
0$
#1190
b1011111 '
1$
#1191
0$
#1192
b1100000 '
1$
#1193
0$
#1194
b1100001 '
1$
#1195
0$
#1196
b1100010 '
1$
#1197
0$
#1198
b1100011 '
1$
#1199
0$
#1200
b1100100 '
1$
#1201
0$
#1202
b1100101 '
1$
#1203
0$
#1204
b1100110 '
1$
#1205
0$
#1206
b1100111 '
1$
#1207
0$
#1208
b1101000 '
1$
#1209
0$
#1210
b1101001 '
1$
#1211
0$
#1212
b1101010 '
1$
#1213
0$
#1214
b1101011 '
1$
#1215
0$
#1216
b1101100 '
1$
#1217
0$
#1218
b1101101 '
1$
#1219
0$
#1220
b1101110 '
1$
#1221
0$
#1222
b1101111 '
1$
#1223
0$
#1224
b1110000 '
1$
#1225
0$
#1226
b1110001 '
1$
#1227
0$
#1228
b1110010 '
1$
#1229
0$
#1230
b1110011 '
1$
#1231
0$
#1232
b1110100 '
1$
#1233
0$
#1234
b1110101 '
1$
#1235
0$
#1236
b1110110 '
1$
#1237
0$
#1238
b1110111 '
1$
#1239
0$
#1240
b1111000 '
1$
#1241
0$
#1242
b1111001 '
1$
#1243
0$
#1244
b1111010 '
1$
#1245
0$
#1246
b1111011 '
1$
#1247
0$
#1248
b1111100 '
1$
#1249
0$
#1250
b1111101 '
1$
#1251
0$
#1252
b1111110 '
1$
#1253
0$
#1254
b1111111 '
1$
#1255
0$
#1256
b10000000 '
1$
#1257
0$
#1258
b10000001 '
1$
#1259
0$
#1260
b10000010 '
1$
#1261
0$
#1262
b10000011 '
1$
#1263
0$
#1264
b10000100 '
1$
#1265
0$
#1266
b10000101 '
1$
#1267
0$
#1268
b10000110 '
1$
#1269
0$
#1270
b10000111 '
1$
#1271
0$
#1272
b10001000 '
1$
#1273
0$
#1274
b10001001 '
1$
#1275
0$
#1276
b10001010 '
1$
#1277
0$
#1278
b10001011 '
1$
#1279
0$
#1280
b10001100 '
1$
#1281
0$
#1282
b10001101 '
1$
#1283
0$
#1284
b10001110 '
1$
#1285
0$
#1286
b10001111 '
1$
#1287
0$
#1288
b10010000 '
1$
#1289
0$
#1290
b10010001 '
1$
#1291
0$
#1292
b10010010 '
1$
#1293
0$
#1294
b10010011 '
1$
#1295
0$
#1296
b10010100 '
1$
#1297
0$
#1298
b10010101 '
1$
#1299
0$
#1300
b10010110 '
1$
#1301
0$
#1302
b10010111 '
1$
#1303
0$
#1304
b10011000 '
1$
#1305
0$
#1306
b10011001 '
1$
#1307
0$
#1308
b10011010 '
1$
#1309
0$
#1310
b10011011 '
1$
#1311
0$
#1312
b10011100 '
1$
#1313
0$
#1314
b10011101 '
1$
#1315
0$
#1316
b10011110 '
1$
#1317
0$
#1318
b10011111 '
1$
#1319
0$
#1320
b10100000 '
1$
#1321
0$
#1322
b10100001 '
1$
#1323
0$
#1324
b10100010 '
1$
#1325
0$
#1326
b10100011 '
1$
#1327
0$
#1328
b10100100 '
1$
#1329
0$
#1330
b10100101 '
1$
#1331
0$
#1332
b10100110 '
1$
#1333
0$
#1334
b10100111 '
1$
#1335
0$
#1336
b10101000 '
1$
#1337
0$
#1338
b10101001 '
1$
#1339
0$
#1340
b10101010 '
1$
#1341
0$
#1342
b10101011 '
1$
#1343
0$
#1344
b10101100 '
1$
#1345
0$
#1346
b10101101 '
1$
#1347
0$
#1348
b10101110 '
1$
#1349
0$
#1350
b10101111 '
1$
#1351
0$
#1352
b10110000 '
1$
#1353
0$
#1354
b10110001 '
1$
#1355
0$
#1356
b10110010 '
1$
#1357
0$
#1358
b10110011 '
1$
#1359
0$
#1360
b10110100 '
1$
#1361
0$
#1362
b10110101 '
1$
#1363
0$
#1364
b10110110 '
1$
#1365
0$
#1366
b10110111 '
1$
#1367
0$
#1368
b10111000 '
1$
#1369
0$
#1370
b10111001 '
1$
#1371
0$
#1372
b10111010 '
1$
#1373
0$
#1374
b10111011 '
1$
#1375
0$
#1376
b10111100 '
1$
#1377
0$
#1378
b10111101 '
1$
#1379
0$
#1380
b10111110 '
1$
#1381
0$
#1382
b10111111 '
1$
#1383
0$
#1384
b11000000 '
1$
#1385
0$
#1386
b11000001 '
1$
#1387
0$
#1388
b11000010 '
1$
#1389
0$
#1390
b11000011 '
1$
#1391
0$
#1392
b11000100 '
1$
#1393
0$
#1394
b11000101 '
1$
#1395
0$
#1396
b11000110 '
1$
#1397
0$
#1398
b11000111 '
1$
#1399
0$
#1400
b11001000 '
1$
#1401
0$
#1402
b11001001 '
1$
#1403
0$
#1404
b11001010 '
1$
#1405
0$
#1406
b11001011 '
1$
#1407
0$
#1408
b11001100 '
1$
#1409
0$
#1410
b11001101 '
1$
#1411
0$
#1412
b11001110 '
1$
#1413
0$
#1414
b11001111 '
1$
#1415
0$
#1416
b11010000 '
1$
#1417
0$
#1418
b11010001 '
1$
#1419
0$
#1420
b11010010 '
1$
#1421
0$
#1422
b11010011 '
1$
#1423
0$
#1424
b11010100 '
1$
#1425
0$
#1426
b11010101 '
1$
#1427
0$
#1428
b11010110 '
1$
#1429
0$
#1430
b11010111 '
1$
#1431
0$
#1432
b11011000 '
1$
#1433
0$
#1434
b11011001 '
1$
#1435
0$
#1436
b11011010 '
1$
#1437
0$
#1438
b11011011 '
1$
#1439
0$
#1440
b11011100 '
1$
#1441
0$
#1442
b11011101 '
1$
#1443
0$
#1444
b11011110 '
1$
#1445
0$
#1446
b11011111 '
1$
#1447
0$
#1448
b11100000 '
1$
#1449
0$
#1450
b11100001 '
1$
#1451
0$
#1452
b11100010 '
1$
#1453
0$
#1454
b11100011 '
1$
#1455
0$
#1456
b11100100 '
1$
#1457
0$
#1458
b11100101 '
1$
#1459
0$
#1460
b11100110 '
1$
#1461
0$
#1462
b11100111 '
1$
#1463
0$
#1464
b11101000 '
1$
#1465
0$
#1466
b11101001 '
1$
#1467
0$
#1468
b11101010 '
1$
#1469
0$
#1470
b11101011 '
1$
#1471
0$
#1472
b11101100 '
1$
#1473
0$
#1474
b11101101 '
1$
#1475
0$
#1476
b11101110 '
1$
#1477
0$
#1478
b11101111 '
1$
#1479
0$
#1480
b11110000 '
1$
#1481
0$
#1482
b11110001 '
1$
#1483
0$
#1484
b11110010 '
1$
#1485
0$
#1486
b11110011 '
1$
#1487
0$
#1488
b11110100 '
1$
#1489
0$
#1490
b11110101 '
1$
#1491
0$
#1492
b11110110 '
1$
#1493
0$
#1494
b11110111 '
1$
#1495
0$
#1496
b11111000 '
1$
#1497
0$
#1498
b11111001 '
1$
#1499
0$
#1500
b11111010 '
1$
#1501
0$
#1502
b11111011 '
1$
#1503
0$
#1504
b11111100 '
1$
#1505
0$
#1506
b11111101 '
1$
#1507
0$
#1508
b11111110 '
1$
#1509
0$
#1510
b11111111 '
1$
#1511
0$
#1512
b100000000 '
1$
#1513
0$
#1514
b100000001 '
1$
#1515
0$
#1516
b100000010 '
1$
#1517
0$
#1518
b100000011 '
1$
#1519
0$
#1520
b100000100 '
1$
#1521
0$
#1522
b100000101 '
1$
#1523
0$
#1524
b100000110 '
1$
#1525
0$
#1526
b100000111 '
1$
#1527
0$
#1528
b100001000 '
1$
#1529
0$
#1530
b100001001 '
1$
#1531
0$
#1532
b100001010 '
1$
#1533
0$
#1534
b100001011 '
1$
#1535
0$
#1536
b100001100 '
1$
#1537
0$
#1538
b100001101 '
1$
#1539
0$
#1540
b100001110 '
1$
#1541
0$
#1542
b100001111 '
1$
#1543
0$
#1544
b100010000 '
1$
#1545
0$
#1546
b100010001 '
1$
#1547
0$
#1548
b100010010 '
1$
#1549
0$
#1550
b100010011 '
1$
#1551
0$
#1552
b100010100 '
1$
#1553
0$
#1554
b100010101 '
1$
#1555
0$
#1556
b100010110 '
1$
#1557
0$
#1558
b100010111 '
1$
#1559
0$
#1560
b100011000 '
1$
#1561
0$
#1562
b100011001 '
1$
#1563
0$
#1564
b100011010 '
1$
#1565
0$
#1566
b100011011 '
1$
#1567
0$
#1568
b100011100 '
1$
#1569
0$
#1570
b100011101 '
1$
#1571
0$
#1572
b100011110 '
1$
#1573
0$
#1574
b100011111 '
1$
#1575
0$
#1576
b100100000 '
1$
#1577
0$
#1578
b100100001 '
1$
#1579
0$
#1580
b100100010 '
1$
#1581
0$
#1582
b100100011 '
1$
#1583
0$
#1584
b100100100 '
1$
#1585
0$
#1586
b100100101 '
1$
#1587
0$
#1588
b100100110 '
1$
#1589
0$
#1590
b100100111 '
1$
#1591
0$
#1592
b100101000 '
1$
#1593
0$
#1594
b100101001 '
1$
#1595
0$
#1596
b100101010 '
1$
#1597
0$
#1598
b100101011 '
1$
#1599
0$
#1600
b100101100 '
1$
#1601
0$
#1602
b100101101 '
1$
#1603
0$
#1604
b100101110 '
1$
#1605
0$
#1606
b100101111 '
1$
#1607
0$
#1608
b100110000 '
1$
#1609
0$
#1610
b100110001 '
1$
#1611
0$
#1612
b100110010 '
1$
#1613
0$
#1614
b100110011 '
1$
#1615
0$
#1616
b100110100 '
1$
#1617
0$
#1618
b100110101 '
1$
#1619
0$
#1620
b100110110 '
1$
#1621
0$
#1622
b100110111 '
1$
#1623
0$
#1624
b100111000 '
1$
#1625
0$
#1626
b100111001 '
1$
#1627
0$
#1628
b100111010 '
1$
#1629
0$
#1630
b100111011 '
1$
#1631
0$
#1632
b100111100 '
1$
#1633
0$
#1634
b100111101 '
1$
#1635
0$
#1636
b100111110 '
1$
#1637
0$
#1638
b100111111 '
1$
#1639
0$
#1640
b101000000 '
1$
#1641
0$
#1642
b101000001 '
1$
#1643
0$
#1644
b101000010 '
1$
#1645
0$
#1646
b101000011 '
1$
#1647
0$
#1648
b101000100 '
1$
#1649
0$
#1650
b101000101 '
1$
#1651
0$
#1652
b101000110 '
1$
#1653
0$
#1654
b101000111 '
1$
#1655
0$
#1656
b101001000 '
1$
#1657
0$
#1658
b101001001 '
1$
#1659
0$
#1660
b101001010 '
1$
#1661
0$
#1662
b101001011 '
1$
#1663
0$
#1664
b101001100 '
1$
#1665
0$
#1666
b101001101 '
1$
#1667
0$
#1668
b101001110 '
1$
#1669
0$
#1670
b101001111 '
1$
#1671
0$
#1672
b101010000 '
1$
#1673
0$
#1674
b101010001 '
1$
#1675
0$
#1676
b101010010 '
1$
#1677
0$
#1678
b101010011 '
1$
#1679
0$
#1680
b101010100 '
1$
#1681
0$
#1682
b101010101 '
1$
#1683
0$
#1684
b101010110 '
1$
#1685
0$
#1686
b101010111 '
1$
#1687
0$
#1688
b101011000 '
1$
#1689
0$
#1690
b101011001 '
1$
#1691
0$
#1692
b101011010 '
1$
#1693
0$
#1694
b101011011 '
1$
#1695
0$
#1696
b101011100 '
1$
#1697
0$
#1698
b101011101 '
1$
#1699
0$
#1700
b101011110 '
1$
#1701
0$
#1702
b101011111 '
1$
#1703
0$
#1704
b101100000 '
1$
#1705
0$
#1706
b101100001 '
1$
#1707
0$
#1708
b101100010 '
1$
#1709
0$
#1710
b101100011 '
1$
#1711
0$
#1712
b101100100 '
1$
#1713
0$
#1714
b101100101 '
1$
#1715
0$
#1716
b101100110 '
1$
#1717
0$
#1718
b101100111 '
1$
#1719
0$
#1720
b101101000 '
1$
#1721
0$
#1722
b101101001 '
1$
#1723
0$
#1724
b101101010 '
1$
#1725
0$
#1726
b101101011 '
1$
#1727
0$
#1728
b101101100 '
1$
#1729
0$
#1730
b101101101 '
1$
#1731
0$
#1732
b101101110 '
1$
#1733
0$
#1734
b101101111 '
1$
#1735
0$
#1736
b101110000 '
1$
#1737
0$
#1738
b101110001 '
1$
#1739
0$
#1740
b101110010 '
1$
#1741
0$
#1742
b101110011 '
1$
#1743
0$
#1744
b101110100 '
1$
#1745
0$
#1746
b101110101 '
1$
#1747
0$
#1748
b101110110 '
1$
#1749
0$
#1750
b101110111 '
1$
#1751
0$
#1752
b101111000 '
1$
#1753
0$
#1754
b101111001 '
1$
#1755
0$
#1756
b101111010 '
1$
#1757
0$
#1758
b101111011 '
1$
#1759
0$
#1760
b101111100 '
1$
#1761
0$
#1762
b101111101 '
1$
#1763
0$
#1764
b101111110 '
1$
#1765
0$
#1766
b101111111 '
1$
#1767
0$
#1768
b110000000 '
1$
#1769
0$
#1770
b110000001 '
1$
#1771
0$
#1772
b110000010 '
1$
#1773
0$
#1774
b110000011 '
1$
#1775
0$
#1776
b110000100 '
1$
#1777
0$
#1778
b110000101 '
1$
#1779
0$
#1780
b110000110 '
1$
#1781
0$
#1782
b110000111 '
1$
#1783
0$
#1784
b110001000 '
1$
#1785
0$
#1786
b110001001 '
1$
#1787
0$
#1788
b110001010 '
1$
#1789
0$
#1790
b110001011 '
1$
#1791
0$
#1792
b110001100 '
1$
#1793
0$
#1794
b110001101 '
1$
#1795
0$
#1796
b110001110 '
1$
#1797
0$
#1798
b110001111 '
1$
#1799
0$
#1800
b110010000 '
1$
#1801
0$
#1802
b110010001 '
1$
#1803
0$
#1804
b110010010 '
1$
#1805
0$
#1806
b110010011 '
1$
#1807
0$
#1808
b110010100 '
1$
#1809
0$
#1810
b110010101 '
1$
#1811
0$
#1812
b110010110 '
1$
#1813
0$
#1814
b110010111 '
1$
#1815
0$
#1816
b110011000 '
1$
#1817
0$
#1818
b110011001 '
1$
#1819
0$
#1820
b110011010 '
1$
#1821
0$
#1822
b110011011 '
1$
#1823
0$
#1824
b110011100 '
1$
#1825
0$
#1826
b110011101 '
1$
#1827
0$
#1828
b110011110 '
1$
#1829
0$
#1830
b110011111 '
1$
