build/waveform.vcd
$date
	Thu Feb  1 17:57:19 2024
$end
$version
	Icarus Verilog
$end
$timescale
	1s
$end
$scope module testbench $end
$var wire 4 ! cathodes [3:0] $end
$var wire 8 " anodes [7:0] $end
$var reg 1 # JA1 $end
$var reg 1 $ clk $end
$scope module UUT $end
$var wire 1 # JA1 $end
$var wire 1 $ clk $end
$var wire 4 % cathode [3:0] $end
$var wire 8 & anode [7:0] $end
$var wire 4 ' Thousands_Data [3:0] $end
$var wire 4 ( Tens_Data [3:0] $end
$var wire 4 ) Ones_Data [3:0] $end
$var wire 4 * Hundreds_Data [3:0] $end
$scope module Unit1 $end
$var wire 1 # JA1 $end
$var wire 1 $ clk $end
$var wire 4 + Thousands_Data [3:0] $end
$var wire 4 , Tens_Data [3:0] $end
$var wire 4 - Ones_Data [3:0] $end
$var wire 1 . OneSecond $end
$var wire 4 / Hundreds_Data [3:0] $end
$var wire 10 0 Binary_Hz [9:0] $end
$scope module Unit1 $end
$var wire 1 $ clk $end
$var reg 1 . OneSecond $end
$var reg 26 1 count [25:0] $end
$upscope $end
$scope module Unit2 $end
$var wire 1 # JA1 $end
$var wire 1 . OneSecond $end
$var wire 1 $ clk $end
$var reg 2 2 EdgeTest [1:0] $end
$var reg 10 3 Hz [9:0] $end
$var reg 1 4 PrevSecond $end
$var reg 10 5 temp [9:0] $end
$upscope $end
$scope module Unit3 $end
$var wire 10 6 Hz [9:0] $end
$var reg 4 7 Hundreds_Data [3:0] $end
$var reg 4 8 Ones_Data [3:0] $end
$var reg 4 9 Tens_Data [3:0] $end
$var reg 4 : Thousands_Data [3:0] $end
$var reg 26 ; bin [25:0] $end
$upscope $end
$upscope $end
$scope module Unit2 $end
$var wire 4 < Hundreds_Data [3:0] $end
$var wire 4 = Ones_Data [3:0] $end
$var wire 4 > Tens_Data [3:0] $end
$var wire 4 ? Thousands_Data [3:0] $end
$var wire 1 $ clk $end
$var wire 2 @ sync [1:0] $end
$var wire 8 A segmentout [7:0] $end
$var wire 8 B decoder4 [7:0] $end
$var wire 8 C decoder3 [7:0] $end
$var wire 8 D decoder2 [7:0] $end
$var wire 8 E decoder1 [7:0] $end
$var wire 4 F cathode [3:0] $end
$scope module U1 $end
$var wire 4 G data [3:0] $end
$var reg 8 H segments [7:0] $end
$upscope $end
$scope module U2 $end
$var wire 4 I data [3:0] $end
$var reg 8 J segments [7:0] $end
$upscope $end
$scope module U3 $end
$var wire 4 K data [3:0] $end
$var reg 8 L segments [7:0] $end
$upscope $end
$scope module U4 $end
$var wire 4 M data [3:0] $end
$var reg 8 N segments [7:0] $end
$upscope $end
$scope module U5 $end
$var wire 1 $ clk $end
$var reg 2 O sync_count [1:0] $end
$upscope $end
$scope module U6 $end
$var wire 8 P segment1 [7:0] $end
$var wire 8 Q segment2 [7:0] $end
$var wire 8 R segment3 [7:0] $end
$var wire 8 S segment4 [7:0] $end
$var wire 2 T sync_count [1:0] $end
$var reg 8 U segmentout [7:0] $end
$upscope $end
$scope module U7 $end
$var wire 2 V sync_count [1:0] $end
$var reg 4 W cathode [3:0] $end
$upscope $end
$upscope $end
$upscope $end
$scope begin $ivl_for_loop0 $end
$var integer 32 X i [31:0] $end
$upscope $end
$upscope $end
$enddefinitions $end
$comment Show the parameter values. $end
$dumpall
$end
#0
$dumpvars
bx X
b1101 W
b1 V
b11000000 U
b1 T
b11000000 S
b11000000 R
b11000000 Q
b11000000 P
b1 O
b11000000 N
b0 M
b11000000 L
b0 K
b11000000 J
b0 I
b11000000 H
b0 G
b1101 F
b11000000 E
b11000000 D
b11000000 C
b11000000 B
b11000000 A
b1 @
b0 ?
b0 >
b0 =
b0 <
b0 ;
b0 :
b0 9
b0 8
b0 7
b0 6
b0 5
04
b0 3
b0 2
b1 1
b0 0
b0 /
0.
b0 -
b0 ,
b0 +
b0 *
b0 )
b0 (
b0 '
b11000000 &
b1101 %
1$
0#
b11000000 "
b1101 !
$end
#1
0$
#2
b1011 !
b1011 %
b1011 F
b1011 W
b10 @
b10 O
b10 T
b10 V
b10 1
1$
#3
0$
#4
b111 !
b111 %
b111 F
b111 W
b11 1
b11 @
b11 O
b11 T
b11 V
1$
#5
0$
#6
b1110 !
b1110 %
b1110 F
b1110 W
b0 @
b0 O
b0 T
b0 V
b100 1
1$
#7
0$
#8
b1101 !
b1101 %
b1101 F
b1101 W
b101 1
b1 @
b1 O
b1 T
b1 V
1$
#9
0$
#10
b1011 !
b1011 %
b1011 F
b1011 W
b10 @
b10 O
b10 T
b10 V
b11 2
b110 1
1$
1#
b0 X
#11
0$
#12
b111 !
b111 %
b111 F
b111 W
b111 1
b11 @
b11 O
b11 T
b11 V
1$
#13
0$
#14
b1110 !
b1110 %
b1110 F
b1110 W
b0 @
b0 O
b0 T
b0 V
b1 5
b0 2
b1000 1
1$
0#
b1 X
#15
0$
#16
b1101 !
b1101 %
b1101 F
b1101 W
b1001 1
b1 @
b1 O
b1 T
b1 V
1$
#17
0$
#18
b1011 !
b1011 %
b1011 F
b1011 W
b10 @
b10 O
b10 T
b10 V
b11 2
b1010 1
1$
1#
b10 X
#19
0$
#20
b111 !
b111 %
b111 F
b111 W
b1011 1
b11 @
b11 O
b11 T
b11 V
1$
#21
0$
#22
b1110 !
b1110 %
b1110 F
b1110 W
b0 @
b0 O
b0 T
b0 V
b10 5
b0 2
b1100 1
1$
0#
b11 X
#23
0$
#24
b1101 !
b1101 %
b1101 F
b1101 W
b1101 1
b1 @
b1 O
b1 T
b1 V
1$
#25
0$
#26
b1011 !
b1011 %
b1011 F
b1011 W
b10 @
b10 O
b10 T
b10 V
b11 2
b1110 1
1$
1#
b100 X
#27
0$
#28
b111 !
b111 %
b111 F
b111 W
b1111 1
b11 @
b11 O
b11 T
b11 V
1$
#29
0$
#30
b1110 !
b1110 %
b1110 F
b1110 W
b0 @
b0 O
b0 T
b0 V
b11 5
b0 2
b10000 1
1$
0#
b101 X
#31
0$
#32
b1101 !
b1101 %
b1101 F
b1101 W
b10001 1
b1 @
b1 O
b1 T
b1 V
1$
#33
0$
#34
b1011 !
b1011 %
b1011 F
b1011 W
b10 @
b10 O
b10 T
b10 V
b11 2
b10010 1
1$
1#
b110 X
#35
0$
#36
b111 !
b111 %
b111 F
b111 W
b10011 1
b11 @
b11 O
b11 T
b11 V
1$
#37
0$
#38
b1110 !
b1110 %
b1110 F
b1110 W
b0 @
b0 O
b0 T
b0 V
b100 5
b0 2
b10100 1
1$
0#
b111 X
#39
0$
#40
b1101 !
b1101 %
b1101 F
b1101 W
b10101 1
b1 @
b1 O
b1 T
b1 V
1$
#41
0$
#42
b1011 !
b1011 %
b1011 F
b1011 W
b10 @
b10 O
b10 T
b10 V
b11 2
b10110 1
1$
1#
b1000 X
#43
0$
#44
b111 !
b111 %
b111 F
b111 W
b10111 1
b11 @
b11 O
b11 T
b11 V
1$
#45
0$
#46
b1110 !
b1110 %
b1110 F
b1110 W
b0 @
b0 O
b0 T
b0 V
b101 5
b0 2
b11000 1
1$
0#
b1001 X
#47
0$
#48
b1101 !
b1101 %
b1101 F
b1101 W
b11001 1
b1 @
b1 O
b1 T
b1 V
1$
#49
0$
#50
b1011 !
b1011 %
b1011 F
b1011 W
b10 @
b10 O
b10 T
b10 V
b11 2
b11010 1
1$
1#
b1010 X
#51
0$
#52
b111 !
b111 %
b111 F
b111 W
b11011 1
b11 @
b11 O
b11 T
b11 V
1$
#53
0$
#54
b1110 !
b1110 %
b1110 F
b1110 W
b0 @
b0 O
b0 T
b0 V
b110 5
b0 2
b11100 1
1$
0#
b1011 X
#55
0$
#56
b1101 !
b1101 %
b1101 F
b1101 W
b11101 1
b1 @
b1 O
b1 T
b1 V
1$
#57
0$
#58
b1011 !
b1011 %
b1011 F
b1011 W
b10 @
b10 O
b10 T
b10 V
b11 2
b11110 1
1$
1#
b1100 X
#59
0$
#60
b111 !
b111 %
b111 F
b111 W
b11111 1
b11 @
b11 O
b11 T
b11 V
1$
#61
0$
#62
b1110 !
b1110 %
b1110 F
b1110 W
b0 @
b0 O
b0 T
b0 V
b111 5
b0 2
b100000 1
1$
0#
b1101 X
#63
0$
#64
b1101 !
b1101 %
b1101 F
b1101 W
b100001 1
b1 @
b1 O
b1 T
b1 V
1$
#65
0$
#66
b1011 !
b1011 %
b1011 F
b1011 W
b10 @
b10 O
b10 T
b10 V
b11 2
b100010 1
1$
1#
b1110 X
#67
0$
#68
b111 !
b111 %
b111 F
b111 W
b100011 1
b11 @
b11 O
b11 T
b11 V
1$
#69
0$
#70
b1110 !
b1110 %
b1110 F
b1110 W
b0 @
b0 O
b0 T
b0 V
b1000 5
b0 2
b100100 1
1$
0#
b1111 X
#71
0$
#72
b1101 !
b1101 %
b1101 F
b1101 W
b100101 1
b1 @
b1 O
b1 T
b1 V
1$
#73
0$
#74
b1011 !
b1011 %
b1011 F
b1011 W
b10 @
b10 O
b10 T
b10 V
b11 2
b100110 1
1$
1#
b10000 X
#75
0$
#76
b111 !
b111 %
b111 F
b111 W
b100111 1
b11 @
b11 O
b11 T
b11 V
1$
#77
0$
#78
b1110 !
b1110 %
b1110 F
b1110 W
b0 @
b0 O
b0 T
b0 V
b1001 5
b0 2
b101000 1
1$
0#
b10001 X
#79
0$
#80
b1101 !
b1101 %
b1101 F
b1101 W
b101001 1
b1 @
b1 O
b1 T
b1 V
1$
#81
0$
#82
b1011 !
b1011 %
b1011 F
b1011 W
b10 @
b10 O
b10 T
b10 V
b11 2
b101010 1
1$
1#
b10010 X
#83
0$
#84
b111 !
b111 %
b111 F
b111 W
b101011 1
b11 @
b11 O
b11 T
b11 V
1$
#85
0$
#86
b1110 !
b1110 %
b1110 F
b1110 W
b0 @
b0 O
b0 T
b0 V
b1010 5
b0 2
b101100 1
1$
0#
b10011 X
#87
0$
#88
b1101 !
b1101 %
b1101 F
b1101 W
b101101 1
b1 @
b1 O
b1 T
b1 V
1$
#89
0$
#90
b1011 !
b1011 %
b1011 F
b1011 W
b10 @
b10 O
b10 T
b10 V
b11 2
b101110 1
1$
1#
b10100 X
#91
0$
#92
b111 !
b111 %
b111 F
b111 W
b101111 1
b11 @
b11 O
b11 T
b11 V
1$
#93
0$
#94
b1110 !
b1110 %
b1110 F
b1110 W
b0 @
b0 O
b0 T
b0 V
b1011 5
b0 2
b110000 1
1$
0#
b10101 X
#95
0$
#96
b1101 !
b1101 %
b1101 F
b1101 W
b110001 1
b1 @
b1 O
b1 T
b1 V
1$
#97
0$
#98
b1011 !
b1011 %
b1011 F
b1011 W
b10 @
b10 O
b10 T
b10 V
b11 2
b110010 1
1$
1#
b10110 X
#99
0$
#100
b111 !
b111 %
b111 F
b111 W
b110011 1
b11 @
b11 O
b11 T
b11 V
1$
#101
0$
#102
b1110 !
b1110 %
b1110 F
b1110 W
b0 @
b0 O
b0 T
b0 V
b1100 5
b0 2
b110100 1
1$
0#
b10111 X
#103
0$
#104
b1101 !
b1101 %
b1101 F
b1101 W
b110101 1
b1 @
b1 O
b1 T
b1 V
1$
#105
0$
#106
b1011 !
b1011 %
b1011 F
b1011 W
b10 @
b10 O
b10 T
b10 V
b11 2
b110110 1
1$
1#
b11000 X
#107
0$
#108
b111 !
b111 %
b111 F
b111 W
b110111 1
b11 @
b11 O
b11 T
b11 V
1$
#109
0$
#110
b1110 !
b1110 %
b1110 F
b1110 W
b0 @
b0 O
b0 T
b0 V
b1101 5
b0 2
b111000 1
1$
0#
b11001 X
#111
0$
#112
b1101 !
b1101 %
b1101 F
b1101 W
b111001 1
b1 @
b1 O
b1 T
b1 V
1$
#113
0$
#114
b1011 !
b1011 %
b1011 F
b1011 W
b10 @
b10 O
b10 T
b10 V
b11 2
b111010 1
1$
1#
b11010 X
#115
0$
#116
b111 !
b111 %
b111 F
b111 W
b111011 1
b11 @
b11 O
b11 T
b11 V
1$
#117
0$
#118
b1110 !
b1110 %
b1110 F
b1110 W
b0 @
b0 O
b0 T
b0 V
b1110 5
b0 2
b111100 1
1$
0#
b11011 X
#119
0$
#120
b1101 !
b1101 %
b1101 F
b1101 W
b111101 1
b1 @
b1 O
b1 T
b1 V
1$
#121
0$
#122
b1011 !
b1011 %
b1011 F
b1011 W
b10 @
b10 O
b10 T
b10 V
b11 2
b111110 1
1$
1#
b11100 X
#123
0$
#124
b111 !
b111 %
b111 F
b111 W
b111111 1
b11 @
b11 O
b11 T
b11 V
1$
#125
0$
#126
b1110 !
b1110 %
b1110 F
b1110 W
b0 @
b0 O
b0 T
b0 V
b1111 5
b0 2
b1000000 1
1$
0#
b11101 X
#127
0$
#128
b1101 !
b1101 %
b1101 F
b1101 W
b1000001 1
b1 @
b1 O
b1 T
b1 V
1$
#129
0$
#130
b1011 !
b1011 %
b1011 F
b1011 W
b10 @
b10 O
b10 T
b10 V
b11 2
b1000010 1
1$
1#
b11110 X
#131
0$
#132
b111 !
b111 %
b111 F
b111 W
b1000011 1
b11 @
b11 O
b11 T
b11 V
1$
#133
0$
#134
b1110 !
b1110 %
b1110 F
b1110 W
b0 @
b0 O
b0 T
b0 V
b10000 5
b0 2
b1000100 1
1$
0#
b11111 X
#135
0$
#136
b1101 !
b1101 %
b1101 F
b1101 W
b1000101 1
b1 @
b1 O
b1 T
b1 V
1$
#137
0$
#138
b1011 !
b1011 %
b1011 F
b1011 W
b10 @
b10 O
b10 T
b10 V
b11 2
b1000110 1
1$
1#
b100000 X
#139
0$
#140
b111 !
b111 %
b111 F
b111 W
b1000111 1
b11 @
b11 O
b11 T
b11 V
1$
#141
0$
#142
b1110 !
b1110 %
b1110 F
b1110 W
b0 @
b0 O
b0 T
b0 V
b10001 5
b0 2
b1001000 1
1$
0#
b100001 X
#143
0$
#144
b1101 !
b1101 %
b1101 F
b1101 W
b1001001 1
b1 @
b1 O
b1 T
b1 V
1$
#145
0$
#146
b1011 !
b1011 %
b1011 F
b1011 W
b10 @
b10 O
b10 T
b10 V
b11 2
b1001010 1
1$
1#
b100010 X
#147
0$
#148
b111 !
b111 %
b111 F
b111 W
b1001011 1
b11 @
b11 O
b11 T
b11 V
1$
#149
0$
#150
b1110 !
b1110 %
b1110 F
b1110 W
b0 @
b0 O
b0 T
b0 V
b10010 5
b0 2
b1001100 1
1$
0#
b100011 X
#151
0$
#152
b1101 !
b1101 %
b1101 F
b1101 W
b1001101 1
b1 @
b1 O
b1 T
b1 V
1$
#153
0$
#154
b1011 !
b1011 %
b1011 F
b1011 W
b10 @
b10 O
b10 T
b10 V
b11 2
b1001110 1
1$
1#
b100100 X
#155
0$
#156
b111 !
b111 %
b111 F
b111 W
b1001111 1
b11 @
b11 O
b11 T
b11 V
1$
#157
0$
#158
b1110 !
b1110 %
b1110 F
b1110 W
b0 @
b0 O
b0 T
b0 V
b10011 5
b0 2
b1010000 1
1$
0#
b100101 X
#159
0$
#160
b1101 !
b1101 %
b1101 F
b1101 W
b1010001 1
b1 @
b1 O
b1 T
b1 V
1$
#161
0$
#162
b1011 !
b1011 %
b1011 F
b1011 W
b10 @
b10 O
b10 T
b10 V
b11 2
b1010010 1
1$
1#
b100110 X
#163
0$
#164
b111 !
b111 %
b111 F
b111 W
b1010011 1
b11 @
b11 O
b11 T
b11 V
1$
#165
0$
#166
b1110 !
b1110 %
b1110 F
b1110 W
b0 @
b0 O
b0 T
b0 V
b10100 5
b0 2
b1010100 1
1$
0#
b100111 X
#167
0$
#168
b1101 !
b1101 %
b1101 F
b1101 W
b1010101 1
b1 @
b1 O
b1 T
b1 V
1$
#169
0$
#170
b1011 !
b1011 %
b1011 F
b1011 W
b10 @
b10 O
b10 T
b10 V
b11 2
b1010110 1
1$
1#
b101000 X
#171
0$
#172
b111 !
b111 %
b111 F
b111 W
b1010111 1
b11 @
b11 O
b11 T
b11 V
1$
#173
0$
#174
b1110 !
b1110 %
b1110 F
b1110 W
b0 @
b0 O
b0 T
b0 V
b10101 5
b0 2
b1011000 1
1$
0#
b101001 X
#175
0$
#176
b1101 !
b1101 %
b1101 F
b1101 W
b1011001 1
b1 @
b1 O
b1 T
b1 V
1$
#177
0$
#178
b1011 !
b1011 %
b1011 F
b1011 W
b10 @
b10 O
b10 T
b10 V
b11 2
b1011010 1
1$
1#
b101010 X
#179
0$
#180
b111 !
b111 %
b111 F
b111 W
b1011011 1
b11 @
b11 O
b11 T
b11 V
1$
#181
0$
#182
b1110 !
b1110 %
b1110 F
b1110 W
b0 @
b0 O
b0 T
b0 V
b10110 5
b0 2
b1011100 1
1$
0#
b101011 X
#183
0$
#184
b1101 !
b1101 %
b1101 F
b1101 W
b1011101 1
b1 @
b1 O
b1 T
b1 V
1$
#185
0$
#186
b1011 !
b1011 %
b1011 F
b1011 W
b10 @
b10 O
b10 T
b10 V
b11 2
b1011110 1
1$
1#
b101100 X
#187
0$
#188
b111 !
b111 %
b111 F
b111 W
b1011111 1
b11 @
b11 O
b11 T
b11 V
1$
#189
0$
#190
b1110 !
b1110 %
b1110 F
b1110 W
b0 @
b0 O
b0 T
b0 V
b10111 5
b0 2
b1100000 1
1$
0#
b101101 X
#191
0$
#192
b1101 !
b1101 %
b1101 F
b1101 W
b1100001 1
b1 @
b1 O
b1 T
b1 V
1$
#193
0$
#194
b1011 !
b1011 %
b1011 F
b1011 W
b10 @
b10 O
b10 T
b10 V
b11 2
b1100010 1
1$
1#
b101110 X
#195
0$
#196
b111 !
b111 %
b111 F
b111 W
b1100011 1
b11 @
b11 O
b11 T
b11 V
1$
#197
0$
#198
b1110 !
b1110 %
b1110 F
b1110 W
b0 @
b0 O
b0 T
b0 V
b11000 5
b0 2
b1100100 1
1$
0#
b101111 X
#199
0$
#200
b1101 !
b1101 %
b1101 F
b1101 W
b1100101 1
b1 @
b1 O
b1 T
b1 V
1$
#201
0$
#202
b1011 !
b1011 %
b1011 F
b1011 W
b10 @
b10 O
b10 T
b10 V
b11 2
b1100110 1
1$
1#
b110000 X
#203
0$
#204
b111 !
b111 %
b111 F
b111 W
b1100111 1
b11 @
b11 O
b11 T
b11 V
1$
#205
0$
#206
b1110 !
b1110 %
b1110 F
b1110 W
b0 @
b0 O
b0 T
b0 V
b11001 5
b0 2
b1101000 1
1$
0#
b110001 X
#207
0$
#208
b1101 !
b1101 %
b1101 F
b1101 W
b1101001 1
b1 @
b1 O
b1 T
b1 V
1$
#209
0$
#210
b1011 !
b1011 %
b1011 F
b1011 W
b10 @
b10 O
b10 T
b10 V
b11 2
b1101010 1
1$
1#
b110010 X
#211
0$
#212
b111 !
b111 %
b111 F
b111 W
b1101011 1
b11 @
b11 O
b11 T
b11 V
1$
#213
0$
#214
b1110 !
b1110 %
b1110 F
b1110 W
b0 @
b0 O
b0 T
b0 V
b11010 5
b0 2
b1101100 1
1$
0#
b110011 X
#215
0$
#216
b1101 !
b1101 %
b1101 F
b1101 W
b1101101 1
b1 @
b1 O
b1 T
b1 V
1$
#217
0$
#218
b1011 !
b1011 %
b1011 F
b1011 W
b10 @
b10 O
b10 T
b10 V
b11 2
b1101110 1
1$
1#
b110100 X
#219
0$
#220
b111 !
b111 %
b111 F
b111 W
b1101111 1
b11 @
b11 O
b11 T
b11 V
1$
#221
0$
#222
b1110 !
b1110 %
b1110 F
b1110 W
b0 @
b0 O
b0 T
b0 V
b11011 5
b0 2
b1110000 1
1$
0#
b110101 X
#223
0$
#224
b1101 !
b1101 %
b1101 F
b1101 W
b1110001 1
b1 @
b1 O
b1 T
b1 V
1$
#225
0$
#226
b1011 !
b1011 %
b1011 F
b1011 W
b10 @
b10 O
b10 T
b10 V
b11 2
b1110010 1
1$
1#
b110110 X
#227
0$
#228
b111 !
b111 %
b111 F
b111 W
b1110011 1
b11 @
b11 O
b11 T
b11 V
1$
#229
0$
#230
b1110 !
b1110 %
b1110 F
b1110 W
b0 @
b0 O
b0 T
b0 V
b11100 5
b0 2
b1110100 1
1$
0#
b110111 X
#231
0$
#232
b1101 !
b1101 %
b1101 F
b1101 W
b1110101 1
b1 @
b1 O
b1 T
b1 V
1$
#233
0$
#234
b1011 !
b1011 %
b1011 F
b1011 W
b10 @
b10 O
b10 T
b10 V
b11 2
b1110110 1
1$
1#
b111000 X
#235
0$
#236
b111 !
b111 %
b111 F
b111 W
b1110111 1
b11 @
b11 O
b11 T
b11 V
1$
#237
0$
#238
b1110 !
b1110 %
b1110 F
b1110 W
b0 @
b0 O
b0 T
b0 V
b11101 5
b0 2
b1111000 1
1$
0#
b111001 X
#239
0$
#240
b1101 !
b1101 %
b1101 F
b1101 W
b1111001 1
b1 @
b1 O
b1 T
b1 V
1$
#241
0$
#242
b1011 !
b1011 %
b1011 F
b1011 W
b10 @
b10 O
b10 T
b10 V
b11 2
b1111010 1
1$
1#
b111010 X
#243
0$
#244
b111 !
b111 %
b111 F
b111 W
b1111011 1
b11 @
b11 O
b11 T
b11 V
1$
#245
0$
#246
b1110 !
b1110 %
b1110 F
b1110 W
b0 @
b0 O
b0 T
b0 V
b11110 5
b0 2
b1111100 1
1$
0#
b111011 X
#247
0$
#248
b1101 !
b1101 %
b1101 F
b1101 W
b1111101 1
b1 @
b1 O
b1 T
b1 V
1$
#249
0$
#250
b1011 !
b1011 %
b1011 F
b1011 W
b10 @
b10 O
b10 T
b10 V
b11 2
b1111110 1
1$
1#
b111100 X
#251
0$
#252
b111 !
b111 %
b111 F
b111 W
b1111111 1
b11 @
b11 O
b11 T
b11 V
1$
#253
0$
#254
b1110 !
b1110 %
b1110 F
b1110 W
b0 @
b0 O
b0 T
b0 V
b11111 5
b0 2
b10000000 1
1$
0#
b111101 X
#255
0$
#256
b1101 !
b1101 %
b1101 F
b1101 W
b10000001 1
b1 @
b1 O
b1 T
b1 V
1$
#257
0$
#258
b1011 !
b1011 %
b1011 F
b1011 W
b10 @
b10 O
b10 T
b10 V
b11 2
b10000010 1
1$
1#
b111110 X
#259
0$
#260
b111 !
b111 %
b111 F
b111 W
b10000011 1
b11 @
b11 O
b11 T
b11 V
1$
#261
0$
#262
b1110 !
b1110 %
b1110 F
b1110 W
b0 @
b0 O
b0 T
b0 V
b100000 5
b0 2
b10000100 1
1$
0#
b111111 X
#263
0$
#264
b1101 !
b1101 %
b1101 F
b1101 W
b10000101 1
b1 @
b1 O
b1 T
b1 V
1$
#265
0$
#266
b1011 !
b1011 %
b1011 F
b1011 W
b10 @
b10 O
b10 T
b10 V
b11 2
b10000110 1
1$
1#
b1000000 X
#267
0$
#268
b111 !
b111 %
b111 F
b111 W
b10000111 1
b11 @
b11 O
b11 T
b11 V
1$
#269
0$
#270
b1110 !
b1110 %
b1110 F
b1110 W
b0 @
b0 O
b0 T
b0 V
b100001 5
b0 2
b10001000 1
1$
0#
b1000001 X
#271
0$
#272
b1101 !
b1101 %
b1101 F
b1101 W
b10001001 1
b1 @
b1 O
b1 T
b1 V
1$
#273
0$
#274
b1011 !
b1011 %
b1011 F
b1011 W
b10 @
b10 O
b10 T
b10 V
b11 2
b10001010 1
1$
1#
b1000010 X
#275
0$
#276
b111 !
b111 %
b111 F
b111 W
b10001011 1
b11 @
b11 O
b11 T
b11 V
1$
#277
0$
#278
b1110 !
b1110 %
b1110 F
b1110 W
b0 @
b0 O
b0 T
b0 V
b100010 5
b0 2
b10001100 1
1$
0#
b1000011 X
#279
0$
#280
b1101 !
b1101 %
b1101 F
b1101 W
b10001101 1
b1 @
b1 O
b1 T
b1 V
1$
#281
0$
#282
b1011 !
b1011 %
b1011 F
b1011 W
b10 @
b10 O
b10 T
b10 V
b11 2
b10001110 1
1$
1#
b1000100 X
#283
0$
#284
b111 !
b111 %
b111 F
b111 W
b10001111 1
b11 @
b11 O
b11 T
b11 V
1$
#285
0$
#286
b1110 !
b1110 %
b1110 F
b1110 W
b0 @
b0 O
b0 T
b0 V
b100011 5
b0 2
b10010000 1
1$
0#
b1000101 X
#287
0$
#288
b1101 !
b1101 %
b1101 F
b1101 W
b10010001 1
b1 @
b1 O
b1 T
b1 V
1$
#289
0$
#290
b1011 !
b1011 %
b1011 F
b1011 W
b10 @
b10 O
b10 T
b10 V
b11 2
b10010010 1
1$
1#
b1000110 X
#291
0$
#292
b111 !
b111 %
b111 F
b111 W
b10010011 1
b11 @
b11 O
b11 T
b11 V
1$
#293
0$
#294
b1110 !
b1110 %
b1110 F
b1110 W
b0 @
b0 O
b0 T
b0 V
b100100 5
b0 2
b10010100 1
1$
0#
b1000111 X
#295
0$
#296
b1101 !
b1101 %
b1101 F
b1101 W
b10010101 1
b1 @
b1 O
b1 T
b1 V
1$
#297
0$
#298
b1011 !
b1011 %
b1011 F
b1011 W
b10 @
b10 O
b10 T
b10 V
b11 2
b10010110 1
1$
1#
b1001000 X
#299
0$
#300
b111 !
b111 %
b111 F
b111 W
b10010111 1
b11 @
b11 O
b11 T
b11 V
1$
#301
0$
#302
b1110 !
b1110 %
b1110 F
b1110 W
b0 @
b0 O
b0 T
b0 V
b100101 5
b0 2
b10011000 1
1$
0#
b1001001 X
#303
0$
#304
b1101 !
b1101 %
b1101 F
b1101 W
b10011001 1
b1 @
b1 O
b1 T
b1 V
1$
#305
0$
#306
b1011 !
b1011 %
b1011 F
b1011 W
b10 @
b10 O
b10 T
b10 V
b11 2
b10011010 1
1$
1#
b1001010 X
#307
0$
#308
b111 !
b111 %
b111 F
b111 W
b10011011 1
b11 @
b11 O
b11 T
b11 V
1$
#309
0$
#310
b1110 !
b1110 %
b1110 F
b1110 W
b0 @
b0 O
b0 T
b0 V
b100110 5
b0 2
b10011100 1
1$
0#
b1001011 X
#311
0$
#312
b1101 !
b1101 %
b1101 F
b1101 W
b10011101 1
b1 @
b1 O
b1 T
b1 V
1$
#313
0$
#314
b1011 !
b1011 %
b1011 F
b1011 W
b10 @
b10 O
b10 T
b10 V
b11 2
b10011110 1
1$
1#
b1001100 X
#315
0$
#316
b111 !
b111 %
b111 F
b111 W
b10011111 1
b11 @
b11 O
b11 T
b11 V
1$
#317
0$
#318
b1110 !
b1110 %
b1110 F
b1110 W
b0 @
b0 O
b0 T
b0 V
b100111 5
b0 2
b10100000 1
1$
0#
b1001101 X
#319
0$
#320
b1101 !
b1101 %
b1101 F
b1101 W
b10100001 1
b1 @
b1 O
b1 T
b1 V
1$
#321
0$
#322
b1011 !
b1011 %
b1011 F
b1011 W
b10 @
b10 O
b10 T
b10 V
b11 2
b10100010 1
1$
1#
b1001110 X
#323
0$
#324
b111 !
b111 %
b111 F
b111 W
b10100011 1
b11 @
b11 O
b11 T
b11 V
1$
#325
0$
#326
b1110 !
b1110 %
b1110 F
b1110 W
b0 @
b0 O
b0 T
b0 V
b101000 5
b0 2
b10100100 1
1$
0#
b1001111 X
#327
0$
#328
b1101 !
b1101 %
b1101 F
b1101 W
b10100101 1
b1 @
b1 O
b1 T
b1 V
1$
#329
0$
#330
b1011 !
b1011 %
b1011 F
b1011 W
b10 @
b10 O
b10 T
b10 V
b11 2
b10100110 1
1$
1#
b1010000 X
#331
0$
#332
b111 !
b111 %
b111 F
b111 W
b10100111 1
b11 @
b11 O
b11 T
b11 V
1$
#333
0$
#334
b1110 !
b1110 %
b1110 F
b1110 W
b0 @
b0 O
b0 T
b0 V
b101001 5
b0 2
b10101000 1
1$
0#
b1010001 X
#335
0$
#336
b1101 !
b1101 %
b1101 F
b1101 W
b10101001 1
b1 @
b1 O
b1 T
b1 V
1$
#337
0$
#338
b1011 !
b1011 %
b1011 F
b1011 W
b10 @
b10 O
b10 T
b10 V
b11 2
b10101010 1
1$
1#
b1010010 X
#339
0$
#340
b111 !
b111 %
b111 F
b111 W
b10101011 1
b11 @
b11 O
b11 T
b11 V
1$
#341
0$
#342
b1110 !
b1110 %
b1110 F
b1110 W
b0 @
b0 O
b0 T
b0 V
b101010 5
b0 2
b10101100 1
1$
0#
b1010011 X
#343
0$
#344
b1101 !
b1101 %
b1101 F
b1101 W
b10101101 1
b1 @
b1 O
b1 T
b1 V
1$
#345
0$
#346
b1011 !
b1011 %
b1011 F
b1011 W
b10 @
b10 O
b10 T
b10 V
b11 2
b10101110 1
1$
1#
b1010100 X
#347
0$
#348
b111 !
b111 %
b111 F
b111 W
b10101111 1
b11 @
b11 O
b11 T
b11 V
1$
#349
0$
#350
b1110 !
b1110 %
b1110 F
b1110 W
b0 @
b0 O
b0 T
b0 V
b101011 5
b0 2
b10110000 1
1$
0#
b1010101 X
#351
0$
#352
b1101 !
b1101 %
b1101 F
b1101 W
b10110001 1
b1 @
b1 O
b1 T
b1 V
1$
#353
0$
#354
b1011 !
b1011 %
b1011 F
b1011 W
b10 @
b10 O
b10 T
b10 V
b11 2
b10110010 1
1$
1#
b1010110 X
#355
0$
#356
b111 !
b111 %
b111 F
b111 W
b10110011 1
b11 @
b11 O
b11 T
b11 V
1$
#357
0$
#358
b1110 !
b1110 %
b1110 F
b1110 W
b0 @
b0 O
b0 T
b0 V
b101100 5
b0 2
b10110100 1
1$
0#
b1010111 X
#359
0$
#360
b1101 !
b1101 %
b1101 F
b1101 W
b10110101 1
b1 @
b1 O
b1 T
b1 V
1$
#361
0$
#362
b1011 !
b1011 %
b1011 F
b1011 W
b10 @
b10 O
b10 T
b10 V
b11 2
b10110110 1
1$
1#
b1011000 X
#363
0$
#364
b111 !
b111 %
b111 F
b111 W
b10110111 1
b11 @
b11 O
b11 T
b11 V
1$
#365
0$
#366
b1110 !
b1110 %
b1110 F
b1110 W
b0 @
b0 O
b0 T
b0 V
b101101 5
b0 2
b10111000 1
1$
0#
b1011001 X
#367
0$
#368
b1101 !
b1101 %
b1101 F
b1101 W
b10111001 1
b1 @
b1 O
b1 T
b1 V
1$
#369
0$
#370
b1011 !
b1011 %
b1011 F
b1011 W
b10 @
b10 O
b10 T
b10 V
b11 2
b10111010 1
1$
1#
b1011010 X
#371
0$
